Loading plugins phase: Elapsed time ==> 0s.506ms
Initializing data phase: Elapsed time ==> 0s.000ms
<CYPRESSTAG name="CyDsfit arguments...">
cydsfit arguments: -.fdsnotice -.fdswarpdepfile=warp_dependencies.txt -.fdselabdepfile=elab_dependencies.txt -.fdsbldfile=generated_files.txt -p C:\Users\Tom.McKay\Documents\PacificAveResearch\projects\fall2016_waffle_prototype\DMA_SPI_PSoC401\DMA_SPI_PSoC403.cydsn\DMA_SPI_PSoC403.cyprj -d CY8C4248LQI-BL583 -s C:\Users\Tom.McKay\Documents\PacificAveResearch\projects\fall2016_waffle_prototype\DMA_SPI_PSoC401\DMA_SPI_PSoC403.cydsn\Generated_Source\PSoC4 -- -yv2 -q10 -ygs -o2 -v3 -.fftcfgtype=LE</CYPRESSTAG>
<CYPRESSTAG name="Design elaboration results...">
</CYPRESSTAG>
Elaboration phase: Elapsed time ==> 7s.595ms
<CYPRESSTAG name="HDL generation results...">
</CYPRESSTAG>
HDL generation phase: Elapsed time ==> 0s.135ms
<CYPRESSTAG name="Synthesis results...">

     | | | | | | |
   _________________
  -|               |-
  -|               |-
  -|               |-
  -|    CYPRESS    |-
  -|               |-
  -|               |-   Warp Verilog Synthesis Compiler: Version 6.3 IR 41
  -|               |-   Copyright (C) 1991-2001 Cypress Semiconductor
   |_______________|
     | | | | | | |

======================================================================
Compiling:  DMA_SPI_PSoC403.v
Program  :   C:\Program Files (x86)\Cypress\PSoC Creator\3.3\PSoC Creator\warp\bin/warp.exe
Options  :    -yv2 -q10 -ygs -o2 -v3 -.fftcfgtype=LE -ya -.fftprj=C:\Users\Tom.McKay\Documents\PacificAveResearch\projects\fall2016_waffle_prototype\DMA_SPI_PSoC401\DMA_SPI_PSoC403.cydsn\DMA_SPI_PSoC403.cyprj -dcpsoc3 DMA_SPI_PSoC403.v -verilog
======================================================================

======================================================================
Compiling:  DMA_SPI_PSoC403.v
Program  :   C:\Program Files (x86)\Cypress\PSoC Creator\3.3\PSoC Creator\warp\bin/warp.exe
Options  :    -yv2 -q10 -ygs -o2 -v3 -.fftcfgtype=LE -ya -.fftprj=C:\Users\Tom.McKay\Documents\PacificAveResearch\projects\fall2016_waffle_prototype\DMA_SPI_PSoC401\DMA_SPI_PSoC403.cydsn\DMA_SPI_PSoC403.cyprj -dcpsoc3 DMA_SPI_PSoC403.v -verilog
======================================================================

======================================================================
Compiling:  DMA_SPI_PSoC403.v
Program  :   vlogfe
Options  :    -yv2 -q10 -ygs -o2 -v3 -.fftcfgtype=LE -ya -.fftprj=C:\Users\Tom.McKay\Documents\PacificAveResearch\projects\fall2016_waffle_prototype\DMA_SPI_PSoC401\DMA_SPI_PSoC403.cydsn\DMA_SPI_PSoC403.cyprj -dcpsoc3 -verilog DMA_SPI_PSoC403.v
======================================================================

vlogfe V6.3 IR 41:  Verilog parser
Fri Sep 23 19:49:50 2016


======================================================================
Compiling:  DMA_SPI_PSoC403.v
Program  :   vpp
Options  :    -yv2 -q10 DMA_SPI_PSoC403.v
======================================================================

vpp V6.3 IR 41:  Verilog Pre-Processor
Fri Sep 23 19:49:50 2016

Flattening file 'C:\Program Files (x86)\Cypress\PSoC Creator\3.3\PSoC Creator\psoc\content\cyprimitives\CyPrimitives.cylib\cy_virtualmux_v1_0\cy_virtualmux_v1_0.v'
Flattening file 'C:\Program Files (x86)\Cypress\PSoC Creator\3.3\PSoC Creator\psoc\content\cyprimitives\CyPrimitives.cylib\ZeroTerminal\ZeroTerminal.v'
Flattening file 'C:\Program Files (x86)\Cypress\PSoC Creator\3.3\PSoC Creator\psoc\content\cyprimitives\CyPrimitives.cylib\or_v1_0\or_v1_0.v'
Flattening file 'C:\Program Files (x86)\Cypress\PSoC Creator\3.3\PSoC Creator\psoc\content\cycomponentlibrary\CyComponentLibrary.cylib\B_SPI_Slave_v2_70\B_SPI_Slave_v2_70.v'
Flattening file 'C:\Program Files (x86)\Cypress\PSoC Creator\3.3\PSoC Creator\warp\lib\common\cypress.v'
Flattening file 'C:\Program Files (x86)\Cypress\PSoC Creator\3.3\PSoC Creator\warp\lib\common\cy_psoc3_inc.v'
Flattening file 'C:\Program Files (x86)\Cypress\PSoC Creator\3.3\PSoC Creator\psoc\content\cyprimitives\CyPrimitives.cylib\not_v1_0\not_v1_0.v'

vpp:  No errors.

Library 'work' => directory 'lcpsoc3'
General_symbol_table
General_symbol_table
Linking 'C:\Program Files (x86)\Cypress\PSoC Creator\3.3\PSoC Creator\warp\lib\common\std.vhd'.
Linking 'C:\Program Files (x86)\Cypress\PSoC Creator\3.3\PSoC Creator\warp\lib\common\cypress.vhd'.
Linking 'C:\Program Files (x86)\Cypress\PSoC Creator\3.3\PSoC Creator\warp\lib\common\work\cypress.vif'.
Linking 'C:\Program Files (x86)\Cypress\PSoC Creator\3.3\PSoC Creator\warp\lib\ieee\work\stdlogic.vif'.
Linking 'C:\Program Files (x86)\Cypress\PSoC Creator\3.3\PSoC Creator\warp\lib\common\stdlogic\lpmpkg.vif'.
Linking 'C:\Program Files (x86)\Cypress\PSoC Creator\3.3\PSoC Creator\warp\lib\common\stdlogic\rtlpkg.vif'.
Linking 'C:\Program Files (x86)\Cypress\PSoC Creator\3.3\PSoC Creator\warp\lib\common\stdlogic\mod_cnst.vif'.
Linking 'C:\Program Files (x86)\Cypress\PSoC Creator\3.3\PSoC Creator\warp\lib\common\stdlogic\mod_mthv.vif'.
Linking 'C:\Program Files (x86)\Cypress\PSoC Creator\3.3\PSoC Creator\warp\lib\common\stdlogic\mod_genv.vif'.
Using control file 'DMA_SPI_PSoC403.ctl'.
Linking 'C:\Program Files (x86)\Cypress\PSoC Creator\3.3\PSoC Creator\warp\lib\common\stdlogic\cy_psoc3pkg.vif'.
Linking 'C:\Program Files (x86)\Cypress\PSoC Creator\3.3\PSoC Creator\warp\lib\common\stdlogic\cy_psoc3.vif'.

vlogfe:  No errors.


======================================================================
Compiling:  DMA_SPI_PSoC403.v
Program  :   tovif
Options  :    -yv2 -q10 -ygs -o2 -v3 -.fftcfgtype=LE -ya -.fftprj=C:\Users\Tom.McKay\Documents\PacificAveResearch\projects\fall2016_waffle_prototype\DMA_SPI_PSoC401\DMA_SPI_PSoC403.cydsn\DMA_SPI_PSoC403.cyprj -dcpsoc3 -verilog DMA_SPI_PSoC403.v
======================================================================

tovif V6.3 IR 41:  High-level synthesis
Fri Sep 23 19:49:50 2016

Linking 'C:\Program Files (x86)\Cypress\PSoC Creator\3.3\PSoC Creator\warp\lib\common\std.vhd'.
Linking 'C:\Program Files (x86)\Cypress\PSoC Creator\3.3\PSoC Creator\warp\lib\common\cypress.vhd'.
Linking 'C:\Program Files (x86)\Cypress\PSoC Creator\3.3\PSoC Creator\warp\lib\common\work\cypress.vif'.
Linking 'C:\Program Files (x86)\Cypress\PSoC Creator\3.3\PSoC Creator\warp\lib\ieee\work\stdlogic.vif'.
Linking 'C:\Program Files (x86)\Cypress\PSoC Creator\3.3\PSoC Creator\warp\lib\common\stdlogic\lpmpkg.vif'.
Linking 'C:\Program Files (x86)\Cypress\PSoC Creator\3.3\PSoC Creator\warp\lib\common\stdlogic\rtlpkg.vif'.
Linking 'C:\Program Files (x86)\Cypress\PSoC Creator\3.3\PSoC Creator\warp\lib\common\stdlogic\mod_cnst.vif'.
Linking 'C:\Program Files (x86)\Cypress\PSoC Creator\3.3\PSoC Creator\warp\lib\common\stdlogic\mod_mthv.vif'.
Linking 'C:\Program Files (x86)\Cypress\PSoC Creator\3.3\PSoC Creator\warp\lib\common\stdlogic\mod_genv.vif'.
Linking 'C:\Users\Tom.McKay\Documents\PacificAveResearch\projects\fall2016_waffle_prototype\DMA_SPI_PSoC401\DMA_SPI_PSoC403.cydsn\codegentemp\DMA_SPI_PSoC403.ctl'.
Linking 'C:\Program Files (x86)\Cypress\PSoC Creator\3.3\PSoC Creator\psoc\content\cyprimitives\CyPrimitives.cylib\cy_virtualmux_v1_0\cy_virtualmux_v1_0.v'.
Linking 'C:\Users\Tom.McKay\Documents\PacificAveResearch\projects\fall2016_waffle_prototype\DMA_SPI_PSoC401\DMA_SPI_PSoC403.cydsn\codegentemp\DMA_SPI_PSoC403.v'.
Linking 'C:\Program Files (x86)\Cypress\PSoC Creator\3.3\PSoC Creator\psoc\content\cyprimitives\CyPrimitives.cylib\ZeroTerminal\ZeroTerminal.v'.
Linking 'C:\Program Files (x86)\Cypress\PSoC Creator\3.3\PSoC Creator\psoc\content\cyprimitives\CyPrimitives.cylib\or_v1_0\or_v1_0.v'.
Linking 'C:\Program Files (x86)\Cypress\PSoC Creator\3.3\PSoC Creator\psoc\content\cycomponentlibrary\CyComponentLibrary.cylib\B_SPI_Slave_v2_70\B_SPI_Slave_v2_70.v'.
Linking 'C:\Program Files (x86)\Cypress\PSoC Creator\3.3\PSoC Creator\warp\lib\common\cypress.v'.
Linking 'C:\Program Files (x86)\Cypress\PSoC Creator\3.3\PSoC Creator\warp\lib\common\cy_psoc3_inc.v'.
Linking 'C:\Program Files (x86)\Cypress\PSoC Creator\3.3\PSoC Creator\psoc\content\cyprimitives\CyPrimitives.cylib\not_v1_0\not_v1_0.v'.
Linking 'C:\Program Files (x86)\Cypress\PSoC Creator\3.3\PSoC Creator\warp\lib\common\stdlogic\cy_psoc3pkg.vif'.
Linking 'C:\Program Files (x86)\Cypress\PSoC Creator\3.3\PSoC Creator\warp\lib\common\stdlogic\cy_psoc3.vif'.

tovif:  No errors.


======================================================================
Compiling:  DMA_SPI_PSoC403.v
Program  :   topld
Options  :    -yv2 -q10 -ygs -o2 -v3 -.fftcfgtype=LE -ya -.fftprj=C:\Users\Tom.McKay\Documents\PacificAveResearch\projects\fall2016_waffle_prototype\DMA_SPI_PSoC401\DMA_SPI_PSoC403.cydsn\DMA_SPI_PSoC403.cyprj -dcpsoc3 -verilog DMA_SPI_PSoC403.v
======================================================================

topld V6.3 IR 41:  Synthesis and optimization
Fri Sep 23 19:49:51 2016

Linking 'C:\Program Files (x86)\Cypress\PSoC Creator\3.3\PSoC Creator\warp\lib\common\std.vhd'.
Linking 'C:\Program Files (x86)\Cypress\PSoC Creator\3.3\PSoC Creator\warp\lib\common\cypress.vhd'.
Linking 'C:\Program Files (x86)\Cypress\PSoC Creator\3.3\PSoC Creator\warp\lib\common\work\cypress.vif'.
Linking 'C:\Program Files (x86)\Cypress\PSoC Creator\3.3\PSoC Creator\warp\lib\ieee\work\stdlogic.vif'.
Linking 'C:\Program Files (x86)\Cypress\PSoC Creator\3.3\PSoC Creator\warp\lib\common\stdlogic\lpmpkg.vif'.
Linking 'C:\Program Files (x86)\Cypress\PSoC Creator\3.3\PSoC Creator\warp\lib\common\stdlogic\rtlpkg.vif'.
Linking 'C:\Program Files (x86)\Cypress\PSoC Creator\3.3\PSoC Creator\warp\lib\common\stdlogic\mod_cnst.vif'.
Linking 'C:\Program Files (x86)\Cypress\PSoC Creator\3.3\PSoC Creator\warp\lib\common\stdlogic\mod_mthv.vif'.
Linking 'C:\Program Files (x86)\Cypress\PSoC Creator\3.3\PSoC Creator\warp\lib\common\stdlogic\mod_genv.vif'.
Linking 'C:\Users\Tom.McKay\Documents\PacificAveResearch\projects\fall2016_waffle_prototype\DMA_SPI_PSoC401\DMA_SPI_PSoC403.cydsn\codegentemp\DMA_SPI_PSoC403.ctl'.
Linking 'C:\Program Files (x86)\Cypress\PSoC Creator\3.3\PSoC Creator\psoc\content\cyprimitives\CyPrimitives.cylib\cy_virtualmux_v1_0\cy_virtualmux_v1_0.v'.
Linking 'C:\Users\Tom.McKay\Documents\PacificAveResearch\projects\fall2016_waffle_prototype\DMA_SPI_PSoC401\DMA_SPI_PSoC403.cydsn\codegentemp\DMA_SPI_PSoC403.v'.
Linking 'C:\Program Files (x86)\Cypress\PSoC Creator\3.3\PSoC Creator\psoc\content\cyprimitives\CyPrimitives.cylib\ZeroTerminal\ZeroTerminal.v'.
Linking 'C:\Program Files (x86)\Cypress\PSoC Creator\3.3\PSoC Creator\psoc\content\cyprimitives\CyPrimitives.cylib\or_v1_0\or_v1_0.v'.
Linking 'C:\Program Files (x86)\Cypress\PSoC Creator\3.3\PSoC Creator\psoc\content\cycomponentlibrary\CyComponentLibrary.cylib\B_SPI_Slave_v2_70\B_SPI_Slave_v2_70.v'.
Linking 'C:\Program Files (x86)\Cypress\PSoC Creator\3.3\PSoC Creator\warp\lib\common\cypress.v'.
Linking 'C:\Program Files (x86)\Cypress\PSoC Creator\3.3\PSoC Creator\warp\lib\common\cy_psoc3_inc.v'.
Linking 'C:\Program Files (x86)\Cypress\PSoC Creator\3.3\PSoC Creator\psoc\content\cyprimitives\CyPrimitives.cylib\not_v1_0\not_v1_0.v'.
Linking 'C:\Program Files (x86)\Cypress\PSoC Creator\3.3\PSoC Creator\warp\lib\common\stdlogic\cy_psoc3pkg.vif'.
Linking 'C:\Program Files (x86)\Cypress\PSoC Creator\3.3\PSoC Creator\warp\lib\common\stdlogic\cy_psoc3.vif'.
Linking 'C:\Program Files (x86)\Cypress\PSoC Creator\3.3\PSoC Creator\warp\lib\lcpsoc3\stdlogic\cpsoc3.vif'.

----------------------------------------------------------
Detecting unused logic.
----------------------------------------------------------
    User names
	\SPIM:Net_1257\
	\SPIM:uncfg_rx_irq\
	\SPIM:Net_1099\
	\SPIM:Net_1258\
	Net_658
	Net_659
	Net_660
	Net_661
	Net_662
	Net_663
	Net_664
	Net_650
	Net_651
	\SPIS:BSPIS:dpMISO_fifo_not_empty\
	\SPIS:BSPIS:control_7\
	\SPIS:BSPIS:control_6\
	\SPIS:BSPIS:control_5\
	\SPIS:BSPIS:control_4\
	\SPIS:BSPIS:control_3\
	\SPIS:BSPIS:control_2\
	\SPIS:BSPIS:control_1\
	\SPIS:BSPIS:control_0\
	\SPIS:Net_182\
	\SPIS:BSPIS:dpcounter_zero\
	Net_676


Deleted 25 User equations/components.
Deleted 0 Synthesized equations/components.

------------------------------------------------------
Alias Detection
------------------------------------------------------
Aliasing one to tmpOE__SUCCESS_net_0
Aliasing tmpOE__ERROR_net_0 to tmpOE__SUCCESS_net_0
Aliasing \SPIM:select_s_wire\ to zero
Aliasing \SPIM:rx_wire\ to zero
Aliasing \SPIM:sclk_s_wire\ to zero
Aliasing \SPIM:mosi_s_wire\ to zero
Aliasing \SPIM:tmpOE__sclk_m_net_0\ to tmpOE__SUCCESS_net_0
Aliasing \SPIM:tmpOE__miso_m_net_0\ to tmpOE__SUCCESS_net_0
Aliasing \SPIM:tmpOE__mosi_m_net_0\ to tmpOE__SUCCESS_net_0
Aliasing \SPIM:tmpOE__ss0_m_net_0\ to tmpOE__SUCCESS_net_0
Aliasing \SPIM:cts_wire\ to zero
Aliasing tmpOE__MOSI_S_net_0 to tmpOE__SUCCESS_net_0
Aliasing tmpOE__SCLK_S_net_0 to tmpOE__SUCCESS_net_0
Aliasing tmpOE__MISO_S_net_0 to tmpOE__SUCCESS_net_0
Aliasing \SPIS:BSPIS:tx_status_5\ to zero
Aliasing \SPIS:BSPIS:tx_status_4\ to zero
Aliasing \SPIS:BSPIS:tx_status_3\ to zero
Aliasing \SPIS:BSPIS:rx_status_2\ to zero
Aliasing \SPIS:BSPIS:rx_status_1\ to zero
Aliasing \SPIS:BSPIS:rx_status_0\ to zero
Aliasing \SPIS:BSPIS:reset\ to zero
Aliasing \SPIS:BSPIS:sR8:Dp:cs_addr_1\ to zero
Aliasing tmpOE__SS_S_net_0 to tmpOE__SUCCESS_net_0
Removing Lhs of wire one[7] = tmpOE__SUCCESS_net_0[1]
Removing Lhs of wire tmpOE__ERROR_net_0[13] = tmpOE__SUCCESS_net_0[1]
Removing Lhs of wire \SPIM:select_s_wire\[21] = zero[2]
Removing Lhs of wire \SPIM:rx_wire\[22] = zero[2]
Removing Lhs of wire \SPIM:Net_1170\[25] = \SPIM:Net_847\[20]
Removing Lhs of wire \SPIM:sclk_s_wire\[26] = zero[2]
Removing Lhs of wire \SPIM:mosi_s_wire\[27] = zero[2]
Removing Rhs of wire \SPIM:miso_m_wire\[28] = \SPIM:Net_467\[29]
Removing Lhs of wire \SPIM:tmpOE__sclk_m_net_0\[33] = tmpOE__SUCCESS_net_0[1]
Removing Lhs of wire \SPIM:tmpOE__miso_m_net_0\[40] = tmpOE__SUCCESS_net_0[1]
Removing Lhs of wire \SPIM:tmpOE__mosi_m_net_0\[45] = tmpOE__SUCCESS_net_0[1]
Removing Lhs of wire \SPIM:tmpOE__ss0_m_net_0\[52] = tmpOE__SUCCESS_net_0[1]
Removing Lhs of wire \SPIM:cts_wire\[60] = zero[2]
Removing Lhs of wire tmpOE__MOSI_S_net_0[93] = tmpOE__SUCCESS_net_0[1]
Removing Lhs of wire tmpOE__SCLK_S_net_0[99] = tmpOE__SUCCESS_net_0[1]
Removing Lhs of wire tmpOE__MISO_S_net_0[105] = tmpOE__SUCCESS_net_0[1]
Removing Lhs of wire \SPIS:BSPIS:cnt_reset\[111] = Net_673[112]
Removing Rhs of wire \SPIS:BSPIS:tx_load\[114] = \SPIS:BSPIS:load\[115]
Removing Rhs of wire \SPIS:BSPIS:tx_load\[114] = \SPIS:BSPIS:dpcounter_one\[132]
Removing Lhs of wire \SPIS:BSPIS:prc_clk_src\[122] = Net_671[100]
Removing Rhs of wire \SPIS:Net_81\[125] = \SPIS:Net_176\[213]
Removing Lhs of wire \SPIS:BSPIS:tx_status_2\[144] = \SPIS:BSPIS:miso_tx_empty_reg_fin\[135]
Removing Rhs of wire \SPIS:BSPIS:tx_status_1\[145] = \SPIS:BSPIS:dpMISO_fifo_not_full\[146]
Removing Lhs of wire \SPIS:BSPIS:tx_status_6\[147] = \SPIS:BSPIS:byte_complete\[116]
Removing Lhs of wire \SPIS:BSPIS:rx_status_3\[150] = \SPIS:BSPIS:dpMOSI_fifo_not_empty\[149]
Removing Lhs of wire \SPIS:BSPIS:rx_status_5\[151] = \SPIS:BSPIS:rx_buf_overrun\[119]
Removing Lhs of wire \SPIS:BSPIS:rx_status_6\[152] = \SPIS:BSPIS:dpMOSI_fifo_full_reg\[140]
Removing Lhs of wire \SPIS:BSPIS:tx_status_5\[153] = zero[2]
Removing Lhs of wire \SPIS:BSPIS:tx_status_4\[154] = zero[2]
Removing Lhs of wire \SPIS:BSPIS:tx_status_3\[155] = zero[2]
Removing Lhs of wire \SPIS:BSPIS:rx_status_2\[156] = zero[2]
Removing Lhs of wire \SPIS:BSPIS:rx_status_1\[157] = zero[2]
Removing Lhs of wire \SPIS:BSPIS:rx_status_0\[158] = zero[2]
Removing Lhs of wire \SPIS:BSPIS:mosi_fin\[159] = \SPIS:Net_75\[160]
Removing Lhs of wire \SPIS:Net_75\[160] = Net_670[94]
Removing Lhs of wire \SPIS:BSPIS:reset\[184] = zero[2]
Removing Lhs of wire \SPIS:BSPIS:sR8:Dp:cs_addr_1\[185] = zero[2]
Removing Lhs of wire tmpOE__SS_S_net_0[217] = tmpOE__SUCCESS_net_0[1]
Removing Lhs of wire \SPIS:BSPIS:dpcounter_one_reg\\D\[222] = \SPIS:BSPIS:dpcounter_one_fin\[117]
Removing Lhs of wire \SPIS:BSPIS:mosi_buf_overrun_fin\\D\[223] = \SPIS:BSPIS:mosi_buf_overrun_reg\[120]
Removing Lhs of wire \SPIS:BSPIS:mosi_tmp\\D\[224] = Net_670[94]

------------------------------------------------------
Aliased 0 equations, 41 wires.
------------------------------------------------------

----------------------------------------------------------
Circuit simplification
----------------------------------------------------------

Substituting virtuals - pass 1:

Note:  Expanding virtual equation for '\SPIS:BSPIS:tx_load\' (cost = 6):
\SPIS:BSPIS:tx_load\ <= ((not \SPIS:BSPIS:count_3\ and not \SPIS:BSPIS:count_2\ and not \SPIS:BSPIS:count_1\ and \SPIS:BSPIS:count_0\));

Note:  Expanding virtual equation for '\SPIS:BSPIS:byte_complete\' (cost = 1):
\SPIS:BSPIS:byte_complete\ <= ((not \SPIS:BSPIS:dpcounter_one_reg\ and \SPIS:BSPIS:dpcounter_one_fin\));


Substituting virtuals - pass 2:


----------------------------------------------------------
Circuit simplification results:

	Expanded 2 signals.
	Turned 0 signals into soft nodes.
	Maximum default expansion cost was set at 3.
----------------------------------------------------------

------------------------------------------------------
Alias Detection
------------------------------------------------------

------------------------------------------------------
Aliased 0 equations, 0 wires.
------------------------------------------------------

Last attempt to remove unused logic - pass 1:


Last attempt to remove unused logic - pass 2:


topld:  No errors.

CYPRESS_DIR    : C:\Program Files (x86)\Cypress\PSoC Creator\3.3\PSoC Creator\warp
Warp Program   : C:\Program Files (x86)\Cypress\PSoC Creator\3.3\PSoC Creator\warp\bin/warp.exe
Warp Arguments : -yv2 -q10 -ygs -o2 -v3 -.fftcfgtype=LE -ya -.fftprj=C:\Users\Tom.McKay\Documents\PacificAveResearch\projects\fall2016_waffle_prototype\DMA_SPI_PSoC401\DMA_SPI_PSoC403.cydsn\DMA_SPI_PSoC403.cyprj -dcpsoc3 DMA_SPI_PSoC403.v -verilog
</CYPRESSTAG>
Warp synthesis phase: Elapsed time ==> 1s.264ms
<CYPRESSTAG name="Fitter results...">
<CYPRESSTAG name="Fitter startup details...">
cyp3fit: V3.3.0.9604, Family: PSoC3, Started at: Friday, 23 September 2016 19:49:51
Options: -yv2 -q10 -ygs -o2 -v3 -.fftcfgtype=LE -ya -.fftprj=C:\Users\Tom.McKay\Documents\PacificAveResearch\projects\fall2016_waffle_prototype\DMA_SPI_PSoC401\DMA_SPI_PSoC403.cydsn\DMA_SPI_PSoC403.cyprj -d CY8C4248LQI-BL583 DMA_SPI_PSoC403.v -verilog
</CYPRESSTAG>
<CYPRESSTAG name="Design parsing">
Design parsing phase: Elapsed time ==> 0s.035ms
</CYPRESSTAG>
<CYPRESSTAG name="Tech mapping">
<CYPRESSTAG name="Initial Mapping" icon="FILE_RPT_TECHM">
Info: mpr.M0053: Information from the design wide resources Pin Editor has overridden the control file entry for "SUCCESS(0)". (App=cydsfit)
Info: mpr.M0053: Information from the design wide resources Pin Editor has overridden the control file entry for "ERROR(0)". (App=cydsfit)
Info: mpr.M0053: Information from the design wide resources Pin Editor has overridden the control file entry for "\SPIM:sclk_m(0)\". (App=cydsfit)
Info: mpr.M0053: Information from the design wide resources Pin Editor has overridden the control file entry for "\SPIM:miso_m(0)\". (App=cydsfit)
Info: mpr.M0053: Information from the design wide resources Pin Editor has overridden the control file entry for "\SPIM:mosi_m(0)\". (App=cydsfit)
Info: mpr.M0053: Information from the design wide resources Pin Editor has overridden the control file entry for "\SPIM:ss0_m(0)\". (App=cydsfit)

Removing unused cells resulting from optimization
Done removing unused cells.
<CYPRESSTAG name="Global Clock Selection" icon="FILE_RPT_TECHM">
    Fixed Function Clock 1: Automatic-assigning  clock 'SPIM_SCBCLK'. Signal=\SPIM:Net_847_ff1\
    Digital Clock 0: Automatic-assigning  clock 'SPIS_IntClock'. Fanout=1, Signal=\SPIS:Net_81_digital\
<CYPRESSTAG name="UDB Clock/Enable Remapping Results">
    UDB Clk/Enable \SPIS:BSPIS:ClkEn\: with output requested to be synchronous
        ClockIn: ClockGenBlock:m0s8clockgenblockcell.gen_clk_out_0 was determined to be a global clock that is synchronous to HFCLK
        EnableIn: Constant 1 was determined to be synchronous to ClockIn
        ClockOut: ClockGenBlock:m0s8clockgenblockcell.gen_clk_out_0, EnableOut: Constant 1
    UDB Clk/Enable \SPIS:BSPIS:PrcClkEn\: with output requested to be asynchronous
        ClockIn: SCLK_S(0):iocell.fb was determined to be a routed clock that is asynchronous
        EnableIn: Constant 1 was determined to be synchronous to ClockIn
        ClockOut: SCLK_S(0):iocell.fb, EnableOut: Constant 1
    UDB Clk/Enable \SPIS:BSPIS:DpClkEn\: with output requested to be asynchronous
        ClockIn: SCLK_S(0):iocell.fb was determined to be a routed clock that is asynchronous
        EnableIn: Constant 1 was determined to be synchronous to ClockIn
        ClockOut: SCLK_S(0):iocell.fb, EnableOut: Constant 1
</CYPRESSTAG>
</CYPRESSTAG>

Removing unused cells resulting from optimization
Done removing unused cells.

Removing unused cells resulting from optimization
Done removing unused cells.
<CYPRESSTAG name="Duplicate Macrocell detection">
</CYPRESSTAG>
</CYPRESSTAG>
<CYPRESSTAG name="Duplicate Macrocell detection">
</CYPRESSTAG>
<CYPRESSTAG name="Design Equations" icon="FILE_RPT_EQUATION">

------------------------------------------------------------
Design Equations
------------------------------------------------------------
    <CYPRESSTAG name="Pin listing">

    ------------------------------------------------------------
    Pin listing
    ------------------------------------------------------------

    Pin : Name = SUCCESS(0)
        Attributes:
            In Group/Port: True
            In Sync Option: AUTO
            Out Sync Option: NOSYNC
            Interrupt generated: False
            Interrupt mode: NONE
            Drive mode: CMOS_OUT
            VTrip: EITHER
            Slew: FAST
            Input Sync needed: False
            Output Sync needed: False
            SC shield enabled: False
            POR State: ANY
            LCD Mode: COMMON
            Register Mode: RegComb
            CaSense Mode: NEITHER
            Treat as pin: True
            Is OE Registered: False
            Uses Analog: False
            Can contain Digital: True
            Is SIO: False
            SIO Output Buf: NONREGULATED
            SIO Input Buf: SINGLE_ENDED
            SIO HiFreq: LOW
            SIO Hyst: DISABLED
            SIO Vtrip: MULTIPLIER_0_5
            SIO Multiplier Index: 0
            SIO RefSel: VCC_IO
            Required Capabilitites: DIGITAL
            Initial Value: 1
            IO Voltage: 0
        PORT MAP (
            pa_out => SUCCESS(0)__PA ,
            annotation => Net_576 ,
            pad => SUCCESS(0)_PAD );
        Properties:
        {
            port_location = "PORT(3,6)"
        }

    Pin : Name = ERROR(0)
        Attributes:
            In Group/Port: True
            In Sync Option: AUTO
            Out Sync Option: NOSYNC
            Interrupt generated: False
            Interrupt mode: NONE
            Drive mode: CMOS_OUT
            VTrip: EITHER
            Slew: FAST
            Input Sync needed: False
            Output Sync needed: False
            SC shield enabled: False
            POR State: ANY
            LCD Mode: COMMON
            Register Mode: RegComb
            CaSense Mode: NEITHER
            Treat as pin: True
            Is OE Registered: False
            Uses Analog: False
            Can contain Digital: True
            Is SIO: False
            SIO Output Buf: NONREGULATED
            SIO Input Buf: SINGLE_ENDED
            SIO HiFreq: LOW
            SIO Hyst: DISABLED
            SIO Vtrip: MULTIPLIER_0_5
            SIO Multiplier Index: 0
            SIO RefSel: VCC_IO
            Required Capabilitites: DIGITAL
            Initial Value: 1
            IO Voltage: 0
        PORT MAP (
            pa_out => ERROR(0)__PA ,
            annotation => Net_368 ,
            pad => ERROR(0)_PAD );
        Properties:
        {
            port_location = "PORT(2,6)"
        }

    Pin : Name = \SPIM:sclk_m(0)\
        Attributes:
            In Group/Port: True
            In Sync Option: NOSYNC
            Out Sync Option: NOSYNC
            Interrupt generated: False
            Interrupt mode: NONE
            Drive mode: CMOS_OUT
            VTrip: CMOS
            Slew: FAST
            Input Sync needed: False
            Output Sync needed: False
            SC shield enabled: False
            POR State: ANY
            LCD Mode: COMMON
            Register Mode: RegComb
            CaSense Mode: NEITHER
            Treat as pin: True
            Is OE Registered: False
            Uses Analog: False
            Can contain Digital: True
            Is SIO: False
            SIO Output Buf: NONREGULATED
            SIO Input Buf: SINGLE_ENDED
            SIO HiFreq: LOW
            SIO Hyst: DISABLED
            SIO Vtrip: MULTIPLIER_0_5
            SIO Multiplier Index: 0
            SIO RefSel: VCC_IO
            Required Capabilitites: DIGITAL
            Initial Value: 1
            IO Voltage: 0
        PORT MAP (
            pa_out => \SPIM:sclk_m(0)\__PA ,
            input => \SPIM:sclk_m_wire\ ,
            pad => \SPIM:sclk_m(0)_PAD\ );
        Properties:
        {
            port_location = "PORT(0,3)"
        }

    Pin : Name = \SPIM:miso_m(0)\
        Attributes:
            In Group/Port: True
            In Sync Option: NOSYNC
            Out Sync Option: AUTO
            Interrupt generated: False
            Interrupt mode: NONE
            Drive mode: HI_Z_DIGITAL
            VTrip: CMOS
            Slew: FAST
            Input Sync needed: False
            Output Sync needed: False
            SC shield enabled: False
            POR State: ANY
            LCD Mode: COMMON
            Register Mode: RegComb
            CaSense Mode: NEITHER
            Treat as pin: True
            Is OE Registered: False
            Uses Analog: False
            Can contain Digital: True
            Is SIO: False
            SIO Output Buf: NONREGULATED
            SIO Input Buf: SINGLE_ENDED
            SIO HiFreq: LOW
            SIO Hyst: DISABLED
            SIO Vtrip: MULTIPLIER_0_5
            SIO Multiplier Index: 0
            SIO RefSel: VCC_IO
            Required Capabilitites: DIGITAL
            Initial Value: 0
            IO Voltage: 0
        PORT MAP (
            pa_out => \SPIM:miso_m(0)\__PA ,
            fb => \SPIM:miso_m_wire\ ,
            pad => \SPIM:miso_m(0)_PAD\ );
        Properties:
        {
            port_location = "PORT(0,1)"
        }

    Pin : Name = \SPIM:mosi_m(0)\
        Attributes:
            In Group/Port: True
            In Sync Option: NOSYNC
            Out Sync Option: NOSYNC
            Interrupt generated: False
            Interrupt mode: NONE
            Drive mode: CMOS_OUT
            VTrip: CMOS
            Slew: FAST
            Input Sync needed: False
            Output Sync needed: False
            SC shield enabled: False
            POR State: ANY
            LCD Mode: COMMON
            Register Mode: RegComb
            CaSense Mode: NEITHER
            Treat as pin: True
            Is OE Registered: False
            Uses Analog: False
            Can contain Digital: True
            Is SIO: False
            SIO Output Buf: NONREGULATED
            SIO Input Buf: SINGLE_ENDED
            SIO HiFreq: LOW
            SIO Hyst: DISABLED
            SIO Vtrip: MULTIPLIER_0_5
            SIO Multiplier Index: 0
            SIO RefSel: VCC_IO
            Required Capabilitites: DIGITAL
            Initial Value: 1
            IO Voltage: 0
        PORT MAP (
            pa_out => \SPIM:mosi_m(0)\__PA ,
            input => \SPIM:mosi_m_wire\ ,
            pad => \SPIM:mosi_m(0)_PAD\ );
        Properties:
        {
            port_location = "PORT(0,0)"
        }

    Pin : Name = \SPIM:ss0_m(0)\
        Attributes:
            In Group/Port: True
            In Sync Option: NOSYNC
            Out Sync Option: NOSYNC
            Interrupt generated: False
            Interrupt mode: NONE
            Drive mode: CMOS_OUT
            VTrip: CMOS
            Slew: FAST
            Input Sync needed: False
            Output Sync needed: False
            SC shield enabled: False
            POR State: ANY
            LCD Mode: COMMON
            Register Mode: RegComb
            CaSense Mode: NEITHER
            Treat as pin: True
            Is OE Registered: False
            Uses Analog: False
            Can contain Digital: True
            Is SIO: False
            SIO Output Buf: NONREGULATED
            SIO Input Buf: SINGLE_ENDED
            SIO HiFreq: LOW
            SIO Hyst: DISABLED
            SIO Vtrip: MULTIPLIER_0_5
            SIO Multiplier Index: 0
            SIO RefSel: VCC_IO
            Required Capabilitites: DIGITAL
            Initial Value: 1
            IO Voltage: 0
        PORT MAP (
            pa_out => \SPIM:ss0_m(0)\__PA ,
            input => \SPIM:select_m_wire_0\ ,
            pad => \SPIM:ss0_m(0)_PAD\ );
        Properties:
        {
            port_location = "PORT(0,2)"
        }

    Pin : Name = MOSI_S(0)
        Attributes:
            In Group/Port: True
            In Sync Option: NOSYNC
            Out Sync Option: AUTO
            Interrupt generated: False
            Interrupt mode: NONE
            Drive mode: HI_Z_DIGITAL
            VTrip: CMOS
            Slew: FAST
            Input Sync needed: False
            Output Sync needed: False
            SC shield enabled: False
            POR State: ANY
            LCD Mode: COMMON
            Register Mode: RegComb
            CaSense Mode: NEITHER
            Treat as pin: True
            Is OE Registered: False
            Uses Analog: False
            Can contain Digital: True
            Is SIO: False
            SIO Output Buf: NONREGULATED
            SIO Input Buf: SINGLE_ENDED
            SIO HiFreq: LOW
            SIO Hyst: DISABLED
            SIO Vtrip: MULTIPLIER_0_5
            SIO Multiplier Index: 0
            SIO RefSel: VCC_IO
            Required Capabilitites: DIGITAL, ROUTABLE
            Initial Value: 0
            IO Voltage: 0
        PORT MAP (
            pa_out => MOSI_S(0)__PA ,
            fb => Net_670 ,
            pad => MOSI_S(0)_PAD );
        Properties:
        {
            port_location = "PORT(1,2)"
        }

    Pin : Name = SCLK_S(0)
        Attributes:
            In Group/Port: True
            In Sync Option: NOSYNC
            Out Sync Option: AUTO
            Interrupt generated: False
            Interrupt mode: NONE
            Drive mode: HI_Z_DIGITAL
            VTrip: CMOS
            Slew: FAST
            Input Sync needed: False
            Output Sync needed: False
            SC shield enabled: False
            POR State: ANY
            LCD Mode: COMMON
            Register Mode: RegComb
            CaSense Mode: NEITHER
            Treat as pin: True
            Is OE Registered: False
            Uses Analog: False
            Can contain Digital: True
            Is SIO: False
            SIO Output Buf: NONREGULATED
            SIO Input Buf: SINGLE_ENDED
            SIO HiFreq: LOW
            SIO Hyst: DISABLED
            SIO Vtrip: MULTIPLIER_0_5
            SIO Multiplier Index: 0
            SIO RefSel: VCC_IO
            Required Capabilitites: DIGITAL, ROUTABLE
            Initial Value: 0
            IO Voltage: 0
        PORT MAP (
            pa_out => SCLK_S(0)__PA ,
            fb => Net_671 ,
            pad => SCLK_S(0)_PAD );
        Properties:
        {
            port_location = "PORT(1,0)"
        }

    Pin : Name = MISO_S(0)
        Attributes:
            In Group/Port: True
            In Sync Option: AUTO
            Out Sync Option: NOSYNC
            Interrupt generated: False
            Interrupt mode: NONE
            Drive mode: CMOS_OUT
            VTrip: EITHER
            Slew: FAST
            Input Sync needed: False
            Output Sync needed: False
            SC shield enabled: False
            POR State: ANY
            LCD Mode: COMMON
            Register Mode: RegComb
            CaSense Mode: NEITHER
            Treat as pin: True
            Is OE Registered: False
            Uses Analog: False
            Can contain Digital: True
            Is SIO: False
            SIO Output Buf: NONREGULATED
            SIO Input Buf: SINGLE_ENDED
            SIO HiFreq: LOW
            SIO Hyst: DISABLED
            SIO Vtrip: MULTIPLIER_0_5
            SIO Multiplier Index: 0
            SIO RefSel: VCC_IO
            Required Capabilitites: DIGITAL, ROUTABLE
            Initial Value: 1
            IO Voltage: 0
        PORT MAP (
            pa_out => MISO_S(0)__PA ,
            input => Net_672 ,
            pad => MISO_S(0)_PAD );
        Properties:
        {
            port_location = "PORT(1,3)"
        }

    Pin : Name = SS_S(0)
        Attributes:
            In Group/Port: True
            In Sync Option: NOSYNC
            Out Sync Option: AUTO
            Interrupt generated: False
            Interrupt mode: NONE
            Drive mode: HI_Z_DIGITAL
            VTrip: CMOS
            Slew: FAST
            Input Sync needed: False
            Output Sync needed: False
            SC shield enabled: False
            POR State: ANY
            LCD Mode: COMMON
            Register Mode: RegComb
            CaSense Mode: NEITHER
            Treat as pin: True
            Is OE Registered: False
            Uses Analog: False
            Can contain Digital: True
            Is SIO: False
            SIO Output Buf: NONREGULATED
            SIO Input Buf: SINGLE_ENDED
            SIO HiFreq: LOW
            SIO Hyst: DISABLED
            SIO Vtrip: MULTIPLIER_0_5
            SIO Multiplier Index: 0
            SIO RefSel: VCC_IO
            Required Capabilitites: DIGITAL, ROUTABLE
            Initial Value: 0
            IO Voltage: 0
        PORT MAP (
            pa_out => SS_S(0)__PA ,
            fb => Net_673 ,
            pad => SS_S(0)_PAD );
        Properties:
        {
            port_location = "PORT(1,1)"
        }
    </CYPRESSTAG>
    <CYPRESSTAG name="Macrocell listing" icon="FILE_RPT_EQUATION">

    ------------------------------------------------------------
    Macrocell listing
    ------------------------------------------------------------

    MacroCell: Name=\SPIS:BSPIS:inv_ss\, Mode=(Combinatorial)
        Total # of inputs        : 1
        Total # of product terms : 1
            Clock Enable: True
        Main Equation            : 1 pterm
        (
              !Net_673
        );
        Output = \SPIS:BSPIS:inv_ss\ (fanout=2)

    MacroCell: Name=\SPIS:BSPIS:tx_load\, Mode=(Combinatorial)
        Total # of inputs        : 4
        Total # of product terms : 1
            Clock Enable: True
        Main Equation            : 1 pterm
        (
              !\SPIS:BSPIS:count_3\ * !\SPIS:BSPIS:count_2\ * 
              !\SPIS:BSPIS:count_1\ * \SPIS:BSPIS:count_0\
        );
        Output = \SPIS:BSPIS:tx_load\ (fanout=3)

    MacroCell: Name=\SPIS:BSPIS:byte_complete\, Mode=(Combinatorial)
        Total # of inputs        : 2
        Total # of product terms : 1
            Clock Enable: True
        Main Equation            : 1 pterm
        (
              \SPIS:BSPIS:dpcounter_one_fin\ * 
              !\SPIS:BSPIS:dpcounter_one_reg\
        );
        Output = \SPIS:BSPIS:byte_complete\ (fanout=1)

    MacroCell: Name=\SPIS:BSPIS:rx_buf_overrun\, Mode=(Combinatorial)
        Total # of inputs        : 2
        Total # of product terms : 1
            Clock Enable: True
        Main Equation            : 1 pterm
        (
              \SPIS:BSPIS:mosi_buf_overrun_reg\ * 
              !\SPIS:BSPIS:mosi_buf_overrun_fin\
        );
        Output = \SPIS:BSPIS:rx_buf_overrun\ (fanout=1)

    MacroCell: Name=Net_672, Mode=(Combinatorial)
        Total # of inputs        : 2
        Total # of product terms : 1
            Clock Enable: True
        Main Equation            : 1 pterm
        (
              !Net_673 * \SPIS:BSPIS:miso_from_dp\
        );
        Output = Net_672 (fanout=1)

    MacroCell: Name=\SPIS:BSPIS:mosi_buf_overrun\, Mode=(Combinatorial)
        Total # of inputs        : 5
        Total # of product terms : 1
            Clock Enable: True
        Main Equation            : 1 pterm
        (
              \SPIS:BSPIS:dpMOSI_fifo_full\ * !\SPIS:BSPIS:count_3\ * 
              !\SPIS:BSPIS:count_2\ * !\SPIS:BSPIS:count_1\ * 
              \SPIS:BSPIS:count_0\
        );
        Output = \SPIS:BSPIS:mosi_buf_overrun\ (fanout=1)

    MacroCell: Name=\SPIS:BSPIS:tx_status_0\, Mode=(Combinatorial)
        Total # of inputs        : 3
        Total # of product terms : 1
            Clock Enable: True
        Main Equation            : 1 pterm
        (
              \SPIS:BSPIS:dpcounter_one_fin\ * 
              !\SPIS:BSPIS:dpcounter_one_reg\ * 
              \SPIS:BSPIS:miso_tx_empty_reg_fin\
        );
        Output = \SPIS:BSPIS:tx_status_0\ (fanout=1)

    MacroCell: Name=\SPIS:BSPIS:rx_status_4\, Mode=(Combinatorial)
        Total # of inputs        : 1
        Total # of product terms : 1
            Clock Enable: True
        Main Equation            : 1 pterm
        (
              !\SPIS:BSPIS:dpMOSI_fifo_not_empty\
        );
        Output = \SPIS:BSPIS:rx_status_4\ (fanout=1)

    MacroCell: Name=\SPIS:BSPIS:mosi_to_dp\, Mode=(Combinatorial)
        Total # of inputs        : 6
        Total # of product terms : 5
            Clock Enable: True
        Main Equation            : 5 pterms
        (
              Net_670 * !\SPIS:BSPIS:count_3\ * !\SPIS:BSPIS:count_2\ * 
              !\SPIS:BSPIS:count_1\ * \SPIS:BSPIS:count_0\
            + \SPIS:BSPIS:count_3\ * \SPIS:BSPIS:mosi_tmp\
            + \SPIS:BSPIS:count_2\ * \SPIS:BSPIS:mosi_tmp\
            + \SPIS:BSPIS:count_1\ * \SPIS:BSPIS:mosi_tmp\
            + !\SPIS:BSPIS:count_0\ * \SPIS:BSPIS:mosi_tmp\
        );
        Output = \SPIS:BSPIS:mosi_to_dp\ (fanout=1)

    MacroCell: Name=\SPIS:BSPIS:dpcounter_one_reg\, Mode=(D-Register)
        Total # of inputs        : 1
        Total # of product terms : 1
        List of special equations: 
            Clock  = (\SPIS:Net_81_digital\) => Global
            Clock Enable: True
        Main Equation            : 1 pterm
        (
              \SPIS:BSPIS:dpcounter_one_fin\
        );
        Output = \SPIS:BSPIS:dpcounter_one_reg\ (fanout=2)

    MacroCell: Name=\SPIS:BSPIS:mosi_buf_overrun_fin\, Mode=(D-Register)
        Total # of inputs        : 1
        Total # of product terms : 1
        List of special equations: 
            Clock  = (\SPIS:Net_81_digital\) => Global
            Clock Enable: True
        Main Equation            : 1 pterm
        (
              \SPIS:BSPIS:mosi_buf_overrun_reg\
        );
        Output = \SPIS:BSPIS:mosi_buf_overrun_fin\ (fanout=1)

    MacroCell: Name=\SPIS:BSPIS:mosi_tmp\, Mode=(D-Register)
        Total # of inputs        : 1
        Total # of product terms : 1
        List of special equations: 
            Clock  = (Net_671)
            Clock Enable: True
        Main Equation            : 1 pterm
        (
              Net_670
        );
        Output = \SPIS:BSPIS:mosi_tmp\ (fanout=1)
    </CYPRESSTAG>
    <CYPRESSTAG name="Datapath listing">

    ------------------------------------------------------------
    Datapath listing
    ------------------------------------------------------------

    datapathcell: Name =\SPIS:BSPIS:sR8:Dp:u0\
        PORT MAP (
            clock => Net_671 ,
            cs_addr_2 => \SPIS:BSPIS:inv_ss\ ,
            cs_addr_0 => \SPIS:BSPIS:tx_load\ ,
            route_si => \SPIS:BSPIS:mosi_to_dp\ ,
            f1_load => \SPIS:BSPIS:tx_load\ ,
            so_comb => \SPIS:BSPIS:miso_from_dp\ ,
            f0_bus_stat_comb => \SPIS:BSPIS:tx_status_1\ ,
            f0_blk_stat_comb => \SPIS:BSPIS:dpMISO_fifo_empty\ ,
            f1_bus_stat_comb => \SPIS:BSPIS:dpMOSI_fifo_not_empty\ ,
            f1_blk_stat_comb => \SPIS:BSPIS:dpMOSI_fifo_full\ );
        Properties:
        {
            a0_init = "00000000"
            a1_init = "00000000"
            ce0_sync = 1
            ce1_sync = 1
            cl0_sync = 1
            cl1_sync = 1
            cmsb_sync = 1
            co_msb_sync = 1
            cy_dpconfig = "0000000000000000000000000000000000000000000000000000000000000000000000010100000000000001110000000000000000000000000000000000000011111111111111111111111111111111000000000010001000001100111100000001000010001100"
            d0_init = "00000000"
            d1_init = "00000000"
            f0_blk_sync = 1
            f0_bus_sync = 1
            f1_blk_sync = 1
            f1_bus_sync = 1
            ff0_sync = 1
            ff1_sync = 1
            ov_msb_sync = 1
            so_sync = 1
            z0_sync = 1
            z1_sync = 1
        }
        Clock Polarity: Active Low
        Clock Enable: True
    </CYPRESSTAG>
    <CYPRESSTAG name="Status register listing">
    </CYPRESSTAG>
    <CYPRESSTAG name="StatusI register listing">

    ------------------------------------------------------------
    StatusI register listing
    ------------------------------------------------------------

    statusicell: Name =\SPIS:BSPIS:TxStsReg\
        PORT MAP (
            clock => \SPIS:Net_81_digital\ ,
            status_6 => \SPIS:BSPIS:byte_complete\ ,
            status_2 => \SPIS:BSPIS:miso_tx_empty_reg_fin\ ,
            status_1 => \SPIS:BSPIS:tx_status_1\ ,
            status_0 => \SPIS:BSPIS:tx_status_0\ ,
            interrupt => Net_483 );
        Properties:
        {
            cy_force_order = 1
            cy_int_mask = "1111111"
            cy_md_select = "1000001"
        }
        Clock Polarity: Active High
        Clock Enable: True

    statusicell: Name =\SPIS:BSPIS:RxStsReg\
        PORT MAP (
            clock => \SPIS:Net_81_digital\ ,
            status_6 => \SPIS:BSPIS:dpMOSI_fifo_full_reg\ ,
            status_5 => \SPIS:BSPIS:rx_buf_overrun\ ,
            status_4 => \SPIS:BSPIS:rx_status_4\ ,
            status_3 => \SPIS:BSPIS:dpMOSI_fifo_not_empty\ ,
            interrupt => Net_310 );
        Properties:
        {
            cy_force_order = 1
            cy_int_mask = "1111111"
            cy_md_select = "0100000"
        }
        Clock Polarity: Active High
        Clock Enable: True
    </CYPRESSTAG>
    <CYPRESSTAG name="Sync listing">

    ------------------------------------------------------------
    Sync listing
    ------------------------------------------------------------

    synccell: Name =\SPIS:BSPIS:sync_1\
        PORT MAP (
            clock => \SPIS:Net_81_digital\ ,
            in => \SPIS:BSPIS:tx_load\ ,
            out => \SPIS:BSPIS:dpcounter_one_fin\ );
        Clock Polarity: Active High
        Clock Enable: True

    synccell: Name =\SPIS:BSPIS:sync_2\
        PORT MAP (
            clock => \SPIS:Net_81_digital\ ,
            in => \SPIS:BSPIS:dpMISO_fifo_empty\ ,
            out => \SPIS:BSPIS:miso_tx_empty_reg_fin\ );
        Clock Polarity: Active High
        Clock Enable: True

    synccell: Name =\SPIS:BSPIS:sync_3\
        PORT MAP (
            clock => \SPIS:Net_81_digital\ ,
            in => \SPIS:BSPIS:mosi_buf_overrun\ ,
            out => \SPIS:BSPIS:mosi_buf_overrun_reg\ );
        Clock Polarity: Active High
        Clock Enable: True

    synccell: Name =\SPIS:BSPIS:sync_4\
        PORT MAP (
            clock => \SPIS:Net_81_digital\ ,
            in => \SPIS:BSPIS:dpMOSI_fifo_full\ ,
            out => \SPIS:BSPIS:dpMOSI_fifo_full_reg\ );
        Clock Polarity: Active High
        Clock Enable: True
    </CYPRESSTAG>
    <CYPRESSTAG name="Control register listing">
    </CYPRESSTAG>
    <CYPRESSTAG name="Count7 listing">

    ------------------------------------------------------------
    Count7 listing
    ------------------------------------------------------------

    count7cell: Name =\SPIS:BSPIS:BitCounter\
        PORT MAP (
            clock => Net_671 ,
            reset => Net_673 ,
            enable => \SPIS:BSPIS:inv_ss\ ,
            count_6 => \SPIS:BSPIS:count_6\ ,
            count_5 => \SPIS:BSPIS:count_5\ ,
            count_4 => \SPIS:BSPIS:count_4\ ,
            count_3 => \SPIS:BSPIS:count_3\ ,
            count_2 => \SPIS:BSPIS:count_2\ ,
            count_1 => \SPIS:BSPIS:count_1\ ,
            count_0 => \SPIS:BSPIS:count_0\ );
        Properties:
        {
            cy_alt_mode = 0
            cy_init_value = "0000000"
            cy_period = "0000111"
            cy_route_en = 1
            cy_route_ld = 0
        }
        Clock Polarity: Active Low
        Clock Enable: True
    </CYPRESSTAG>
    <CYPRESSTAG name="DRQ listing">

    ------------------------------------------------------------
    DRQ listing
    ------------------------------------------------------------

    drqcell: Name =RxDmaM
        PORT MAP (
            dmareq => Net_487 ,
            termout => Net_666 );
        Properties:
        {
            priority = "11"
        }

    drqcell: Name =TxDmaM
        PORT MAP (
            dmareq => Net_486 ,
            termout => Net_667 );
        Properties:
        {
            priority = "11"
        }

    drqcell: Name =RxDmaS
        PORT MAP (
            dmareq => Net_310 ,
            termout => Net_668 );
        Properties:
        {
            priority = "11"
        }

    drqcell: Name =TxDmaS
        PORT MAP (
            dmareq => Net_483 ,
            termout => Net_669 );
        Properties:
        {
            priority = "11"
        }
    </CYPRESSTAG>
    <CYPRESSTAG name="Interrupt listing">

    ------------------------------------------------------------
    Interrupt listing
    ------------------------------------------------------------

    interrupt: Name =\SPIM:SCB_IRQ\
        PORT MAP (
            interrupt => Net_652 );
        Properties:
        {
            int_type = "10"
        }
    </CYPRESSTAG>
</CYPRESSTAG>
<CYPRESSTAG name="Technology mapping summary" expanded>

------------------------------------------------------------
Technology mapping summary
------------------------------------------------------------

Resource Type                 : Used : Free :  Max :  % Used
============================================================
Digital Clocks                :    1 :    3 :    4 : 25.00 %
Interrupts                    :    1 :   31 :   32 :  3.13 %
IO                            :   12 :   26 :   38 : 31.58 %
Segment LCD                   :    0 :    1 :    1 :  0.00 %
CapSense                      :    0 :    1 :    1 :  0.00 %
Die Temp                      :    0 :    1 :    1 :  0.00 %
Serial Communication (SCB)    :    1 :    1 :    2 : 50.00 %
BLE                           :    0 :    1 :    1 :  0.00 %
DMA Channels                  :    4 :    4 :    8 : 50.00 %
Timer/Counter/PWM             :    0 :    4 :    4 :  0.00 %
UDB                           :      :      :      :        
  Macrocells                  :   12 :   20 :   32 : 37.50 %
  Unique P-terms              :   16 :   48 :   64 : 25.00 %
  Total P-terms               :   16 :      :      :        
  Datapath Cells              :    1 :    3 :    4 : 25.00 %
  Status Cells                :    4 :    0 :    4 : 100.00 %
    StatusI Registers         :    2 :      :      :        
    Sync Cells (x4)           :    1 :      :      :        
    Routed Count7 Load/Enable :    1 :      :      :        
  Control Cells               :    1 :    3 :    4 : 25.00 %
    Count7 Cells              :    1 :      :      :        
Comparator/Opamp              :    0 :    4 :    4 :  0.00 %
LP Comparator                 :    0 :    2 :    2 :  0.00 %
SAR ADC                       :    0 :    1 :    1 :  0.00 %
DAC                           :      :      :      :        
  7-bit IDAC                  :    0 :    1 :    1 :  0.00 %
  8-bit IDAC                  :    0 :    1 :    1 :  0.00 %
</CYPRESSTAG>
Technology Mapping: Elapsed time ==> 0s.060ms
Tech mapping phase: Elapsed time ==> 0s.115ms
</CYPRESSTAG>
<CYPRESSTAG name="Analog Placement">
<CYPRESSTAG name="Analog Placement">
Elapsed time ==> 0.3327484s
</CYPRESSTAG>
Analog Placement phase: Elapsed time ==> 0s.888ms
</CYPRESSTAG>
<CYPRESSTAG name="Analog Routing">
<CYPRESSTAG name="Analog Routing">
Route success=True, Iterations=1 Elapsed=0.0019107 secs
</CYPRESSTAG>
Analog Routing phase: Elapsed time ==> 0s.003ms
</CYPRESSTAG>
<CYPRESSTAG name="Analog Code Generation">
============ Analog Final Answer Routes ============
Dump of CyAnalogRoutingResultsDB
Map of net to items {
}
Map of item to net {
}
Mux Info {
}
Analog Code Generation phase: Elapsed time ==> 0s.044ms
</CYPRESSTAG>
<CYPRESSTAG name="Digital Placement">
<CYPRESSTAG name="Detailed placement messages">
I2076: Total run-time: 0.8 sec.

</CYPRESSTAG>
<CYPRESSTAG name="PLD Packing">
<CYPRESSTAG name="PLD Packing Summary" expanded>

------------------------------------------------------------
PLD Packing Summary
------------------------------------------------------------
            Resource Type : Used : Free :  Max :  % Used
    ====================================================
                     PLDs :    7 :    1 :    8 :  87.50%

<CYPRESSTAG name="PLD Statistics">

        PLD Resource Type :     Average/LAB
    =======================================
                   Inputs :            4.14
                   Pterms :            2.29
               Macrocells :            1.71
</CYPRESSTAG>
<CYPRESSTAG name="Packed PLD Contents">
Packed PLD Contents not displayed at this verbose level.</CYPRESSTAG>
</CYPRESSTAG>
PLD Packing: Elapsed time ==> 0s.050ms
</CYPRESSTAG>
<CYPRESSTAG name="Partitioning">
<CYPRESSTAG name="Initial Partitioning Summary">
Initial Partitioning Summary not displayed at this verbose level.</CYPRESSTAG>
<CYPRESSTAG name="Final Partitioning Summary">
Final Partitioning Summary not displayed at this verbose level.</CYPRESSTAG>
Partitioning: Elapsed time ==> 0s.140ms
</CYPRESSTAG>
<CYPRESSTAG name="Simulated Annealing">
Annealing: Elapsed time ==> 0s.005ms
<CYPRESSTAG name="Simulated Annealing Results">
The seed used for moves was 114161200.
Inital cost was 148, final cost is 148 (0.00% improvement).</CYPRESSTAG>
</CYPRESSTAG>
<CYPRESSTAG name="Final Placement Summary">

------------------------------------------------------------
Final Placement Summary
------------------------------------------------------------

       Resource Type :      Count : Avg Inputs : Avg Outputs
    ========================================================
                 UDB :          4 :       5.00 :       3.00
<CYPRESSTAG name="Final Placement Details">
<CYPRESSTAG name="Component Details">

------------------------------------------------------------
Component Placement Details
------------------------------------------------------------
UDB [UDB=(0,0)] contents:
LAB@[UDB=(0,0)][LB=0] #macrocells=1, #inputs=2, #pterms=1
{
    [McSlotId=0]: (empty)
    [McSlotId=1]: (empty)
    [McSlotId=2]:     MacroCell: Name=\SPIS:BSPIS:byte_complete\, Mode=(Combinatorial) @ [UDB=(0,0)][LB=0][MC=2]
        Total # of inputs        : 2
        Total # of product terms : 1
            Clock Enable: True
        Main Equation            : 1 pterm
        (
              \SPIS:BSPIS:dpcounter_one_fin\ * 
              !\SPIS:BSPIS:dpcounter_one_reg\
        );
        Output = \SPIS:BSPIS:byte_complete\ (fanout=1)
        Properties               : 
        {
        }

    [McSlotId=3]: (empty)
}

LAB@[UDB=(0,0)][LB=1] #macrocells=1, #inputs=3, #pterms=1
{
    [McSlotId=0]: (empty)
    [McSlotId=1]: (empty)
    [McSlotId=2]: (empty)
    [McSlotId=3]:     MacroCell: Name=\SPIS:BSPIS:tx_status_0\, Mode=(Combinatorial) @ [UDB=(0,0)][LB=1][MC=3]
        Total # of inputs        : 3
        Total # of product terms : 1
            Clock Enable: True
        Main Equation            : 1 pterm
        (
              \SPIS:BSPIS:dpcounter_one_fin\ * 
              !\SPIS:BSPIS:dpcounter_one_reg\ * 
              \SPIS:BSPIS:miso_tx_empty_reg_fin\
        );
        Output = \SPIS:BSPIS:tx_status_0\ (fanout=1)
        Properties               : 
        {
        }
}

statusicell: Name =\SPIS:BSPIS:TxStsReg\
    PORT MAP (
        clock => \SPIS:Net_81_digital\ ,
        status_6 => \SPIS:BSPIS:byte_complete\ ,
        status_2 => \SPIS:BSPIS:miso_tx_empty_reg_fin\ ,
        status_1 => \SPIS:BSPIS:tx_status_1\ ,
        status_0 => \SPIS:BSPIS:tx_status_0\ ,
        interrupt => Net_483 );
    Properties:
    {
        cy_force_order = 1
        cy_int_mask = "1111111"
        cy_md_select = "1000001"
    }
    Clock Polarity: Active High
    Clock Enable: True

UDB [UDB=(0,1)] contents:
LAB@[UDB=(0,1)][LB=1] #macrocells=1, #inputs=1, #pterms=1
{
    [McSlotId=0]: (empty)
    [McSlotId=1]: (empty)
    [McSlotId=2]:     MacroCell: Name=\SPIS:BSPIS:rx_status_4\, Mode=(Combinatorial) @ [UDB=(0,1)][LB=1][MC=2]
        Total # of inputs        : 1
        Total # of product terms : 1
            Clock Enable: True
        Main Equation            : 1 pterm
        (
              !\SPIS:BSPIS:dpMOSI_fifo_not_empty\
        );
        Output = \SPIS:BSPIS:rx_status_4\ (fanout=1)
        Properties               : 
        {
        }

    [McSlotId=3]: (empty)
}

statusicell: Name =\SPIS:BSPIS:RxStsReg\
    PORT MAP (
        clock => \SPIS:Net_81_digital\ ,
        status_6 => \SPIS:BSPIS:dpMOSI_fifo_full_reg\ ,
        status_5 => \SPIS:BSPIS:rx_buf_overrun\ ,
        status_4 => \SPIS:BSPIS:rx_status_4\ ,
        status_3 => \SPIS:BSPIS:dpMOSI_fifo_not_empty\ ,
        interrupt => Net_310 );
    Properties:
    {
        cy_force_order = 1
        cy_int_mask = "1111111"
        cy_md_select = "0100000"
    }
    Clock Polarity: Active High
    Clock Enable: True

UDB [UDB=(1,0)] contents:
LAB@[UDB=(1,0)][LB=0] #macrocells=3, #inputs=8, #pterms=7
{
    [McSlotId=0]:     MacroCell: Name=\SPIS:BSPIS:mosi_to_dp\, Mode=(Combinatorial) @ [UDB=(1,0)][LB=0][MC=0]
        Total # of inputs        : 6
        Total # of product terms : 5
            Clock Enable: True
        Main Equation            : 5 pterms
        (
              Net_670 * !\SPIS:BSPIS:count_3\ * !\SPIS:BSPIS:count_2\ * 
              !\SPIS:BSPIS:count_1\ * \SPIS:BSPIS:count_0\
            + \SPIS:BSPIS:count_3\ * \SPIS:BSPIS:mosi_tmp\
            + \SPIS:BSPIS:count_2\ * \SPIS:BSPIS:mosi_tmp\
            + \SPIS:BSPIS:count_1\ * \SPIS:BSPIS:mosi_tmp\
            + !\SPIS:BSPIS:count_0\ * \SPIS:BSPIS:mosi_tmp\
        );
        Output = \SPIS:BSPIS:mosi_to_dp\ (fanout=1)
        Properties               : 
        {
        }

    [McSlotId=1]: (empty)
    [McSlotId=2]:     MacroCell: Name=\SPIS:BSPIS:dpcounter_one_reg\, Mode=(D-Register) @ [UDB=(1,0)][LB=0][MC=2]
        Total # of inputs        : 1
        Total # of product terms : 1
        List of special equations: 
            Clock  = (\SPIS:Net_81_digital\) => Global
            Clock Enable: True
        Main Equation            : 1 pterm
        (
              \SPIS:BSPIS:dpcounter_one_fin\
        );
        Output = \SPIS:BSPIS:dpcounter_one_reg\ (fanout=2)
        Properties               : 
        {
        }

    [McSlotId=3]:     MacroCell: Name=\SPIS:BSPIS:inv_ss\, Mode=(Combinatorial) @ [UDB=(1,0)][LB=0][MC=3]
        Total # of inputs        : 1
        Total # of product terms : 1
            Clock Enable: True
        Main Equation            : 1 pterm
        (
              !Net_673
        );
        Output = \SPIS:BSPIS:inv_ss\ (fanout=3)
        Properties               : 
        {
        }
}

LAB@[UDB=(1,0)][LB=1] #macrocells=2, #inputs=3, #pterms=2
{
    [McSlotId=0]:     MacroCell: Name=Net_672, Mode=(Combinatorial) @ [UDB=(1,0)][LB=1][MC=0]
        Total # of inputs        : 2
        Total # of product terms : 1
            Clock Enable: True
        Main Equation            : 1 pterm
        (
              !Net_673 * \SPIS:BSPIS:miso_from_dp\
        );
        Output = Net_672 (fanout=1)
        Properties               : 
        {
        }

    [McSlotId=1]:     MacroCell: Name=\SPIS:BSPIS:mosi_tmp\, Mode=(D-Register) @ [UDB=(1,0)][LB=1][MC=1]
        Total # of inputs        : 1
        Total # of product terms : 1
        List of special equations: 
            Clock  = (Net_671)
            Clock Enable: True
        Main Equation            : 1 pterm
        (
              Net_670
        );
        Output = \SPIS:BSPIS:mosi_tmp\ (fanout=1)
        Properties               : 
        {
        }

    [McSlotId=2]: (empty)
    [McSlotId=3]: (empty)
}

count7cell: Name =\SPIS:BSPIS:BitCounter\
    PORT MAP (
        clock => Net_671 ,
        reset => Net_673 ,
        enable => \SPIS:BSPIS:inv_ss\ ,
        count_6 => \SPIS:BSPIS:count_6\ ,
        count_5 => \SPIS:BSPIS:count_5\ ,
        count_4 => \SPIS:BSPIS:count_4\ ,
        count_3 => \SPIS:BSPIS:count_3\ ,
        count_2 => \SPIS:BSPIS:count_2\ ,
        count_1 => \SPIS:BSPIS:count_1\ ,
        count_0 => \SPIS:BSPIS:count_0\ );
    Properties:
    {
        cy_alt_mode = 0
        cy_init_value = "0000000"
        cy_period = "0000111"
        cy_route_en = 1
        cy_route_ld = 0
    }
    Clock Polarity: Active Low
    Clock Enable: True

UDB [UDB=(1,1)] contents:
LAB@[UDB=(1,1)][LB=0] #macrocells=2, #inputs=6, #pterms=2
{
    [McSlotId=0]: (empty)
    [McSlotId=1]:     MacroCell: Name=\SPIS:BSPIS:rx_buf_overrun\, Mode=(Combinatorial) @ [UDB=(1,1)][LB=0][MC=1]
        Total # of inputs        : 2
        Total # of product terms : 1
            Clock Enable: True
        Main Equation            : 1 pterm
        (
              \SPIS:BSPIS:mosi_buf_overrun_reg\ * 
              !\SPIS:BSPIS:mosi_buf_overrun_fin\
        );
        Output = \SPIS:BSPIS:rx_buf_overrun\ (fanout=1)
        Properties               : 
        {
        }

    [McSlotId=2]: (empty)
    [McSlotId=3]:     MacroCell: Name=\SPIS:BSPIS:tx_load\, Mode=(Combinatorial) @ [UDB=(1,1)][LB=0][MC=3]
        Total # of inputs        : 4
        Total # of product terms : 1
            Clock Enable: True
        Main Equation            : 1 pterm
        (
              !\SPIS:BSPIS:count_3\ * !\SPIS:BSPIS:count_2\ * 
              !\SPIS:BSPIS:count_1\ * \SPIS:BSPIS:count_0\
        );
        Output = \SPIS:BSPIS:tx_load\ (fanout=3)
        Properties               : 
        {
        }
}

LAB@[UDB=(1,1)][LB=1] #macrocells=2, #inputs=6, #pterms=2
{
    [McSlotId=0]:     MacroCell: Name=\SPIS:BSPIS:mosi_buf_overrun_fin\, Mode=(D-Register) @ [UDB=(1,1)][LB=1][MC=0]
        Total # of inputs        : 1
        Total # of product terms : 1
        List of special equations: 
            Clock  = (\SPIS:Net_81_digital\) => Global
            Clock Enable: True
        Main Equation            : 1 pterm
        (
              \SPIS:BSPIS:mosi_buf_overrun_reg\
        );
        Output = \SPIS:BSPIS:mosi_buf_overrun_fin\ (fanout=1)
        Properties               : 
        {
        }

    [McSlotId=1]: (empty)
    [McSlotId=2]:     MacroCell: Name=\SPIS:BSPIS:mosi_buf_overrun\, Mode=(Combinatorial) @ [UDB=(1,1)][LB=1][MC=2]
        Total # of inputs        : 5
        Total # of product terms : 1
            Clock Enable: True
        Main Equation            : 1 pterm
        (
              \SPIS:BSPIS:dpMOSI_fifo_full\ * !\SPIS:BSPIS:count_3\ * 
              !\SPIS:BSPIS:count_2\ * !\SPIS:BSPIS:count_1\ * 
              \SPIS:BSPIS:count_0\
        );
        Output = \SPIS:BSPIS:mosi_buf_overrun\ (fanout=1)
        Properties               : 
        {
        }

    [McSlotId=3]: (empty)
}

datapathcell: Name =\SPIS:BSPIS:sR8:Dp:u0\
    PORT MAP (
        clock => Net_671 ,
        cs_addr_2 => \SPIS:BSPIS:inv_ss\ ,
        cs_addr_0 => \SPIS:BSPIS:tx_load\ ,
        route_si => \SPIS:BSPIS:mosi_to_dp\ ,
        f1_load => \SPIS:BSPIS:tx_load\ ,
        so_comb => \SPIS:BSPIS:miso_from_dp\ ,
        f0_bus_stat_comb => \SPIS:BSPIS:tx_status_1\ ,
        f0_blk_stat_comb => \SPIS:BSPIS:dpMISO_fifo_empty\ ,
        f1_bus_stat_comb => \SPIS:BSPIS:dpMOSI_fifo_not_empty\ ,
        f1_blk_stat_comb => \SPIS:BSPIS:dpMOSI_fifo_full\ );
    Properties:
    {
        a0_init = "00000000"
        a1_init = "00000000"
        ce0_sync = 1
        ce1_sync = 1
        cl0_sync = 1
        cl1_sync = 1
        cmsb_sync = 1
        co_msb_sync = 1
        cy_dpconfig = "0000000000000000000000000000000000000000000000000000000000000000000000010100000000000001110000000000000000000000000000000000000011111111111111111111111111111111000000000010001000001100111100000001000010001100"
        d0_init = "00000000"
        d1_init = "00000000"
        f0_blk_sync = 1
        f0_bus_sync = 1
        f1_blk_sync = 1
        f1_bus_sync = 1
        ff0_sync = 1
        ff1_sync = 1
        ov_msb_sync = 1
        so_sync = 1
        z0_sync = 1
        z1_sync = 1
    }
    Clock Polarity: Active Low
    Clock Enable: True

synccell: Name =\SPIS:BSPIS:sync_3\
    PORT MAP (
        clock => \SPIS:Net_81_digital\ ,
        in => \SPIS:BSPIS:mosi_buf_overrun\ ,
        out => \SPIS:BSPIS:mosi_buf_overrun_reg\ );
    Properties:
    {
    }
    Clock Polarity: Active High
    Clock Enable: True

synccell: Name =\SPIS:BSPIS:sync_4\
    PORT MAP (
        clock => \SPIS:Net_81_digital\ ,
        in => \SPIS:BSPIS:dpMOSI_fifo_full\ ,
        out => \SPIS:BSPIS:dpMOSI_fifo_full_reg\ );
    Properties:
    {
    }
    Clock Polarity: Active High
    Clock Enable: True

synccell: Name =\SPIS:BSPIS:sync_2\
    PORT MAP (
        clock => \SPIS:Net_81_digital\ ,
        in => \SPIS:BSPIS:dpMISO_fifo_empty\ ,
        out => \SPIS:BSPIS:miso_tx_empty_reg_fin\ );
    Properties:
    {
    }
    Clock Polarity: Active High
    Clock Enable: True

synccell: Name =\SPIS:BSPIS:sync_1\
    PORT MAP (
        clock => \SPIS:Net_81_digital\ ,
        in => \SPIS:BSPIS:tx_load\ ,
        out => \SPIS:BSPIS:dpcounter_one_fin\ );
    Properties:
    {
    }
    Clock Polarity: Active High
    Clock Enable: True

Intr container @ [IntrContainer=(0)]: 
  Intr@ [IntrContainer=(0)][IntrId=(10)] 
    interrupt: Name =\SPIM:SCB_IRQ\
        PORT MAP (
            interrupt => Net_652 );
        Properties:
        {
            int_type = "10"
        }
Drq container @ [DrqContainer=(0)]: 
  Dma@ [DrqContainer=(0)][DrqId=(0)] 
    drqcell: Name =TxDmaS
        PORT MAP (
            dmareq => Net_483 ,
            termout => Net_669 );
        Properties:
        {
            priority = "11"
        }
  Dma@ [DrqContainer=(0)][DrqId=(1)] 
    drqcell: Name =RxDmaS
        PORT MAP (
            dmareq => Net_310 ,
            termout => Net_668 );
        Properties:
        {
            priority = "11"
        }
  Dma@ [DrqContainer=(0)][DrqId=(2)] 
    drqcell: Name =TxDmaM
        PORT MAP (
            dmareq => Net_486 ,
            termout => Net_667 );
        Properties:
        {
            priority = "11"
        }
  Dma@ [DrqContainer=(0)][DrqId=(3)] 
    drqcell: Name =RxDmaM
        PORT MAP (
            dmareq => Net_487 ,
            termout => Net_666 );
        Properties:
        {
            priority = "11"
        }
Port 0 contains the following IO cells:
[IoId=0]: 
Pin : Name = \SPIM:mosi_m(0)\
    Attributes:
        In Group/Port: True
        In Sync Option: NOSYNC
        Out Sync Option: NOSYNC
        Interrupt generated: False
        Interrupt mode: NONE
        Drive mode: CMOS_OUT
        VTrip: CMOS
        Slew: FAST
        Input Sync needed: False
        Output Sync needed: False
        SC shield enabled: False
        POR State: ANY
        LCD Mode: COMMON
        Register Mode: RegComb
        CaSense Mode: NEITHER
        Treat as pin: True
        Is OE Registered: False
        Uses Analog: False
        Can contain Digital: True
        Is SIO: False
        SIO Output Buf: NONREGULATED
        SIO Input Buf: SINGLE_ENDED
        SIO HiFreq: LOW
        SIO Hyst: DISABLED
        SIO Vtrip: MULTIPLIER_0_5
        SIO Multiplier Index: 0
        SIO RefSel: VCC_IO
        Required Capabilitites: DIGITAL
        Initial Value: 1
        IO Voltage: 0
    PORT MAP (
        pa_out => \SPIM:mosi_m(0)\__PA ,
        input => \SPIM:mosi_m_wire\ ,
        pad => \SPIM:mosi_m(0)_PAD\ );
    Properties:
    {
        port_location = "PORT(0,0)"
    }

[IoId=1]: 
Pin : Name = \SPIM:miso_m(0)\
    Attributes:
        In Group/Port: True
        In Sync Option: NOSYNC
        Out Sync Option: AUTO
        Interrupt generated: False
        Interrupt mode: NONE
        Drive mode: HI_Z_DIGITAL
        VTrip: CMOS
        Slew: FAST
        Input Sync needed: False
        Output Sync needed: False
        SC shield enabled: False
        POR State: ANY
        LCD Mode: COMMON
        Register Mode: RegComb
        CaSense Mode: NEITHER
        Treat as pin: True
        Is OE Registered: False
        Uses Analog: False
        Can contain Digital: True
        Is SIO: False
        SIO Output Buf: NONREGULATED
        SIO Input Buf: SINGLE_ENDED
        SIO HiFreq: LOW
        SIO Hyst: DISABLED
        SIO Vtrip: MULTIPLIER_0_5
        SIO Multiplier Index: 0
        SIO RefSel: VCC_IO
        Required Capabilitites: DIGITAL
        Initial Value: 0
        IO Voltage: 0
    PORT MAP (
        pa_out => \SPIM:miso_m(0)\__PA ,
        fb => \SPIM:miso_m_wire\ ,
        pad => \SPIM:miso_m(0)_PAD\ );
    Properties:
    {
        port_location = "PORT(0,1)"
    }

[IoId=2]: 
Pin : Name = \SPIM:ss0_m(0)\
    Attributes:
        In Group/Port: True
        In Sync Option: NOSYNC
        Out Sync Option: NOSYNC
        Interrupt generated: False
        Interrupt mode: NONE
        Drive mode: CMOS_OUT
        VTrip: CMOS
        Slew: FAST
        Input Sync needed: False
        Output Sync needed: False
        SC shield enabled: False
        POR State: ANY
        LCD Mode: COMMON
        Register Mode: RegComb
        CaSense Mode: NEITHER
        Treat as pin: True
        Is OE Registered: False
        Uses Analog: False
        Can contain Digital: True
        Is SIO: False
        SIO Output Buf: NONREGULATED
        SIO Input Buf: SINGLE_ENDED
        SIO HiFreq: LOW
        SIO Hyst: DISABLED
        SIO Vtrip: MULTIPLIER_0_5
        SIO Multiplier Index: 0
        SIO RefSel: VCC_IO
        Required Capabilitites: DIGITAL
        Initial Value: 1
        IO Voltage: 0
    PORT MAP (
        pa_out => \SPIM:ss0_m(0)\__PA ,
        input => \SPIM:select_m_wire_0\ ,
        pad => \SPIM:ss0_m(0)_PAD\ );
    Properties:
    {
        port_location = "PORT(0,2)"
    }

[IoId=3]: 
Pin : Name = \SPIM:sclk_m(0)\
    Attributes:
        In Group/Port: True
        In Sync Option: NOSYNC
        Out Sync Option: NOSYNC
        Interrupt generated: False
        Interrupt mode: NONE
        Drive mode: CMOS_OUT
        VTrip: CMOS
        Slew: FAST
        Input Sync needed: False
        Output Sync needed: False
        SC shield enabled: False
        POR State: ANY
        LCD Mode: COMMON
        Register Mode: RegComb
        CaSense Mode: NEITHER
        Treat as pin: True
        Is OE Registered: False
        Uses Analog: False
        Can contain Digital: True
        Is SIO: False
        SIO Output Buf: NONREGULATED
        SIO Input Buf: SINGLE_ENDED
        SIO HiFreq: LOW
        SIO Hyst: DISABLED
        SIO Vtrip: MULTIPLIER_0_5
        SIO Multiplier Index: 0
        SIO RefSel: VCC_IO
        Required Capabilitites: DIGITAL
        Initial Value: 1
        IO Voltage: 0
    PORT MAP (
        pa_out => \SPIM:sclk_m(0)\__PA ,
        input => \SPIM:sclk_m_wire\ ,
        pad => \SPIM:sclk_m(0)_PAD\ );
    Properties:
    {
        port_location = "PORT(0,3)"
    }

Port 1 contains the following IO cells:
[IoId=0]: 
Pin : Name = SCLK_S(0)
    Attributes:
        In Group/Port: True
        In Sync Option: NOSYNC
        Out Sync Option: AUTO
        Interrupt generated: False
        Interrupt mode: NONE
        Drive mode: HI_Z_DIGITAL
        VTrip: CMOS
        Slew: FAST
        Input Sync needed: False
        Output Sync needed: False
        SC shield enabled: False
        POR State: ANY
        LCD Mode: COMMON
        Register Mode: RegComb
        CaSense Mode: NEITHER
        Treat as pin: True
        Is OE Registered: False
        Uses Analog: False
        Can contain Digital: True
        Is SIO: False
        SIO Output Buf: NONREGULATED
        SIO Input Buf: SINGLE_ENDED
        SIO HiFreq: LOW
        SIO Hyst: DISABLED
        SIO Vtrip: MULTIPLIER_0_5
        SIO Multiplier Index: 0
        SIO RefSel: VCC_IO
        Required Capabilitites: DIGITAL, ROUTABLE
        Initial Value: 0
        IO Voltage: 0
    PORT MAP (
        pa_out => SCLK_S(0)__PA ,
        fb => Net_671 ,
        pad => SCLK_S(0)_PAD );
    Properties:
    {
        port_location = "PORT(1,0)"
    }

[IoId=1]: 
Pin : Name = SS_S(0)
    Attributes:
        In Group/Port: True
        In Sync Option: NOSYNC
        Out Sync Option: AUTO
        Interrupt generated: False
        Interrupt mode: NONE
        Drive mode: HI_Z_DIGITAL
        VTrip: CMOS
        Slew: FAST
        Input Sync needed: False
        Output Sync needed: False
        SC shield enabled: False
        POR State: ANY
        LCD Mode: COMMON
        Register Mode: RegComb
        CaSense Mode: NEITHER
        Treat as pin: True
        Is OE Registered: False
        Uses Analog: False
        Can contain Digital: True
        Is SIO: False
        SIO Output Buf: NONREGULATED
        SIO Input Buf: SINGLE_ENDED
        SIO HiFreq: LOW
        SIO Hyst: DISABLED
        SIO Vtrip: MULTIPLIER_0_5
        SIO Multiplier Index: 0
        SIO RefSel: VCC_IO
        Required Capabilitites: DIGITAL, ROUTABLE
        Initial Value: 0
        IO Voltage: 0
    PORT MAP (
        pa_out => SS_S(0)__PA ,
        fb => Net_673 ,
        pad => SS_S(0)_PAD );
    Properties:
    {
        port_location = "PORT(1,1)"
    }

[IoId=2]: 
Pin : Name = MOSI_S(0)
    Attributes:
        In Group/Port: True
        In Sync Option: NOSYNC
        Out Sync Option: AUTO
        Interrupt generated: False
        Interrupt mode: NONE
        Drive mode: HI_Z_DIGITAL
        VTrip: CMOS
        Slew: FAST
        Input Sync needed: False
        Output Sync needed: False
        SC shield enabled: False
        POR State: ANY
        LCD Mode: COMMON
        Register Mode: RegComb
        CaSense Mode: NEITHER
        Treat as pin: True
        Is OE Registered: False
        Uses Analog: False
        Can contain Digital: True
        Is SIO: False
        SIO Output Buf: NONREGULATED
        SIO Input Buf: SINGLE_ENDED
        SIO HiFreq: LOW
        SIO Hyst: DISABLED
        SIO Vtrip: MULTIPLIER_0_5
        SIO Multiplier Index: 0
        SIO RefSel: VCC_IO
        Required Capabilitites: DIGITAL, ROUTABLE
        Initial Value: 0
        IO Voltage: 0
    PORT MAP (
        pa_out => MOSI_S(0)__PA ,
        fb => Net_670 ,
        pad => MOSI_S(0)_PAD );
    Properties:
    {
        port_location = "PORT(1,2)"
    }

[IoId=3]: 
Pin : Name = MISO_S(0)
    Attributes:
        In Group/Port: True
        In Sync Option: AUTO
        Out Sync Option: NOSYNC
        Interrupt generated: False
        Interrupt mode: NONE
        Drive mode: CMOS_OUT
        VTrip: EITHER
        Slew: FAST
        Input Sync needed: False
        Output Sync needed: False
        SC shield enabled: False
        POR State: ANY
        LCD Mode: COMMON
        Register Mode: RegComb
        CaSense Mode: NEITHER
        Treat as pin: True
        Is OE Registered: False
        Uses Analog: False
        Can contain Digital: True
        Is SIO: False
        SIO Output Buf: NONREGULATED
        SIO Input Buf: SINGLE_ENDED
        SIO HiFreq: LOW
        SIO Hyst: DISABLED
        SIO Vtrip: MULTIPLIER_0_5
        SIO Multiplier Index: 0
        SIO RefSel: VCC_IO
        Required Capabilitites: DIGITAL, ROUTABLE
        Initial Value: 1
        IO Voltage: 0
    PORT MAP (
        pa_out => MISO_S(0)__PA ,
        input => Net_672 ,
        pad => MISO_S(0)_PAD );
    Properties:
    {
        port_location = "PORT(1,3)"
    }

Port 2 contains the following IO cells:
[IoId=6]: 
Pin : Name = ERROR(0)
    Attributes:
        In Group/Port: True
        In Sync Option: AUTO
        Out Sync Option: NOSYNC
        Interrupt generated: False
        Interrupt mode: NONE
        Drive mode: CMOS_OUT
        VTrip: EITHER
        Slew: FAST
        Input Sync needed: False
        Output Sync needed: False
        SC shield enabled: False
        POR State: ANY
        LCD Mode: COMMON
        Register Mode: RegComb
        CaSense Mode: NEITHER
        Treat as pin: True
        Is OE Registered: False
        Uses Analog: False
        Can contain Digital: True
        Is SIO: False
        SIO Output Buf: NONREGULATED
        SIO Input Buf: SINGLE_ENDED
        SIO HiFreq: LOW
        SIO Hyst: DISABLED
        SIO Vtrip: MULTIPLIER_0_5
        SIO Multiplier Index: 0
        SIO RefSel: VCC_IO
        Required Capabilitites: DIGITAL
        Initial Value: 1
        IO Voltage: 0
    PORT MAP (
        pa_out => ERROR(0)__PA ,
        annotation => Net_368 ,
        pad => ERROR(0)_PAD );
    Properties:
    {
        port_location = "PORT(2,6)"
    }

Port 3 contains the following IO cells:
[IoId=6]: 
Pin : Name = SUCCESS(0)
    Attributes:
        In Group/Port: True
        In Sync Option: AUTO
        Out Sync Option: NOSYNC
        Interrupt generated: False
        Interrupt mode: NONE
        Drive mode: CMOS_OUT
        VTrip: EITHER
        Slew: FAST
        Input Sync needed: False
        Output Sync needed: False
        SC shield enabled: False
        POR State: ANY
        LCD Mode: COMMON
        Register Mode: RegComb
        CaSense Mode: NEITHER
        Treat as pin: True
        Is OE Registered: False
        Uses Analog: False
        Can contain Digital: True
        Is SIO: False
        SIO Output Buf: NONREGULATED
        SIO Input Buf: SINGLE_ENDED
        SIO HiFreq: LOW
        SIO Hyst: DISABLED
        SIO Vtrip: MULTIPLIER_0_5
        SIO Multiplier Index: 0
        SIO RefSel: VCC_IO
        Required Capabilitites: DIGITAL
        Initial Value: 1
        IO Voltage: 0
    PORT MAP (
        pa_out => SUCCESS(0)__PA ,
        annotation => Net_576 ,
        pad => SUCCESS(0)_PAD );
    Properties:
    {
        port_location = "PORT(3,6)"
    }

Port 4 is empty
Port 5 is empty
Port 6 is empty
Clock group 0: 
    M0S8 Clock Block @ F(Clock,0): 
    m0s8clockblockcell: Name =ClockBlock
        PORT MAP (
            hfclk => ClockBlock_HFCLK ,
            imo => ClockBlock_IMO ,
            ext => ClockBlock_EXTCLK ,
            sysclk => ClockBlock_SYSCLK ,
            eco => ClockBlock_ECO ,
            ilo => ClockBlock_ILO ,
            lfclk => ClockBlock_LFCLK ,
            wco => ClockBlock_WCO ,
            dsi_in_0 => ClockBlock_Routed1 ,
            ff_div_1 => \SPIM:Net_847_ff1\ ,
            udb_div_0 => dclk_to_genclk );
        Properties:
        {
        }
PM group 0: empty
SPC group 0: empty
WDT group 0: empty
FSS group 0: empty
LP Comparator group 0: empty
Serial Communication (SCB) group 0: 
    SCB Block @ F(SCB,1): 
    m0s8scbcell: Name =\SPIM:SCB\
        PORT MAP (
            clock => \SPIM:Net_847_ff1\ ,
            interrupt => Net_652 ,
            tx => \SPIM:tx_wire\ ,
            rts => \SPIM:rts_wire\ ,
            mosi_m => \SPIM:mosi_m_wire\ ,
            miso_m => \SPIM:miso_m_wire\ ,
            select_m_3 => \SPIM:select_m_wire_3\ ,
            select_m_2 => \SPIM:select_m_wire_2\ ,
            select_m_1 => \SPIM:select_m_wire_1\ ,
            select_m_0 => \SPIM:select_m_wire_0\ ,
            sclk_m => \SPIM:sclk_m_wire\ ,
            miso_s => \SPIM:miso_s_wire\ ,
            tx_req => Net_486 ,
            rx_req => Net_487 );
        Properties:
        {
            cy_registers = ""
            scb_mode = 1
        }
CapSense group 0: empty
8-bit IDAC group 0: empty
7-bit IDAC group 0: empty
Timer/Counter/PWM group 0: empty
Comparator/Opamp group 0: empty
Die Temp group 0: empty
SAR ADC group 0: empty
Segment LCD group 0: empty
CLK_GEN group 0: 
    M0S8 Clock Gen Block @ F(CLK_GEN,0): 
    m0s8clockgenblockcell: Name =ClockGenBlock
        PORT MAP (
            gen_clk_out_0 => \SPIS:Net_81_digital\ ,
            gen_clk_in_0 => dclk_to_genclk );
        Properties:
        {
        }
LPCOMPBLOCK group 0: empty
PASSBLOCK group 0: empty
ANAPUMP group 0: empty
BLE group 0: empty
GANGED_PICU group 0: empty
WCO group 0: empty
M0S8DMAC group 0: empty
</CYPRESSTAG>
<CYPRESSTAG name="Port Configuration Details">

------------------------------------------------------------
Port Configuration report
------------------------------------------------------------
     |     |       | Interrupt |                  |                  | 
Port | Pin | Fixed |      Type |       Drive Mode |             Name | Connections
-----+-----+-------+-----------+------------------+------------------+---------------------------
   0 |   0 |     * |      NONE |         CMOS_OUT | \SPIM:mosi_m(0)\ | In(\SPIM:mosi_m_wire\)
     |   1 |     * |      NONE |     HI_Z_DIGITAL | \SPIM:miso_m(0)\ | FB(\SPIM:miso_m_wire\)
     |   2 |     * |      NONE |         CMOS_OUT |  \SPIM:ss0_m(0)\ | In(\SPIM:select_m_wire_0\)
     |   3 |     * |      NONE |         CMOS_OUT | \SPIM:sclk_m(0)\ | In(\SPIM:sclk_m_wire\)
-----+-----+-------+-----------+------------------+------------------+---------------------------
   1 |   0 |     * |      NONE |     HI_Z_DIGITAL |        SCLK_S(0) | FB(Net_671)
     |   1 |     * |      NONE |     HI_Z_DIGITAL |          SS_S(0) | FB(Net_673)
     |   2 |     * |      NONE |     HI_Z_DIGITAL |        MOSI_S(0) | FB(Net_670)
     |   3 |     * |      NONE |         CMOS_OUT |        MISO_S(0) | In(Net_672)
-----+-----+-------+-----------+------------------+------------------+---------------------------
   2 |   6 |     * |      NONE |         CMOS_OUT |         ERROR(0) | 
-----+-----+-------+-----------+------------------+------------------+---------------------------
   3 |   6 |     * |      NONE |         CMOS_OUT |       SUCCESS(0) | 
-------------------------------------------------------------------------------------------------
</CYPRESSTAG>
</CYPRESSTAG>
</CYPRESSTAG>
Digital component placer commit/Report: Elapsed time ==> 0s.005ms
Digital Placement phase: Elapsed time ==> 2s.150ms
</CYPRESSTAG>
<CYPRESSTAG name="Digital Routing">
Routing successful.
Digital Routing phase: Elapsed time ==> 1s.965ms
</CYPRESSTAG>
<CYPRESSTAG name="Bitstream and API generation">
Bitstream and API generation phase: Elapsed time ==> 0s.675ms
</CYPRESSTAG>
<CYPRESSTAG name="Bitstream verification">
Bitstream verification phase: Elapsed time ==> 0s.055ms
</CYPRESSTAG>
<CYPRESSTAG name="Static timing analysis">
Timing report is in DMA_SPI_PSoC403_timing.html.
Static timing analysis phase: Elapsed time ==> 0s.610ms
</CYPRESSTAG>
<CYPRESSTAG name="Data reporting">
Data reporting phase: Elapsed time ==> 0s.000ms
</CYPRESSTAG>
<CYPRESSTAG name="Database update...">
Design database save phase: Elapsed time ==> 0s.430ms
</CYPRESSTAG>
cydsfit: Elapsed time ==> 7s.020ms
</CYPRESSTAG>
Fitter phase: Elapsed time ==> 7s.135ms
API generation phase: Elapsed time ==> 5s.654ms
Dependency generation phase: Elapsed time ==> 0s.065ms
Cleanup phase: Elapsed time ==> 0s.000ms
