ARM GAS  C:\Users\TOM~1.MCK\AppData\Local\Temp\ccNPH46g.s 			page 1


   1              		.cpu cortex-m0
   2              		.fpu softvfp
   3              		.eabi_attribute 20, 1
   4              		.eabi_attribute 21, 1
   5              		.eabi_attribute 23, 3
   6              		.eabi_attribute 24, 1
   7              		.eabi_attribute 25, 1
   8              		.eabi_attribute 26, 1
   9              		.eabi_attribute 30, 1
  10              		.eabi_attribute 34, 0
  11              		.eabi_attribute 18, 4
  12              		.code	16
  13              		.file	"Clock_2.c"
  14              		.text
  15              	.Ltext0:
  16              		.cfi_sections	.debug_frame
  17              		.section	.text.Clock_2_StartEx,"ax",%progbits
  18              		.align	2
  19              		.global	Clock_2_StartEx
  20              		.code	16
  21              		.thumb_func
  22              		.type	Clock_2_StartEx, %function
  23              	Clock_2_StartEx:
  24              	.LFB0:
  25              		.file 1 ".\\Generated_Source\\PSoC4\\Clock_2.c"
   1:.\Generated_Source\PSoC4/Clock_2.c **** /*******************************************************************************
   2:.\Generated_Source\PSoC4/Clock_2.c **** * File Name: Clock_2.c
   3:.\Generated_Source\PSoC4/Clock_2.c **** * Version 2.20
   4:.\Generated_Source\PSoC4/Clock_2.c **** *
   5:.\Generated_Source\PSoC4/Clock_2.c **** *  Description:
   6:.\Generated_Source\PSoC4/Clock_2.c **** *   Provides system API for the clocking, interrupts and watchdog timer.
   7:.\Generated_Source\PSoC4/Clock_2.c **** *
   8:.\Generated_Source\PSoC4/Clock_2.c **** *  Note:
   9:.\Generated_Source\PSoC4/Clock_2.c **** *   Documentation of the API's in this file is located in the
  10:.\Generated_Source\PSoC4/Clock_2.c **** *   System Reference Guide provided with PSoC Creator.
  11:.\Generated_Source\PSoC4/Clock_2.c **** *
  12:.\Generated_Source\PSoC4/Clock_2.c **** ********************************************************************************
  13:.\Generated_Source\PSoC4/Clock_2.c **** * Copyright 2008-2012, Cypress Semiconductor Corporation.  All rights reserved.
  14:.\Generated_Source\PSoC4/Clock_2.c **** * You may use this file only in accordance with the license, terms, conditions,
  15:.\Generated_Source\PSoC4/Clock_2.c **** * disclaimers, and limitations in the end user license agreement accompanying
  16:.\Generated_Source\PSoC4/Clock_2.c **** * the software package with which this file was provided.
  17:.\Generated_Source\PSoC4/Clock_2.c **** *******************************************************************************/
  18:.\Generated_Source\PSoC4/Clock_2.c **** 
  19:.\Generated_Source\PSoC4/Clock_2.c **** #include <cydevice_trm.h>
  20:.\Generated_Source\PSoC4/Clock_2.c **** #include "Clock_2.h"
  21:.\Generated_Source\PSoC4/Clock_2.c **** 
  22:.\Generated_Source\PSoC4/Clock_2.c **** #if defined CYREG_PERI_DIV_CMD
  23:.\Generated_Source\PSoC4/Clock_2.c **** 
  24:.\Generated_Source\PSoC4/Clock_2.c **** /*******************************************************************************
  25:.\Generated_Source\PSoC4/Clock_2.c **** * Function Name: Clock_2_StartEx
  26:.\Generated_Source\PSoC4/Clock_2.c **** ********************************************************************************
  27:.\Generated_Source\PSoC4/Clock_2.c **** *
  28:.\Generated_Source\PSoC4/Clock_2.c **** * Summary:
  29:.\Generated_Source\PSoC4/Clock_2.c **** *  Starts the clock, aligned to the specified running clock.
  30:.\Generated_Source\PSoC4/Clock_2.c **** *
  31:.\Generated_Source\PSoC4/Clock_2.c **** * Parameters:
  32:.\Generated_Source\PSoC4/Clock_2.c **** *  alignClkDiv:  The divider to which phase alignment is performed when the
ARM GAS  C:\Users\TOM~1.MCK\AppData\Local\Temp\ccNPH46g.s 			page 2


  33:.\Generated_Source\PSoC4/Clock_2.c **** *    clock is started.
  34:.\Generated_Source\PSoC4/Clock_2.c **** *
  35:.\Generated_Source\PSoC4/Clock_2.c **** * Returns:
  36:.\Generated_Source\PSoC4/Clock_2.c **** *  None
  37:.\Generated_Source\PSoC4/Clock_2.c **** *
  38:.\Generated_Source\PSoC4/Clock_2.c **** *******************************************************************************/
  39:.\Generated_Source\PSoC4/Clock_2.c **** void Clock_2_StartEx(uint32 alignClkDiv)
  40:.\Generated_Source\PSoC4/Clock_2.c **** {
  26              		.loc 1 40 0
  27              		.cfi_startproc
  28              	.LVL0:
  29              	.L2:
  41:.\Generated_Source\PSoC4/Clock_2.c ****     /* Make sure any previous start command has finished. */
  42:.\Generated_Source\PSoC4/Clock_2.c ****     while((Clock_2_CMD_REG & Clock_2_CMD_ENABLE_MASK) != 0u)
  30              		.loc 1 42 0 discriminator 1
  31 0000 044B     		ldr	r3, .L3
  32 0002 1B68     		ldr	r3, [r3]
  33 0004 002B     		cmp	r3, #0
  34 0006 FBDB     		blt	.L2
  43:.\Generated_Source\PSoC4/Clock_2.c ****     {
  44:.\Generated_Source\PSoC4/Clock_2.c ****     }
  45:.\Generated_Source\PSoC4/Clock_2.c ****     
  46:.\Generated_Source\PSoC4/Clock_2.c ****     /* Specify the target divider and it's alignment divider, and enable. */
  47:.\Generated_Source\PSoC4/Clock_2.c ****     Clock_2_CMD_REG =
  48:.\Generated_Source\PSoC4/Clock_2.c ****         ((uint32)Clock_2__DIV_ID << Clock_2_CMD_DIV_SHIFT)|
  49:.\Generated_Source\PSoC4/Clock_2.c ****         (alignClkDiv << Clock_2_CMD_PA_DIV_SHIFT) |
  35              		.loc 1 49 0
  36 0008 0002     		lsl	r0, r0, #8
  37              	.LVL1:
  38 000a 034B     		ldr	r3, .L3+4
  39 000c 1843     		orr	r0, r3
  47:.\Generated_Source\PSoC4/Clock_2.c ****         ((uint32)Clock_2__DIV_ID << Clock_2_CMD_DIV_SHIFT)|
  40              		.loc 1 47 0
  41 000e 014B     		ldr	r3, .L3
  42 0010 1860     		str	r0, [r3]
  50:.\Generated_Source\PSoC4/Clock_2.c ****         (uint32)Clock_2_CMD_ENABLE_MASK;
  51:.\Generated_Source\PSoC4/Clock_2.c **** }
  43              		.loc 1 51 0
  44              		@ sp needed
  45 0012 7047     		bx	lr
  46              	.L4:
  47              		.align	2
  48              	.L3:
  49 0014 00000140 		.word	1073807360
  50 0018 41000080 		.word	-2147483583
  51              		.cfi_endproc
  52              	.LFE0:
  53              		.size	Clock_2_StartEx, .-Clock_2_StartEx
  54              		.section	.text.Clock_2_Stop,"ax",%progbits
  55              		.align	2
  56              		.global	Clock_2_Stop
  57              		.code	16
  58              		.thumb_func
  59              		.type	Clock_2_Stop, %function
  60              	Clock_2_Stop:
  61              	.LFB1:
  52:.\Generated_Source\PSoC4/Clock_2.c **** 
ARM GAS  C:\Users\TOM~1.MCK\AppData\Local\Temp\ccNPH46g.s 			page 3


  53:.\Generated_Source\PSoC4/Clock_2.c **** #else
  54:.\Generated_Source\PSoC4/Clock_2.c **** 
  55:.\Generated_Source\PSoC4/Clock_2.c **** /*******************************************************************************
  56:.\Generated_Source\PSoC4/Clock_2.c **** * Function Name: Clock_2_Start
  57:.\Generated_Source\PSoC4/Clock_2.c **** ********************************************************************************
  58:.\Generated_Source\PSoC4/Clock_2.c **** *
  59:.\Generated_Source\PSoC4/Clock_2.c **** * Summary:
  60:.\Generated_Source\PSoC4/Clock_2.c **** *  Starts the clock.
  61:.\Generated_Source\PSoC4/Clock_2.c **** *
  62:.\Generated_Source\PSoC4/Clock_2.c **** * Parameters:
  63:.\Generated_Source\PSoC4/Clock_2.c **** *  None
  64:.\Generated_Source\PSoC4/Clock_2.c **** *
  65:.\Generated_Source\PSoC4/Clock_2.c **** * Returns:
  66:.\Generated_Source\PSoC4/Clock_2.c **** *  None
  67:.\Generated_Source\PSoC4/Clock_2.c **** *
  68:.\Generated_Source\PSoC4/Clock_2.c **** *******************************************************************************/
  69:.\Generated_Source\PSoC4/Clock_2.c **** 
  70:.\Generated_Source\PSoC4/Clock_2.c **** void Clock_2_Start(void)
  71:.\Generated_Source\PSoC4/Clock_2.c **** {
  72:.\Generated_Source\PSoC4/Clock_2.c ****     /* Set the bit to enable the clock. */
  73:.\Generated_Source\PSoC4/Clock_2.c ****     Clock_2_ENABLE_REG |= Clock_2__ENABLE_MASK;
  74:.\Generated_Source\PSoC4/Clock_2.c **** }
  75:.\Generated_Source\PSoC4/Clock_2.c **** 
  76:.\Generated_Source\PSoC4/Clock_2.c **** #endif /* CYREG_PERI_DIV_CMD */
  77:.\Generated_Source\PSoC4/Clock_2.c **** 
  78:.\Generated_Source\PSoC4/Clock_2.c **** 
  79:.\Generated_Source\PSoC4/Clock_2.c **** /*******************************************************************************
  80:.\Generated_Source\PSoC4/Clock_2.c **** * Function Name: Clock_2_Stop
  81:.\Generated_Source\PSoC4/Clock_2.c **** ********************************************************************************
  82:.\Generated_Source\PSoC4/Clock_2.c **** *
  83:.\Generated_Source\PSoC4/Clock_2.c **** * Summary:
  84:.\Generated_Source\PSoC4/Clock_2.c **** *  Stops the clock and returns immediately. This API does not require the
  85:.\Generated_Source\PSoC4/Clock_2.c **** *  source clock to be running but may return before the hardware is actually
  86:.\Generated_Source\PSoC4/Clock_2.c **** *  disabled.
  87:.\Generated_Source\PSoC4/Clock_2.c **** *
  88:.\Generated_Source\PSoC4/Clock_2.c **** * Parameters:
  89:.\Generated_Source\PSoC4/Clock_2.c **** *  None
  90:.\Generated_Source\PSoC4/Clock_2.c **** *
  91:.\Generated_Source\PSoC4/Clock_2.c **** * Returns:
  92:.\Generated_Source\PSoC4/Clock_2.c **** *  None
  93:.\Generated_Source\PSoC4/Clock_2.c **** *
  94:.\Generated_Source\PSoC4/Clock_2.c **** *******************************************************************************/
  95:.\Generated_Source\PSoC4/Clock_2.c **** void Clock_2_Stop(void)
  96:.\Generated_Source\PSoC4/Clock_2.c **** {
  62              		.loc 1 96 0
  63              		.cfi_startproc
  64              	.L6:
  97:.\Generated_Source\PSoC4/Clock_2.c **** #if defined CYREG_PERI_DIV_CMD
  98:.\Generated_Source\PSoC4/Clock_2.c **** 
  99:.\Generated_Source\PSoC4/Clock_2.c ****     /* Make sure any previous start command has finished. */
 100:.\Generated_Source\PSoC4/Clock_2.c ****     while((Clock_2_CMD_REG & Clock_2_CMD_ENABLE_MASK) != 0u)
  65              		.loc 1 100 0 discriminator 1
  66 0000 034B     		ldr	r3, .L7
  67 0002 1B68     		ldr	r3, [r3]
  68 0004 002B     		cmp	r3, #0
  69 0006 FBDB     		blt	.L6
 101:.\Generated_Source\PSoC4/Clock_2.c ****     {
ARM GAS  C:\Users\TOM~1.MCK\AppData\Local\Temp\ccNPH46g.s 			page 4


 102:.\Generated_Source\PSoC4/Clock_2.c ****     }
 103:.\Generated_Source\PSoC4/Clock_2.c ****     
 104:.\Generated_Source\PSoC4/Clock_2.c ****     /* Specify the target divider and it's alignment divider, and disable. */
 105:.\Generated_Source\PSoC4/Clock_2.c ****     Clock_2_CMD_REG =
  70              		.loc 1 105 0
  71 0008 024A     		ldr	r2, .L7+4
  72 000a 014B     		ldr	r3, .L7
  73 000c 1A60     		str	r2, [r3]
 106:.\Generated_Source\PSoC4/Clock_2.c ****         ((uint32)Clock_2__DIV_ID << Clock_2_CMD_DIV_SHIFT)|
 107:.\Generated_Source\PSoC4/Clock_2.c ****         ((uint32)Clock_2_CMD_DISABLE_MASK);
 108:.\Generated_Source\PSoC4/Clock_2.c **** 
 109:.\Generated_Source\PSoC4/Clock_2.c **** #else
 110:.\Generated_Source\PSoC4/Clock_2.c **** 
 111:.\Generated_Source\PSoC4/Clock_2.c ****     /* Clear the bit to disable the clock. */
 112:.\Generated_Source\PSoC4/Clock_2.c ****     Clock_2_ENABLE_REG &= (uint32)(~Clock_2__ENABLE_MASK);
 113:.\Generated_Source\PSoC4/Clock_2.c ****     
 114:.\Generated_Source\PSoC4/Clock_2.c **** #endif /* CYREG_PERI_DIV_CMD */
 115:.\Generated_Source\PSoC4/Clock_2.c **** }
  74              		.loc 1 115 0
  75              		@ sp needed
  76 000e 7047     		bx	lr
  77              	.L8:
  78              		.align	2
  79              	.L7:
  80 0010 00000140 		.word	1073807360
  81 0014 41000040 		.word	1073741889
  82              		.cfi_endproc
  83              	.LFE1:
  84              		.size	Clock_2_Stop, .-Clock_2_Stop
  85              		.section	.text.Clock_2_SetFractionalDividerRegister,"ax",%progbits
  86              		.align	2
  87              		.global	Clock_2_SetFractionalDividerRegister
  88              		.code	16
  89              		.thumb_func
  90              		.type	Clock_2_SetFractionalDividerRegister, %function
  91              	Clock_2_SetFractionalDividerRegister:
  92              	.LFB2:
 116:.\Generated_Source\PSoC4/Clock_2.c **** 
 117:.\Generated_Source\PSoC4/Clock_2.c **** 
 118:.\Generated_Source\PSoC4/Clock_2.c **** /*******************************************************************************
 119:.\Generated_Source\PSoC4/Clock_2.c **** * Function Name: Clock_2_SetFractionalDividerRegister
 120:.\Generated_Source\PSoC4/Clock_2.c **** ********************************************************************************
 121:.\Generated_Source\PSoC4/Clock_2.c **** *
 122:.\Generated_Source\PSoC4/Clock_2.c **** * Summary:
 123:.\Generated_Source\PSoC4/Clock_2.c **** *  Modifies the clock divider and the fractional divider.
 124:.\Generated_Source\PSoC4/Clock_2.c **** *
 125:.\Generated_Source\PSoC4/Clock_2.c **** * Parameters:
 126:.\Generated_Source\PSoC4/Clock_2.c **** *  clkDivider:  Divider register value (0-65535). This value is NOT the
 127:.\Generated_Source\PSoC4/Clock_2.c **** *    divider; the clock hardware divides by clkDivider plus one. For example,
 128:.\Generated_Source\PSoC4/Clock_2.c **** *    to divide the clock by 2, this parameter should be set to 1.
 129:.\Generated_Source\PSoC4/Clock_2.c **** *  fracDivider:  Fractional Divider register value (0-31).
 130:.\Generated_Source\PSoC4/Clock_2.c **** * Returns:
 131:.\Generated_Source\PSoC4/Clock_2.c **** *  None
 132:.\Generated_Source\PSoC4/Clock_2.c **** *
 133:.\Generated_Source\PSoC4/Clock_2.c **** *******************************************************************************/
 134:.\Generated_Source\PSoC4/Clock_2.c **** void Clock_2_SetFractionalDividerRegister(uint16 clkDivider, uint8 clkFractional)
 135:.\Generated_Source\PSoC4/Clock_2.c **** {
ARM GAS  C:\Users\TOM~1.MCK\AppData\Local\Temp\ccNPH46g.s 			page 5


  93              		.loc 1 135 0
  94              		.cfi_startproc
  95              	.LVL2:
  96 0000 10B5     		push	{r4, lr}
  97              		.cfi_def_cfa_offset 8
  98              		.cfi_offset 4, -8
  99              		.cfi_offset 14, -4
 136:.\Generated_Source\PSoC4/Clock_2.c ****     uint32 maskVal;
 137:.\Generated_Source\PSoC4/Clock_2.c ****     uint32 regVal;
 138:.\Generated_Source\PSoC4/Clock_2.c ****     
 139:.\Generated_Source\PSoC4/Clock_2.c **** #if defined (Clock_2__FRAC_MASK) || defined (CYREG_PERI_DIV_CMD)
 140:.\Generated_Source\PSoC4/Clock_2.c ****     
 141:.\Generated_Source\PSoC4/Clock_2.c **** 	/* get all but divider bits */
 142:.\Generated_Source\PSoC4/Clock_2.c ****     maskVal = Clock_2_DIV_REG & 
 100              		.loc 1 142 0
 101 0002 064A     		ldr	r2, .L10
 102 0004 1368     		ldr	r3, [r2]
 103 0006 0724     		mov	r4, #7
 104 0008 2340     		and	r3, r4
 105              	.LVL3:
 143:.\Generated_Source\PSoC4/Clock_2.c ****                     (uint32)(~(uint32)(Clock_2_DIV_INT_MASK | Clock_2_DIV_FRAC_MASK)); 
 144:.\Generated_Source\PSoC4/Clock_2.c **** 	/* combine mask and new divider vals into 32-bit value */
 145:.\Generated_Source\PSoC4/Clock_2.c ****     regVal = maskVal |
 146:.\Generated_Source\PSoC4/Clock_2.c ****         ((uint32)((uint32)clkDivider <<  Clock_2_DIV_INT_SHIFT) & Clock_2_DIV_INT_MASK) |
 106              		.loc 1 146 0
 107 000a 0002     		lsl	r0, r0, #8
 108              	.LVL4:
 145:.\Generated_Source\PSoC4/Clock_2.c ****         ((uint32)((uint32)clkDivider <<  Clock_2_DIV_INT_SHIFT) & Clock_2_DIV_INT_MASK) |
 109              		.loc 1 145 0
 110 000c 1843     		orr	r0, r3
 147:.\Generated_Source\PSoC4/Clock_2.c ****         ((uint32)((uint32)clkFractional << Clock_2_DIV_FRAC_SHIFT) & Clock_2_DIV_FRAC_MASK);
 111              		.loc 1 147 0
 112 000e CB00     		lsl	r3, r1, #3
 113              	.LVL5:
 114 0010 FF21     		mov	r1, #255
 115              	.LVL6:
 116 0012 1940     		and	r1, r3
 145:.\Generated_Source\PSoC4/Clock_2.c ****         ((uint32)((uint32)clkDivider <<  Clock_2_DIV_INT_SHIFT) & Clock_2_DIV_INT_MASK) |
 117              		.loc 1 145 0
 118 0014 0143     		orr	r1, r0
 119              	.LVL7:
 148:.\Generated_Source\PSoC4/Clock_2.c ****     
 149:.\Generated_Source\PSoC4/Clock_2.c **** #else
 150:.\Generated_Source\PSoC4/Clock_2.c ****     /* get all but integer divider bits */
 151:.\Generated_Source\PSoC4/Clock_2.c ****     maskVal = Clock_2_DIV_REG & (uint32)(~(uint32)Clock_2__DIVIDER_MASK);
 152:.\Generated_Source\PSoC4/Clock_2.c ****     /* combine mask and new divider val into 32-bit value */
 153:.\Generated_Source\PSoC4/Clock_2.c ****     regVal = clkDivider | maskVal;
 154:.\Generated_Source\PSoC4/Clock_2.c ****     
 155:.\Generated_Source\PSoC4/Clock_2.c **** #endif /* Clock_2__FRAC_MASK || CYREG_PERI_DIV_CMD */
 156:.\Generated_Source\PSoC4/Clock_2.c **** 
 157:.\Generated_Source\PSoC4/Clock_2.c ****     Clock_2_DIV_REG = regVal;
 120              		.loc 1 157 0
 121 0016 1160     		str	r1, [r2]
 158:.\Generated_Source\PSoC4/Clock_2.c **** }
 122              		.loc 1 158 0
 123              		@ sp needed
 124 0018 10BD     		pop	{r4, pc}
ARM GAS  C:\Users\TOM~1.MCK\AppData\Local\Temp\ccNPH46g.s 			page 6


 125              	.L11:
 126 001a C046     		.align	2
 127              	.L10:
 128 001c 04030140 		.word	1073808132
 129              		.cfi_endproc
 130              	.LFE2:
 131              		.size	Clock_2_SetFractionalDividerRegister, .-Clock_2_SetFractionalDividerRegister
 132              		.section	.text.Clock_2_GetDividerRegister,"ax",%progbits
 133              		.align	2
 134              		.global	Clock_2_GetDividerRegister
 135              		.code	16
 136              		.thumb_func
 137              		.type	Clock_2_GetDividerRegister, %function
 138              	Clock_2_GetDividerRegister:
 139              	.LFB3:
 159:.\Generated_Source\PSoC4/Clock_2.c **** 
 160:.\Generated_Source\PSoC4/Clock_2.c **** 
 161:.\Generated_Source\PSoC4/Clock_2.c **** /*******************************************************************************
 162:.\Generated_Source\PSoC4/Clock_2.c **** * Function Name: Clock_2_GetDividerRegister
 163:.\Generated_Source\PSoC4/Clock_2.c **** ********************************************************************************
 164:.\Generated_Source\PSoC4/Clock_2.c **** *
 165:.\Generated_Source\PSoC4/Clock_2.c **** * Summary:
 166:.\Generated_Source\PSoC4/Clock_2.c **** *  Gets the clock divider register value.
 167:.\Generated_Source\PSoC4/Clock_2.c **** *
 168:.\Generated_Source\PSoC4/Clock_2.c **** * Parameters:
 169:.\Generated_Source\PSoC4/Clock_2.c **** *  None
 170:.\Generated_Source\PSoC4/Clock_2.c **** *
 171:.\Generated_Source\PSoC4/Clock_2.c **** * Returns:
 172:.\Generated_Source\PSoC4/Clock_2.c **** *  Divide value of the clock minus 1. For example, if the clock is set to
 173:.\Generated_Source\PSoC4/Clock_2.c **** *  divide by 2, the return value will be 1.
 174:.\Generated_Source\PSoC4/Clock_2.c **** *
 175:.\Generated_Source\PSoC4/Clock_2.c **** *******************************************************************************/
 176:.\Generated_Source\PSoC4/Clock_2.c **** uint16 Clock_2_GetDividerRegister(void)
 177:.\Generated_Source\PSoC4/Clock_2.c **** {
 140              		.loc 1 177 0
 141              		.cfi_startproc
 178:.\Generated_Source\PSoC4/Clock_2.c ****     return (uint16)((Clock_2_DIV_REG & Clock_2_DIV_INT_MASK)
 142              		.loc 1 178 0
 143 0000 024B     		ldr	r3, .L13
 144 0002 1868     		ldr	r0, [r3]
 179:.\Generated_Source\PSoC4/Clock_2.c ****         >> Clock_2_DIV_INT_SHIFT);
 145              		.loc 1 179 0
 146 0004 000A     		lsr	r0, r0, #8
 178:.\Generated_Source\PSoC4/Clock_2.c ****     return (uint16)((Clock_2_DIV_REG & Clock_2_DIV_INT_MASK)
 147              		.loc 1 178 0
 148 0006 80B2     		uxth	r0, r0
 180:.\Generated_Source\PSoC4/Clock_2.c **** }
 149              		.loc 1 180 0
 150              		@ sp needed
 151 0008 7047     		bx	lr
 152              	.L14:
 153 000a C046     		.align	2
 154              	.L13:
 155 000c 04030140 		.word	1073808132
 156              		.cfi_endproc
 157              	.LFE3:
 158              		.size	Clock_2_GetDividerRegister, .-Clock_2_GetDividerRegister
ARM GAS  C:\Users\TOM~1.MCK\AppData\Local\Temp\ccNPH46g.s 			page 7


 159              		.section	.text.Clock_2_GetFractionalDividerRegister,"ax",%progbits
 160              		.align	2
 161              		.global	Clock_2_GetFractionalDividerRegister
 162              		.code	16
 163              		.thumb_func
 164              		.type	Clock_2_GetFractionalDividerRegister, %function
 165              	Clock_2_GetFractionalDividerRegister:
 166              	.LFB4:
 181:.\Generated_Source\PSoC4/Clock_2.c **** 
 182:.\Generated_Source\PSoC4/Clock_2.c **** 
 183:.\Generated_Source\PSoC4/Clock_2.c **** /*******************************************************************************
 184:.\Generated_Source\PSoC4/Clock_2.c **** * Function Name: Clock_2_GetFractionalDividerRegister
 185:.\Generated_Source\PSoC4/Clock_2.c **** ********************************************************************************
 186:.\Generated_Source\PSoC4/Clock_2.c **** *
 187:.\Generated_Source\PSoC4/Clock_2.c **** * Summary:
 188:.\Generated_Source\PSoC4/Clock_2.c **** *  Gets the clock fractional divider register value.
 189:.\Generated_Source\PSoC4/Clock_2.c **** *
 190:.\Generated_Source\PSoC4/Clock_2.c **** * Parameters:
 191:.\Generated_Source\PSoC4/Clock_2.c **** *  None
 192:.\Generated_Source\PSoC4/Clock_2.c **** *
 193:.\Generated_Source\PSoC4/Clock_2.c **** * Returns:
 194:.\Generated_Source\PSoC4/Clock_2.c **** *  Fractional Divide value of the clock
 195:.\Generated_Source\PSoC4/Clock_2.c **** *  0 if the fractional divider is not in use.
 196:.\Generated_Source\PSoC4/Clock_2.c **** *
 197:.\Generated_Source\PSoC4/Clock_2.c **** *******************************************************************************/
 198:.\Generated_Source\PSoC4/Clock_2.c **** uint8 Clock_2_GetFractionalDividerRegister(void)
 199:.\Generated_Source\PSoC4/Clock_2.c **** {
 167              		.loc 1 199 0
 168              		.cfi_startproc
 200:.\Generated_Source\PSoC4/Clock_2.c **** #if defined (Clock_2__FRAC_MASK)
 201:.\Generated_Source\PSoC4/Clock_2.c ****     /* return fractional divider bits */
 202:.\Generated_Source\PSoC4/Clock_2.c ****     return (uint8)((Clock_2_DIV_REG & Clock_2_DIV_FRAC_MASK)
 203:.\Generated_Source\PSoC4/Clock_2.c ****         >> Clock_2_DIV_FRAC_SHIFT);
 204:.\Generated_Source\PSoC4/Clock_2.c **** #else
 205:.\Generated_Source\PSoC4/Clock_2.c ****     return 0u;
 206:.\Generated_Source\PSoC4/Clock_2.c **** #endif /* Clock_2__FRAC_MASK */
 207:.\Generated_Source\PSoC4/Clock_2.c **** }
 169              		.loc 1 207 0
 170 0000 0020     		mov	r0, #0
 171              		@ sp needed
 172 0002 7047     		bx	lr
 173              		.cfi_endproc
 174              	.LFE4:
 175              		.size	Clock_2_GetFractionalDividerRegister, .-Clock_2_GetFractionalDividerRegister
 176              		.text
 177              	.Letext0:
 178              		.file 2 "Generated_Source\\PSoC4/cytypes.h"
 179              		.section	.debug_info,"",%progbits
 180              	.Ldebug_info0:
 181 0000 62010000 		.4byte	0x162
 182 0004 0400     		.2byte	0x4
 183 0006 00000000 		.4byte	.Ldebug_abbrev0
 184 000a 04       		.byte	0x4
 185 000b 01       		.uleb128 0x1
 186 000c A0010000 		.4byte	.LASF25
 187 0010 01       		.byte	0x1
 188 0011 2E020000 		.4byte	.LASF26
ARM GAS  C:\Users\TOM~1.MCK\AppData\Local\Temp\ccNPH46g.s 			page 8


 189 0015 03010000 		.4byte	.LASF27
 190 0019 00000000 		.4byte	.Ldebug_ranges0+0
 191 001d 00000000 		.4byte	0
 192 0021 00000000 		.4byte	.Ldebug_line0
 193 0025 02       		.uleb128 0x2
 194 0026 01       		.byte	0x1
 195 0027 06       		.byte	0x6
 196 0028 6A020000 		.4byte	.LASF0
 197 002c 02       		.uleb128 0x2
 198 002d 01       		.byte	0x1
 199 002e 08       		.byte	0x8
 200 002f 46000000 		.4byte	.LASF1
 201 0033 02       		.uleb128 0x2
 202 0034 02       		.byte	0x2
 203 0035 05       		.byte	0x5
 204 0036 51020000 		.4byte	.LASF2
 205 003a 02       		.uleb128 0x2
 206 003b 02       		.byte	0x2
 207 003c 07       		.byte	0x7
 208 003d 66000000 		.4byte	.LASF3
 209 0041 02       		.uleb128 0x2
 210 0042 04       		.byte	0x4
 211 0043 05       		.byte	0x5
 212 0044 61020000 		.4byte	.LASF4
 213 0048 02       		.uleb128 0x2
 214 0049 04       		.byte	0x4
 215 004a 07       		.byte	0x7
 216 004b 54000000 		.4byte	.LASF5
 217 004f 02       		.uleb128 0x2
 218 0050 08       		.byte	0x8
 219 0051 05       		.byte	0x5
 220 0052 8D010000 		.4byte	.LASF6
 221 0056 02       		.uleb128 0x2
 222 0057 08       		.byte	0x8
 223 0058 07       		.byte	0x7
 224 0059 EC000000 		.4byte	.LASF7
 225 005d 03       		.uleb128 0x3
 226 005e 04       		.byte	0x4
 227 005f 05       		.byte	0x5
 228 0060 696E7400 		.ascii	"int\000"
 229 0064 02       		.uleb128 0x2
 230 0065 04       		.byte	0x4
 231 0066 07       		.byte	0x7
 232 0067 BA000000 		.4byte	.LASF8
 233 006b 04       		.uleb128 0x4
 234 006c 5B020000 		.4byte	.LASF9
 235 0070 02       		.byte	0x2
 236 0071 9801     		.2byte	0x198
 237 0073 2C000000 		.4byte	0x2c
 238 0077 04       		.uleb128 0x4
 239 0078 AC000000 		.4byte	.LASF10
 240 007c 02       		.byte	0x2
 241 007d 9901     		.2byte	0x199
 242 007f 3A000000 		.4byte	0x3a
 243 0083 04       		.uleb128 0x4
 244 0084 B3000000 		.4byte	.LASF11
 245 0088 02       		.byte	0x2
ARM GAS  C:\Users\TOM~1.MCK\AppData\Local\Temp\ccNPH46g.s 			page 9


 246 0089 9A01     		.2byte	0x19a
 247 008b 48000000 		.4byte	0x48
 248 008f 02       		.uleb128 0x2
 249 0090 04       		.byte	0x4
 250 0091 04       		.byte	0x4
 251 0092 1B000000 		.4byte	.LASF12
 252 0096 02       		.uleb128 0x2
 253 0097 08       		.byte	0x8
 254 0098 04       		.byte	0x4
 255 0099 84000000 		.4byte	.LASF13
 256 009d 02       		.uleb128 0x2
 257 009e 01       		.byte	0x1
 258 009f 08       		.byte	0x8
 259 00a0 9B010000 		.4byte	.LASF14
 260 00a4 04       		.uleb128 0x4
 261 00a5 0D000000 		.4byte	.LASF15
 262 00a9 02       		.byte	0x2
 263 00aa 4402     		.2byte	0x244
 264 00ac B0000000 		.4byte	0xb0
 265 00b0 05       		.uleb128 0x5
 266 00b1 83000000 		.4byte	0x83
 267 00b5 06       		.uleb128 0x6
 268 00b6 7D010000 		.4byte	.LASF16
 269 00ba 01       		.byte	0x1
 270 00bb 27       		.byte	0x27
 271 00bc 00000000 		.4byte	.LFB0
 272 00c0 1C000000 		.4byte	.LFE0-.LFB0
 273 00c4 01       		.uleb128 0x1
 274 00c5 9C       		.byte	0x9c
 275 00c6 DA000000 		.4byte	0xda
 276 00ca 07       		.uleb128 0x7
 277 00cb 92000000 		.4byte	.LASF18
 278 00cf 01       		.byte	0x1
 279 00d0 27       		.byte	0x27
 280 00d1 83000000 		.4byte	0x83
 281 00d5 00000000 		.4byte	.LLST0
 282 00d9 00       		.byte	0
 283 00da 08       		.uleb128 0x8
 284 00db 00000000 		.4byte	.LASF28
 285 00df 01       		.byte	0x1
 286 00e0 5F       		.byte	0x5f
 287 00e1 00000000 		.4byte	.LFB1
 288 00e5 18000000 		.4byte	.LFE1-.LFB1
 289 00e9 01       		.uleb128 0x1
 290 00ea 9C       		.byte	0x9c
 291 00eb 06       		.uleb128 0x6
 292 00ec C7000000 		.4byte	.LASF17
 293 00f0 01       		.byte	0x1
 294 00f1 86       		.byte	0x86
 295 00f2 00000000 		.4byte	.LFB2
 296 00f6 20000000 		.4byte	.LFE2-.LFB2
 297 00fa 01       		.uleb128 0x1
 298 00fb 9C       		.byte	0x9c
 299 00fc 3B010000 		.4byte	0x13b
 300 0100 07       		.uleb128 0x7
 301 0101 79000000 		.4byte	.LASF19
 302 0105 01       		.byte	0x1
ARM GAS  C:\Users\TOM~1.MCK\AppData\Local\Temp\ccNPH46g.s 			page 10


 303 0106 86       		.byte	0x86
 304 0107 77000000 		.4byte	0x77
 305 010b 21000000 		.4byte	.LLST1
 306 010f 07       		.uleb128 0x7
 307 0110 9E000000 		.4byte	.LASF20
 308 0114 01       		.byte	0x1
 309 0115 86       		.byte	0x86
 310 0116 6B000000 		.4byte	0x6b
 311 011a 42000000 		.4byte	.LLST2
 312 011e 09       		.uleb128 0x9
 313 011f 13000000 		.4byte	.LASF21
 314 0123 01       		.byte	0x1
 315 0124 88       		.byte	0x88
 316 0125 83000000 		.4byte	0x83
 317 0129 63000000 		.4byte	.LLST3
 318 012d 0A       		.uleb128 0xa
 319 012e 8B000000 		.4byte	.LASF22
 320 0132 01       		.byte	0x1
 321 0133 89       		.byte	0x89
 322 0134 83000000 		.4byte	0x83
 323 0138 01       		.uleb128 0x1
 324 0139 51       		.byte	0x51
 325 013a 00       		.byte	0
 326 013b 0B       		.uleb128 0xb
 327 013c 76020000 		.4byte	.LASF23
 328 0140 01       		.byte	0x1
 329 0141 B0       		.byte	0xb0
 330 0142 77000000 		.4byte	0x77
 331 0146 00000000 		.4byte	.LFB3
 332 014a 10000000 		.4byte	.LFE3-.LFB3
 333 014e 01       		.uleb128 0x1
 334 014f 9C       		.byte	0x9c
 335 0150 0B       		.uleb128 0xb
 336 0151 21000000 		.4byte	.LASF24
 337 0155 01       		.byte	0x1
 338 0156 C6       		.byte	0xc6
 339 0157 6B000000 		.4byte	0x6b
 340 015b 00000000 		.4byte	.LFB4
 341 015f 04000000 		.4byte	.LFE4-.LFB4
 342 0163 01       		.uleb128 0x1
 343 0164 9C       		.byte	0x9c
 344 0165 00       		.byte	0
 345              		.section	.debug_abbrev,"",%progbits
 346              	.Ldebug_abbrev0:
 347 0000 01       		.uleb128 0x1
 348 0001 11       		.uleb128 0x11
 349 0002 01       		.byte	0x1
 350 0003 25       		.uleb128 0x25
 351 0004 0E       		.uleb128 0xe
 352 0005 13       		.uleb128 0x13
 353 0006 0B       		.uleb128 0xb
 354 0007 03       		.uleb128 0x3
 355 0008 0E       		.uleb128 0xe
 356 0009 1B       		.uleb128 0x1b
 357 000a 0E       		.uleb128 0xe
 358 000b 55       		.uleb128 0x55
 359 000c 17       		.uleb128 0x17
ARM GAS  C:\Users\TOM~1.MCK\AppData\Local\Temp\ccNPH46g.s 			page 11


 360 000d 11       		.uleb128 0x11
 361 000e 01       		.uleb128 0x1
 362 000f 10       		.uleb128 0x10
 363 0010 17       		.uleb128 0x17
 364 0011 00       		.byte	0
 365 0012 00       		.byte	0
 366 0013 02       		.uleb128 0x2
 367 0014 24       		.uleb128 0x24
 368 0015 00       		.byte	0
 369 0016 0B       		.uleb128 0xb
 370 0017 0B       		.uleb128 0xb
 371 0018 3E       		.uleb128 0x3e
 372 0019 0B       		.uleb128 0xb
 373 001a 03       		.uleb128 0x3
 374 001b 0E       		.uleb128 0xe
 375 001c 00       		.byte	0
 376 001d 00       		.byte	0
 377 001e 03       		.uleb128 0x3
 378 001f 24       		.uleb128 0x24
 379 0020 00       		.byte	0
 380 0021 0B       		.uleb128 0xb
 381 0022 0B       		.uleb128 0xb
 382 0023 3E       		.uleb128 0x3e
 383 0024 0B       		.uleb128 0xb
 384 0025 03       		.uleb128 0x3
 385 0026 08       		.uleb128 0x8
 386 0027 00       		.byte	0
 387 0028 00       		.byte	0
 388 0029 04       		.uleb128 0x4
 389 002a 16       		.uleb128 0x16
 390 002b 00       		.byte	0
 391 002c 03       		.uleb128 0x3
 392 002d 0E       		.uleb128 0xe
 393 002e 3A       		.uleb128 0x3a
 394 002f 0B       		.uleb128 0xb
 395 0030 3B       		.uleb128 0x3b
 396 0031 05       		.uleb128 0x5
 397 0032 49       		.uleb128 0x49
 398 0033 13       		.uleb128 0x13
 399 0034 00       		.byte	0
 400 0035 00       		.byte	0
 401 0036 05       		.uleb128 0x5
 402 0037 35       		.uleb128 0x35
 403 0038 00       		.byte	0
 404 0039 49       		.uleb128 0x49
 405 003a 13       		.uleb128 0x13
 406 003b 00       		.byte	0
 407 003c 00       		.byte	0
 408 003d 06       		.uleb128 0x6
 409 003e 2E       		.uleb128 0x2e
 410 003f 01       		.byte	0x1
 411 0040 3F       		.uleb128 0x3f
 412 0041 19       		.uleb128 0x19
 413 0042 03       		.uleb128 0x3
 414 0043 0E       		.uleb128 0xe
 415 0044 3A       		.uleb128 0x3a
 416 0045 0B       		.uleb128 0xb
ARM GAS  C:\Users\TOM~1.MCK\AppData\Local\Temp\ccNPH46g.s 			page 12


 417 0046 3B       		.uleb128 0x3b
 418 0047 0B       		.uleb128 0xb
 419 0048 27       		.uleb128 0x27
 420 0049 19       		.uleb128 0x19
 421 004a 11       		.uleb128 0x11
 422 004b 01       		.uleb128 0x1
 423 004c 12       		.uleb128 0x12
 424 004d 06       		.uleb128 0x6
 425 004e 40       		.uleb128 0x40
 426 004f 18       		.uleb128 0x18
 427 0050 9742     		.uleb128 0x2117
 428 0052 19       		.uleb128 0x19
 429 0053 01       		.uleb128 0x1
 430 0054 13       		.uleb128 0x13
 431 0055 00       		.byte	0
 432 0056 00       		.byte	0
 433 0057 07       		.uleb128 0x7
 434 0058 05       		.uleb128 0x5
 435 0059 00       		.byte	0
 436 005a 03       		.uleb128 0x3
 437 005b 0E       		.uleb128 0xe
 438 005c 3A       		.uleb128 0x3a
 439 005d 0B       		.uleb128 0xb
 440 005e 3B       		.uleb128 0x3b
 441 005f 0B       		.uleb128 0xb
 442 0060 49       		.uleb128 0x49
 443 0061 13       		.uleb128 0x13
 444 0062 02       		.uleb128 0x2
 445 0063 17       		.uleb128 0x17
 446 0064 00       		.byte	0
 447 0065 00       		.byte	0
 448 0066 08       		.uleb128 0x8
 449 0067 2E       		.uleb128 0x2e
 450 0068 00       		.byte	0
 451 0069 3F       		.uleb128 0x3f
 452 006a 19       		.uleb128 0x19
 453 006b 03       		.uleb128 0x3
 454 006c 0E       		.uleb128 0xe
 455 006d 3A       		.uleb128 0x3a
 456 006e 0B       		.uleb128 0xb
 457 006f 3B       		.uleb128 0x3b
 458 0070 0B       		.uleb128 0xb
 459 0071 27       		.uleb128 0x27
 460 0072 19       		.uleb128 0x19
 461 0073 11       		.uleb128 0x11
 462 0074 01       		.uleb128 0x1
 463 0075 12       		.uleb128 0x12
 464 0076 06       		.uleb128 0x6
 465 0077 40       		.uleb128 0x40
 466 0078 18       		.uleb128 0x18
 467 0079 9742     		.uleb128 0x2117
 468 007b 19       		.uleb128 0x19
 469 007c 00       		.byte	0
 470 007d 00       		.byte	0
 471 007e 09       		.uleb128 0x9
 472 007f 34       		.uleb128 0x34
 473 0080 00       		.byte	0
ARM GAS  C:\Users\TOM~1.MCK\AppData\Local\Temp\ccNPH46g.s 			page 13


 474 0081 03       		.uleb128 0x3
 475 0082 0E       		.uleb128 0xe
 476 0083 3A       		.uleb128 0x3a
 477 0084 0B       		.uleb128 0xb
 478 0085 3B       		.uleb128 0x3b
 479 0086 0B       		.uleb128 0xb
 480 0087 49       		.uleb128 0x49
 481 0088 13       		.uleb128 0x13
 482 0089 02       		.uleb128 0x2
 483 008a 17       		.uleb128 0x17
 484 008b 00       		.byte	0
 485 008c 00       		.byte	0
 486 008d 0A       		.uleb128 0xa
 487 008e 34       		.uleb128 0x34
 488 008f 00       		.byte	0
 489 0090 03       		.uleb128 0x3
 490 0091 0E       		.uleb128 0xe
 491 0092 3A       		.uleb128 0x3a
 492 0093 0B       		.uleb128 0xb
 493 0094 3B       		.uleb128 0x3b
 494 0095 0B       		.uleb128 0xb
 495 0096 49       		.uleb128 0x49
 496 0097 13       		.uleb128 0x13
 497 0098 02       		.uleb128 0x2
 498 0099 18       		.uleb128 0x18
 499 009a 00       		.byte	0
 500 009b 00       		.byte	0
 501 009c 0B       		.uleb128 0xb
 502 009d 2E       		.uleb128 0x2e
 503 009e 00       		.byte	0
 504 009f 3F       		.uleb128 0x3f
 505 00a0 19       		.uleb128 0x19
 506 00a1 03       		.uleb128 0x3
 507 00a2 0E       		.uleb128 0xe
 508 00a3 3A       		.uleb128 0x3a
 509 00a4 0B       		.uleb128 0xb
 510 00a5 3B       		.uleb128 0x3b
 511 00a6 0B       		.uleb128 0xb
 512 00a7 27       		.uleb128 0x27
 513 00a8 19       		.uleb128 0x19
 514 00a9 49       		.uleb128 0x49
 515 00aa 13       		.uleb128 0x13
 516 00ab 11       		.uleb128 0x11
 517 00ac 01       		.uleb128 0x1
 518 00ad 12       		.uleb128 0x12
 519 00ae 06       		.uleb128 0x6
 520 00af 40       		.uleb128 0x40
 521 00b0 18       		.uleb128 0x18
 522 00b1 9742     		.uleb128 0x2117
 523 00b3 19       		.uleb128 0x19
 524 00b4 00       		.byte	0
 525 00b5 00       		.byte	0
 526 00b6 00       		.byte	0
 527              		.section	.debug_loc,"",%progbits
 528              	.Ldebug_loc0:
 529              	.LLST0:
 530 0000 00000000 		.4byte	.LVL0
ARM GAS  C:\Users\TOM~1.MCK\AppData\Local\Temp\ccNPH46g.s 			page 14


 531 0004 0A000000 		.4byte	.LVL1
 532 0008 0100     		.2byte	0x1
 533 000a 50       		.byte	0x50
 534 000b 0A000000 		.4byte	.LVL1
 535 000f 1C000000 		.4byte	.LFE0
 536 0013 0400     		.2byte	0x4
 537 0015 F3       		.byte	0xf3
 538 0016 01       		.uleb128 0x1
 539 0017 50       		.byte	0x50
 540 0018 9F       		.byte	0x9f
 541 0019 00000000 		.4byte	0
 542 001d 00000000 		.4byte	0
 543              	.LLST1:
 544 0021 00000000 		.4byte	.LVL2
 545 0025 0C000000 		.4byte	.LVL4
 546 0029 0100     		.2byte	0x1
 547 002b 50       		.byte	0x50
 548 002c 0C000000 		.4byte	.LVL4
 549 0030 20000000 		.4byte	.LFE2
 550 0034 0400     		.2byte	0x4
 551 0036 F3       		.byte	0xf3
 552 0037 01       		.uleb128 0x1
 553 0038 50       		.byte	0x50
 554 0039 9F       		.byte	0x9f
 555 003a 00000000 		.4byte	0
 556 003e 00000000 		.4byte	0
 557              	.LLST2:
 558 0042 00000000 		.4byte	.LVL2
 559 0046 12000000 		.4byte	.LVL6
 560 004a 0100     		.2byte	0x1
 561 004c 51       		.byte	0x51
 562 004d 12000000 		.4byte	.LVL6
 563 0051 20000000 		.4byte	.LFE2
 564 0055 0400     		.2byte	0x4
 565 0057 F3       		.byte	0xf3
 566 0058 01       		.uleb128 0x1
 567 0059 51       		.byte	0x51
 568 005a 9F       		.byte	0x9f
 569 005b 00000000 		.4byte	0
 570 005f 00000000 		.4byte	0
 571              	.LLST3:
 572 0063 0A000000 		.4byte	.LVL3
 573 0067 10000000 		.4byte	.LVL5
 574 006b 0100     		.2byte	0x1
 575 006d 53       		.byte	0x53
 576 006e 00000000 		.4byte	0
 577 0072 00000000 		.4byte	0
 578              		.section	.debug_aranges,"",%progbits
 579 0000 3C000000 		.4byte	0x3c
 580 0004 0200     		.2byte	0x2
 581 0006 00000000 		.4byte	.Ldebug_info0
 582 000a 04       		.byte	0x4
 583 000b 00       		.byte	0
 584 000c 0000     		.2byte	0
 585 000e 0000     		.2byte	0
 586 0010 00000000 		.4byte	.LFB0
 587 0014 1C000000 		.4byte	.LFE0-.LFB0
ARM GAS  C:\Users\TOM~1.MCK\AppData\Local\Temp\ccNPH46g.s 			page 15


 588 0018 00000000 		.4byte	.LFB1
 589 001c 18000000 		.4byte	.LFE1-.LFB1
 590 0020 00000000 		.4byte	.LFB2
 591 0024 20000000 		.4byte	.LFE2-.LFB2
 592 0028 00000000 		.4byte	.LFB3
 593 002c 10000000 		.4byte	.LFE3-.LFB3
 594 0030 00000000 		.4byte	.LFB4
 595 0034 04000000 		.4byte	.LFE4-.LFB4
 596 0038 00000000 		.4byte	0
 597 003c 00000000 		.4byte	0
 598              		.section	.debug_ranges,"",%progbits
 599              	.Ldebug_ranges0:
 600 0000 00000000 		.4byte	.LFB0
 601 0004 1C000000 		.4byte	.LFE0
 602 0008 00000000 		.4byte	.LFB1
 603 000c 18000000 		.4byte	.LFE1
 604 0010 00000000 		.4byte	.LFB2
 605 0014 20000000 		.4byte	.LFE2
 606 0018 00000000 		.4byte	.LFB3
 607 001c 10000000 		.4byte	.LFE3
 608 0020 00000000 		.4byte	.LFB4
 609 0024 04000000 		.4byte	.LFE4
 610 0028 00000000 		.4byte	0
 611 002c 00000000 		.4byte	0
 612              		.section	.debug_line,"",%progbits
 613              	.Ldebug_line0:
 614 0000 D1000000 		.section	.debug_str,"MS",%progbits,1
 614      02005D00 
 614      00000201 
 614      FB0E0D00 
 614      01010101 
 615              	.LASF28:
 616 0000 436C6F63 		.ascii	"Clock_2_Stop\000"
 616      6B5F325F 
 616      53746F70 
 616      00
 617              	.LASF15:
 618 000d 72656733 		.ascii	"reg32\000"
 618      3200
 619              	.LASF21:
 620 0013 6D61736B 		.ascii	"maskVal\000"
 620      56616C00 
 621              	.LASF12:
 622 001b 666C6F61 		.ascii	"float\000"
 622      7400
 623              	.LASF24:
 624 0021 436C6F63 		.ascii	"Clock_2_GetFractionalDividerRegister\000"
 624      6B5F325F 
 624      47657446 
 624      72616374 
 624      696F6E61 
 625              	.LASF1:
 626 0046 756E7369 		.ascii	"unsigned char\000"
 626      676E6564 
 626      20636861 
 626      7200
 627              	.LASF5:
ARM GAS  C:\Users\TOM~1.MCK\AppData\Local\Temp\ccNPH46g.s 			page 16


 628 0054 6C6F6E67 		.ascii	"long unsigned int\000"
 628      20756E73 
 628      69676E65 
 628      6420696E 
 628      7400
 629              	.LASF3:
 630 0066 73686F72 		.ascii	"short unsigned int\000"
 630      7420756E 
 630      7369676E 
 630      65642069 
 630      6E7400
 631              	.LASF19:
 632 0079 636C6B44 		.ascii	"clkDivider\000"
 632      69766964 
 632      657200
 633              	.LASF13:
 634 0084 646F7562 		.ascii	"double\000"
 634      6C6500
 635              	.LASF22:
 636 008b 72656756 		.ascii	"regVal\000"
 636      616C00
 637              	.LASF18:
 638 0092 616C6967 		.ascii	"alignClkDiv\000"
 638      6E436C6B 
 638      44697600 
 639              	.LASF20:
 640 009e 636C6B46 		.ascii	"clkFractional\000"
 640      72616374 
 640      696F6E61 
 640      6C00
 641              	.LASF10:
 642 00ac 75696E74 		.ascii	"uint16\000"
 642      313600
 643              	.LASF11:
 644 00b3 75696E74 		.ascii	"uint32\000"
 644      333200
 645              	.LASF8:
 646 00ba 756E7369 		.ascii	"unsigned int\000"
 646      676E6564 
 646      20696E74 
 646      00
 647              	.LASF17:
 648 00c7 436C6F63 		.ascii	"Clock_2_SetFractionalDividerRegister\000"
 648      6B5F325F 
 648      53657446 
 648      72616374 
 648      696F6E61 
 649              	.LASF7:
 650 00ec 6C6F6E67 		.ascii	"long long unsigned int\000"
 650      206C6F6E 
 650      6720756E 
 650      7369676E 
 650      65642069 
 651              	.LASF27:
 652 0103 433A5C55 		.ascii	"C:\\Users\\Tom.McKay\\Documents\\PacificAveResearch"
 652      73657273 
 652      5C546F6D 
ARM GAS  C:\Users\TOM~1.MCK\AppData\Local\Temp\ccNPH46g.s 			page 17


 652      2E4D634B 
 652      61795C44 
 653 0132 5C70726F 		.ascii	"\\projects\\fall2016_waffle_prototype\\Psoc4_ble_an"
 653      6A656374 
 653      735C6661 
 653      6C6C3230 
 653      31365F77 
 654 0162 616C6F67 		.ascii	"alog\\PSOC4_Waffle_1b.cydsn\000"
 654      5C50534F 
 654      43345F57 
 654      6166666C 
 654      655F3162 
 655              	.LASF16:
 656 017d 436C6F63 		.ascii	"Clock_2_StartEx\000"
 656      6B5F325F 
 656      53746172 
 656      74457800 
 657              	.LASF6:
 658 018d 6C6F6E67 		.ascii	"long long int\000"
 658      206C6F6E 
 658      6720696E 
 658      7400
 659              	.LASF14:
 660 019b 63686172 		.ascii	"char\000"
 660      00
 661              	.LASF25:
 662 01a0 474E5520 		.ascii	"GNU C 4.9.3 20150303 (release) [ARM/embedded-4_9-br"
 662      4320342E 
 662      392E3320 
 662      32303135 
 662      30333033 
 663 01d3 616E6368 		.ascii	"anch revision 221220] -mcpu=cortex-m0 -mthumb -g -O"
 663      20726576 
 663      6973696F 
 663      6E203232 
 663      31323230 
 664 0206 67202D66 		.ascii	"g -ffunction-sections -ffat-lto-objects\000"
 664      66756E63 
 664      74696F6E 
 664      2D736563 
 664      74696F6E 
 665              	.LASF26:
 666 022e 2E5C4765 		.ascii	".\\Generated_Source\\PSoC4\\Clock_2.c\000"
 666      6E657261 
 666      7465645F 
 666      536F7572 
 666      63655C50 
 667              	.LASF2:
 668 0251 73686F72 		.ascii	"short int\000"
 668      7420696E 
 668      7400
 669              	.LASF9:
 670 025b 75696E74 		.ascii	"uint8\000"
 670      3800
 671              	.LASF4:
 672 0261 6C6F6E67 		.ascii	"long int\000"
 672      20696E74 
ARM GAS  C:\Users\TOM~1.MCK\AppData\Local\Temp\ccNPH46g.s 			page 18


 672      00
 673              	.LASF0:
 674 026a 7369676E 		.ascii	"signed char\000"
 674      65642063 
 674      68617200 
 675              	.LASF23:
 676 0276 436C6F63 		.ascii	"Clock_2_GetDividerRegister\000"
 676      6B5F325F 
 676      47657444 
 676      69766964 
 676      65725265 
 677              		.ident	"GCC: (GNU Tools for ARM Embedded Processors) 4.9.3 20150303 (release) [ARM/embedded-4_9-br
