ARM GAS  C:\Users\TOM~1.MCK\AppData\Local\Temp\ccAQAXh7.s 			page 1


   1              		.cpu cortex-m0
   2              		.fpu softvfp
   3              		.eabi_attribute 20, 1
   4              		.eabi_attribute 21, 1
   5              		.eabi_attribute 23, 3
   6              		.eabi_attribute 24, 1
   7              		.eabi_attribute 25, 1
   8              		.eabi_attribute 26, 1
   9              		.eabi_attribute 30, 1
  10              		.eabi_attribute 34, 0
  11              		.eabi_attribute 18, 4
  12              		.code	16
  13              		.file	"main.c"
  14              		.text
  15              	.Ltext0:
  16              		.cfi_sections	.debug_frame
  17              		.section	.text.main,"ax",%progbits
  18              		.align	2
  19              		.global	main
  20              		.code	16
  21              		.thumb_func
  22              		.type	main, %function
  23              	main:
  24              	.LFB69:
  25              		.file 1 ".\\main.c"
   1:.\main.c      **** /*******************************************************************************
   2:.\main.c      **** * File Name: main.c
   3:.\main.c      **** *
   4:.\main.c      **** * Version:   1.0
   5:.\main.c      **** *
   6:.\main.c      **** * Description:
   7:.\main.c      **** *  direct DMA from ADC to IDAC prototype 
   8:.\main.c      **** *
   9:.\main.c      **** *  
  10:.\main.c      **** *
  11:.\main.c      **** ********************************************************************************
  12:.\main.c      **** * Copyright 2016, Pacific Ave Research, LLC 2016. All rights reserved.
  13:.\main.c      **** * This software is owned by Cypress Semiconductor Corporation and is protected
  14:.\main.c      **** * by and subject to worldwide patent and copyright laws and treaties.
  15:.\main.c      **** * Therefore, you may use this software only as provided in the license agreement
  16:.\main.c      **** * accompanying the software package from which you obtained this software.
  17:.\main.c      **** * CYPRESS AND ITS SUPPLIERS MAKE NO WARRANTY OF ANY KIND, EXPRESS OR IMPLIED,
  18:.\main.c      **** * WITH REGARD TO THIS SOFTWARE, INCLUDING, BUT NOT LIMITED TO, NONINFRINGEMENT,
  19:.\main.c      **** * IMPLIED WARRANTIES OF MERCHANTABILITY AND FITNESS FOR A PARTICULAR PURPOSE.
  20:.\main.c      **** *******************************************************************************/
  21:.\main.c      **** #include <project.h>
  22:.\main.c      **** 
  23:.\main.c      **** /*******************************************************************************
  24:.\main.c      **** *  Helipful data manipulation defines from psoc5 pass thru example
  25:.\main.c      **** *******************************************************************************/
  26:.\main.c      **** 
  27:.\main.c      **** /* Get 8 bits of 16 bit value. */
  28:.\main.c      **** #define LO8(x)                  ((uint8) ((x) & 0xFFu))
  29:.\main.c      **** #define HI8(x)                  ((uint8) ((uint16)(x) >> 8))
  30:.\main.c      **** 
  31:.\main.c      **** /* Get 16 bits of 32 bit value. */
  32:.\main.c      **** #define LO16(x)                 ((uint16) ((x) & 0xFFFFu))
ARM GAS  C:\Users\TOM~1.MCK\AppData\Local\Temp\ccAQAXh7.s 			page 2


  33:.\main.c      **** #define HI16(x)                 ((uint16) ((uint32)(x) >> 16))
  34:.\main.c      **** 
  35:.\main.c      **** 
  36:.\main.c      **** 
  37:.\main.c      **** #define    IDAC_VAL     (0x33u)
  38:.\main.c      **** #define    IDAC_CURRENT (120u)
  39:.\main.c      **** 
  40:.\main.c      **** 
  41:.\main.c      **** 
  42:.\main.c      ****  
  43:.\main.c      **** 
  44:.\main.c      **** /*******************************************************************************
  45:.\main.c      **** *   Function Prototypes
  46:.\main.c      **** *******************************************************************************/
  47:.\main.c      **** 
  48:.\main.c      **** 
  49:.\main.c      **** 
  50:.\main.c      **** /*******************************************************************************
  51:.\main.c      **** *   Global Variables
  52:.\main.c      **** *******************************************************************************/
  53:.\main.c      **** 
  54:.\main.c      **** 
  55:.\main.c      **** 
  56:.\main.c      **** /* ADC measurement status and result */
  57:.\main.c      **** int16   adcSample = 0;
  58:.\main.c      **** int16   adcSampleQpoint = 0;
  59:.\main.c      **** uint8   idacSet = 0x33;
  60:.\main.c      **** int32   newRegisterValue = 0x0;
  61:.\main.c      **** 
  62:.\main.c      ****  const uint8 sinetable[ 32 ] = {     127, 152, 176, 198, 217, 233, 245, 252,
  63:.\main.c      ****                                     254, 252, 245, 233, 217, 198, 176, 152,
  64:.\main.c      ****                                     128, 103,  79,  57,  38,  22,  10,   3,
  65:.\main.c      ****                                       0,   3,  10,  22,  38,  57,  79, 103 };
  66:.\main.c      **** 
  67:.\main.c      **** uint8 sineptr = 0;
  68:.\main.c      **** uint8 freqCount = 0;
  69:.\main.c      **** uint8 modulate = 0;
  70:.\main.c      **** 
  71:.\main.c      **** 
  72:.\main.c      **** /*******************************************************************************
  73:.\main.c      **** * Function Name: main
  74:.\main.c      **** ********************************************************************************
  75:.\main.c      **** *
  76:.\main.c      **** * Summary:
  77:.\main.c      **** *  Sets DMA pointers.
  78:.\main.c      **** *  Starts all the components. 
  79:.\main.c      **** *
  80:.\main.c      **** * Parameters:
  81:.\main.c      **** *  None
  82:.\main.c      **** *
  83:.\main.c      **** * Return:
  84:.\main.c      **** *  None
  85:.\main.c      **** *
  86:.\main.c      **** *******************************************************************************/
  87:.\main.c      **** int main()
  88:.\main.c      **** {
  26              		.loc 1 88 0
ARM GAS  C:\Users\TOM~1.MCK\AppData\Local\Temp\ccAQAXh7.s 			page 3


  27              		.cfi_startproc
  28 0000 10B5     		push	{r4, lr}
  29              		.cfi_def_cfa_offset 8
  30              		.cfi_offset 4, -8
  31              		.cfi_offset 14, -4
  89:.\main.c      ****         /* Start Opamp component */
  90:.\main.c      **** 
  91:.\main.c      **** 
  92:.\main.c      ****   OpampLPFilter_Start();
  32              		.loc 1 92 0
  33 0002 FFF7FEFF 		bl	OpampLPFilter_Start
  34              	.LVL0:
  93:.\main.c      ****   OpampLPFilter_SetPower(OpampLPFilter_HIGH_POWER);
  35              		.loc 1 93 0
  36 0006 0320     		mov	r0, #3
  37 0008 FFF7FEFF 		bl	OpampLPFilter_SetPower
  38              	.LVL1:
  94:.\main.c      **** 
  95:.\main.c      ****     
  96:.\main.c      ****     /* Initialize ADC. Conversion is not enabled yet. */
  97:.\main.c      ****     ADC_Start();
  39              		.loc 1 97 0
  40 000c FFF7FEFF 		bl	ADC_Start
  41              	.LVL2:
  98:.\main.c      ****     
  99:.\main.c      ****     /* Start the IDAC component */
 100:.\main.c      ****     IDAC8_Start();
  42              		.loc 1 100 0
  43 0010 FFF7FEFF 		bl	IDAC8_Start
  44              	.LVL3:
 101:.\main.c      **** 
 102:.\main.c      ****   
 103:.\main.c      ****     /* Configure DMA source and destination locations to transfer from
 104:.\main.c      ****     * ADC data register to memory variable.
 105:.\main.c      ****     */    
 106:.\main.c      ****    
 107:.\main.c      **** 
 108:.\main.c      ****      DMA_Start((void *)ADC_SAR_CHAN0_RESULT_PTR, (void *)&adcSample);
  45              		.loc 1 108 0
  46 0014 154C     		ldr	r4, .L5
  47 0016 1648     		ldr	r0, .L5+4
  48 0018 211C     		mov	r1, r4
  49 001a FFF7FEFF 		bl	DMA_Start
  50              	.LVL4:
 109:.\main.c      **** 
 110:.\main.c      ****     /* Start ADC conversion. */
 111:.\main.c      ****     ADC_StartConvert();
  51              		.loc 1 111 0
  52 001e FFF7FEFF 		bl	ADC_StartConvert
  53              	.LVL5:
 112:.\main.c      ****   
 113:.\main.c      ****     adcSampleQpoint=0x3E;
  54              		.loc 1 113 0
  55 0022 3E23     		mov	r3, #62
  56 0024 6380     		strh	r3, [r4, #2]
  57              	.L3:
 114:.\main.c      ****     
ARM GAS  C:\Users\TOM~1.MCK\AppData\Local\Temp\ccAQAXh7.s 			page 4


 115:.\main.c      ****     for(;;)
 116:.\main.c      ****     {
 117:.\main.c      ****         
 118:.\main.c      ****                 idacSet=0*(adcSample-adcSampleQpoint)*modulate/32+adcSample;
  58              		.loc 1 118 0
  59 0026 1149     		ldr	r1, .L5
  60 0028 0A78     		ldrb	r2, [r1]
  61 002a 124B     		ldr	r3, .L5+8
  62 002c 1A70     		strb	r2, [r3]
 119:.\main.c      ****                 newRegisterValue = ((IDAC8_IDAC_CONTROL_REG & (~(uint32)IDAC8_IDAC_VALUE_MASK)) | i
  63              		.loc 1 119 0
  64 002e 1248     		ldr	r0, .L5+12
  65 0030 0368     		ldr	r3, [r0]
  66 0032 FF24     		mov	r4, #255
  67 0034 A343     		bic	r3, r4
  68 0036 1343     		orr	r3, r2
  69 0038 4B60     		str	r3, [r1, #4]
 120:.\main.c      ****                 IDAC8_IDAC_CONTROL_REG = newRegisterValue;
  70              		.loc 1 120 0
  71 003a 0360     		str	r3, [r0]
 121:.\main.c      ****                 if (freqCount == 32) {
  72              		.loc 1 121 0
  73 003c 0B7A     		ldrb	r3, [r1, #8]
  74 003e 202B     		cmp	r3, #32
  75 0040 08D1     		bne	.L2
 122:.\main.c      ****                 modulate=sinetable[sineptr++];
  76              		.loc 1 122 0
  77 0042 0B1C     		mov	r3, r1
  78 0044 4A7A     		ldrb	r2, [r1, #9]
  79 0046 511C     		add	r1, r2, #1
  80 0048 5972     		strb	r1, [r3, #9]
  81 004a 0C49     		ldr	r1, .L5+16
  82 004c 8A5C     		ldrb	r2, [r1, r2]
  83 004e 9A72     		strb	r2, [r3, #10]
 123:.\main.c      ****                 freqCount=0;
  84              		.loc 1 123 0
  85 0050 0022     		mov	r2, #0
  86 0052 1A72     		strb	r2, [r3, #8]
  87              	.L2:
 124:.\main.c      ****                 }
 125:.\main.c      ****                 
 126:.\main.c      ****                 freqCount++;
  88              		.loc 1 126 0
  89 0054 054B     		ldr	r3, .L5
  90 0056 1A7A     		ldrb	r2, [r3, #8]
  91 0058 0132     		add	r2, r2, #1
  92 005a 1A72     		strb	r2, [r3, #8]
 127:.\main.c      ****                 if ( sineptr == 32 ) sineptr = 0;
  93              		.loc 1 127 0
  94 005c 5B7A     		ldrb	r3, [r3, #9]
  95 005e 202B     		cmp	r3, #32
  96 0060 E1D1     		bne	.L3
  97              		.loc 1 127 0 is_stmt 0 discriminator 1
  98 0062 0022     		mov	r2, #0
  99 0064 014B     		ldr	r3, .L5
 100 0066 5A72     		strb	r2, [r3, #9]
 101 0068 DDE7     		b	.L3
ARM GAS  C:\Users\TOM~1.MCK\AppData\Local\Temp\ccAQAXh7.s 			page 5


 102              	.L6:
 103 006a C046     		.align	2
 104              	.L5:
 105 006c 00000000 		.word	.LANCHOR0
 106 0070 80013A40 		.word	1077543296
 107 0074 00000000 		.word	.LANCHOR1
 108 0078 08002840 		.word	1076363272
 109 007c 00000000 		.word	.LANCHOR2
 110              		.cfi_endproc
 111              	.LFE69:
 112              		.size	main, .-main
 113              		.global	modulate
 114              		.global	freqCount
 115              		.global	sineptr
 116              		.global	sinetable
 117              		.global	newRegisterValue
 118              		.global	idacSet
 119              		.global	adcSampleQpoint
 120              		.global	adcSample
 121              		.section	.rodata
 122              		.align	2
 123              		.set	.LANCHOR2,. + 0
 124              		.type	sinetable, %object
 125              		.size	sinetable, 32
 126              	sinetable:
 127 0000 7F       		.byte	127
 128 0001 98       		.byte	-104
 129 0002 B0       		.byte	-80
 130 0003 C6       		.byte	-58
 131 0004 D9       		.byte	-39
 132 0005 E9       		.byte	-23
 133 0006 F5       		.byte	-11
 134 0007 FC       		.byte	-4
 135 0008 FE       		.byte	-2
 136 0009 FC       		.byte	-4
 137 000a F5       		.byte	-11
 138 000b E9       		.byte	-23
 139 000c D9       		.byte	-39
 140 000d C6       		.byte	-58
 141 000e B0       		.byte	-80
 142 000f 98       		.byte	-104
 143 0010 80       		.byte	-128
 144 0011 67       		.byte	103
 145 0012 4F       		.byte	79
 146 0013 39       		.byte	57
 147 0014 26       		.byte	38
 148 0015 16       		.byte	22
 149 0016 0A       		.byte	10
 150 0017 03       		.byte	3
 151 0018 00       		.byte	0
 152 0019 03       		.byte	3
 153 001a 0A       		.byte	10
 154 001b 16       		.byte	22
 155 001c 26       		.byte	38
 156 001d 39       		.byte	57
 157 001e 4F       		.byte	79
 158 001f 67       		.byte	103
ARM GAS  C:\Users\TOM~1.MCK\AppData\Local\Temp\ccAQAXh7.s 			page 6


 159              		.data
 160              		.set	.LANCHOR1,. + 0
 161              		.type	idacSet, %object
 162              		.size	idacSet, 1
 163              	idacSet:
 164 0000 33       		.byte	51
 165              		.bss
 166              		.align	2
 167              		.set	.LANCHOR0,. + 0
 168              		.type	adcSample, %object
 169              		.size	adcSample, 2
 170              	adcSample:
 171 0000 0000     		.space	2
 172              		.type	adcSampleQpoint, %object
 173              		.size	adcSampleQpoint, 2
 174              	adcSampleQpoint:
 175 0002 0000     		.space	2
 176              		.type	newRegisterValue, %object
 177              		.size	newRegisterValue, 4
 178              	newRegisterValue:
 179 0004 00000000 		.space	4
 180              		.type	freqCount, %object
 181              		.size	freqCount, 1
 182              	freqCount:
 183 0008 00       		.space	1
 184              		.type	sineptr, %object
 185              		.size	sineptr, 1
 186              	sineptr:
 187 0009 00       		.space	1
 188              		.type	modulate, %object
 189              		.size	modulate, 1
 190              	modulate:
 191 000a 00       		.space	1
 192 000b 00       		.text
 193              	.Letext0:
 194              		.file 2 "Generated_Source\\PSoC4/cytypes.h"
 195              		.file 3 "Generated_Source\\PSoC4/OpampLPFilter.h"
 196              		.file 4 "Generated_Source\\PSoC4/ADC.h"
 197              		.file 5 "Generated_Source\\PSoC4/IDAC8.h"
 198              		.file 6 "Generated_Source\\PSoC4/DMA.h"
 199              		.section	.debug_info,"",%progbits
 200              	.Ldebug_info0:
 201 0000 15020000 		.4byte	0x215
 202 0004 0400     		.2byte	0x4
 203 0006 00000000 		.4byte	.Ldebug_abbrev0
 204 000a 04       		.byte	0x4
 205 000b 01       		.uleb128 0x1
 206 000c C9010000 		.4byte	.LASF32
 207 0010 01       		.byte	0x1
 208 0011 99000000 		.4byte	.LASF33
 209 0015 DC000000 		.4byte	.LASF34
 210 0019 00000000 		.4byte	.Ldebug_ranges0+0
 211 001d 00000000 		.4byte	0
 212 0021 00000000 		.4byte	.Ldebug_line0
 213 0025 02       		.uleb128 0x2
 214 0026 01       		.byte	0x1
 215 0027 06       		.byte	0x6
ARM GAS  C:\Users\TOM~1.MCK\AppData\Local\Temp\ccAQAXh7.s 			page 7


 216 0028 70020000 		.4byte	.LASF0
 217 002c 02       		.uleb128 0x2
 218 002d 01       		.byte	0x1
 219 002e 08       		.byte	0x8
 220 002f 51000000 		.4byte	.LASF1
 221 0033 02       		.uleb128 0x2
 222 0034 02       		.byte	0x2
 223 0035 05       		.byte	0x5
 224 0036 57020000 		.4byte	.LASF2
 225 003a 02       		.uleb128 0x2
 226 003b 02       		.byte	0x2
 227 003c 07       		.byte	0x7
 228 003d 38000000 		.4byte	.LASF3
 229 0041 02       		.uleb128 0x2
 230 0042 04       		.byte	0x4
 231 0043 05       		.byte	0x5
 232 0044 67020000 		.4byte	.LASF4
 233 0048 02       		.uleb128 0x2
 234 0049 04       		.byte	0x4
 235 004a 07       		.byte	0x7
 236 004b 65000000 		.4byte	.LASF5
 237 004f 02       		.uleb128 0x2
 238 0050 08       		.byte	0x8
 239 0051 05       		.byte	0x5
 240 0052 00000000 		.4byte	.LASF6
 241 0056 02       		.uleb128 0x2
 242 0057 08       		.byte	0x8
 243 0058 07       		.byte	0x7
 244 0059 54010000 		.4byte	.LASF7
 245 005d 03       		.uleb128 0x3
 246 005e 04       		.byte	0x4
 247 005f 05       		.byte	0x5
 248 0060 696E7400 		.ascii	"int\000"
 249 0064 02       		.uleb128 0x2
 250 0065 04       		.byte	0x4
 251 0066 07       		.byte	0x7
 252 0067 CF000000 		.4byte	.LASF8
 253 006b 04       		.uleb128 0x4
 254 006c 61020000 		.4byte	.LASF9
 255 0070 02       		.byte	0x2
 256 0071 9801     		.2byte	0x198
 257 0073 2C000000 		.4byte	0x2c
 258 0077 04       		.uleb128 0x4
 259 0078 C3000000 		.4byte	.LASF10
 260 007c 02       		.byte	0x2
 261 007d 9A01     		.2byte	0x19a
 262 007f 48000000 		.4byte	0x48
 263 0083 04       		.uleb128 0x4
 264 0084 5F000000 		.4byte	.LASF11
 265 0088 02       		.byte	0x2
 266 0089 9C01     		.2byte	0x19c
 267 008b 33000000 		.4byte	0x33
 268 008f 04       		.uleb128 0x4
 269 0090 77000000 		.4byte	.LASF12
 270 0094 02       		.byte	0x2
 271 0095 9D01     		.2byte	0x19d
 272 0097 41000000 		.4byte	0x41
ARM GAS  C:\Users\TOM~1.MCK\AppData\Local\Temp\ccAQAXh7.s 			page 8


 273 009b 02       		.uleb128 0x2
 274 009c 04       		.byte	0x4
 275 009d 04       		.byte	0x4
 276 009e 4B000000 		.4byte	.LASF13
 277 00a2 02       		.uleb128 0x2
 278 00a3 08       		.byte	0x8
 279 00a4 04       		.byte	0x4
 280 00a5 86000000 		.4byte	.LASF14
 281 00a9 02       		.uleb128 0x2
 282 00aa 01       		.byte	0x1
 283 00ab 08       		.byte	0x8
 284 00ac BA010000 		.4byte	.LASF15
 285 00b0 04       		.uleb128 0x4
 286 00b1 0E000000 		.4byte	.LASF16
 287 00b5 02       		.byte	0x2
 288 00b6 4402     		.2byte	0x244
 289 00b8 BC000000 		.4byte	0xbc
 290 00bc 05       		.uleb128 0x5
 291 00bd 77000000 		.4byte	0x77
 292 00c1 02       		.uleb128 0x2
 293 00c2 04       		.byte	0x4
 294 00c3 07       		.byte	0x7
 295 00c4 A0010000 		.4byte	.LASF17
 296 00c8 06       		.uleb128 0x6
 297 00c9 04       		.byte	0x4
 298 00ca 07       		.uleb128 0x7
 299 00cb CA000000 		.4byte	.LASF35
 300 00cf 01       		.byte	0x1
 301 00d0 57       		.byte	0x57
 302 00d1 5D000000 		.4byte	0x5d
 303 00d5 00000000 		.4byte	.LFB69
 304 00d9 80000000 		.4byte	.LFE69-.LFB69
 305 00dd 01       		.uleb128 0x1
 306 00de 9C       		.byte	0x9c
 307 00df 38010000 		.4byte	0x138
 308 00e3 08       		.uleb128 0x8
 309 00e4 06000000 		.4byte	.LVL0
 310 00e8 D5010000 		.4byte	0x1d5
 311 00ec 09       		.uleb128 0x9
 312 00ed 0C000000 		.4byte	.LVL1
 313 00f1 DC010000 		.4byte	0x1dc
 314 00f5 FF000000 		.4byte	0xff
 315 00f9 0A       		.uleb128 0xa
 316 00fa 01       		.uleb128 0x1
 317 00fb 50       		.byte	0x50
 318 00fc 01       		.uleb128 0x1
 319 00fd 33       		.byte	0x33
 320 00fe 00       		.byte	0
 321 00ff 08       		.uleb128 0x8
 322 0100 10000000 		.4byte	.LVL2
 323 0104 ED010000 		.4byte	0x1ed
 324 0108 08       		.uleb128 0x8
 325 0109 14000000 		.4byte	.LVL3
 326 010d F4010000 		.4byte	0x1f4
 327 0111 09       		.uleb128 0x9
 328 0112 1E000000 		.4byte	.LVL4
 329 0116 FB010000 		.4byte	0x1fb
ARM GAS  C:\Users\TOM~1.MCK\AppData\Local\Temp\ccAQAXh7.s 			page 9


 330 011a 2E010000 		.4byte	0x12e
 331 011e 0A       		.uleb128 0xa
 332 011f 01       		.uleb128 0x1
 333 0120 51       		.byte	0x51
 334 0121 02       		.uleb128 0x2
 335 0122 74       		.byte	0x74
 336 0123 00       		.sleb128 0
 337 0124 0A       		.uleb128 0xa
 338 0125 01       		.uleb128 0x1
 339 0126 50       		.byte	0x50
 340 0127 05       		.uleb128 0x5
 341 0128 0C       		.byte	0xc
 342 0129 80013A40 		.4byte	0x403a0180
 343 012d 00       		.byte	0
 344 012e 08       		.uleb128 0x8
 345 012f 22000000 		.4byte	.LVL5
 346 0133 11020000 		.4byte	0x211
 347 0137 00       		.byte	0
 348 0138 0B       		.uleb128 0xb
 349 0139 B9000000 		.4byte	.LASF18
 350 013d 01       		.byte	0x1
 351 013e 39       		.byte	0x39
 352 013f 83000000 		.4byte	0x83
 353 0143 05       		.uleb128 0x5
 354 0144 03       		.byte	0x3
 355 0145 00000000 		.4byte	adcSample
 356 0149 0B       		.uleb128 0xb
 357 014a 14000000 		.4byte	.LASF19
 358 014e 01       		.byte	0x1
 359 014f 3A       		.byte	0x3a
 360 0150 83000000 		.4byte	0x83
 361 0154 05       		.uleb128 0x5
 362 0155 03       		.byte	0x3
 363 0156 00000000 		.4byte	adcSampleQpoint
 364 015a 0B       		.uleb128 0xb
 365 015b 90010000 		.4byte	.LASF20
 366 015f 01       		.byte	0x1
 367 0160 3B       		.byte	0x3b
 368 0161 6B000000 		.4byte	0x6b
 369 0165 05       		.uleb128 0x5
 370 0166 03       		.byte	0x3
 371 0167 00000000 		.4byte	idacSet
 372 016b 0B       		.uleb128 0xb
 373 016c 7F010000 		.4byte	.LASF21
 374 0170 01       		.byte	0x1
 375 0171 3C       		.byte	0x3c
 376 0172 8F000000 		.4byte	0x8f
 377 0176 05       		.uleb128 0x5
 378 0177 03       		.byte	0x3
 379 0178 00000000 		.4byte	newRegisterValue
 380 017c 0C       		.uleb128 0xc
 381 017d 6B000000 		.4byte	0x6b
 382 0181 8C010000 		.4byte	0x18c
 383 0185 0D       		.uleb128 0xd
 384 0186 C1000000 		.4byte	0xc1
 385 018a 1F       		.byte	0x1f
 386 018b 00       		.byte	0
ARM GAS  C:\Users\TOM~1.MCK\AppData\Local\Temp\ccAQAXh7.s 			page 10


 387 018c 0B       		.uleb128 0xb
 388 018d 75010000 		.4byte	.LASF22
 389 0191 01       		.byte	0x1
 390 0192 3E       		.byte	0x3e
 391 0193 9D010000 		.4byte	0x19d
 392 0197 05       		.uleb128 0x5
 393 0198 03       		.byte	0x3
 394 0199 00000000 		.4byte	sinetable
 395 019d 0E       		.uleb128 0xe
 396 019e 7C010000 		.4byte	0x17c
 397 01a2 0B       		.uleb128 0xb
 398 01a3 98010000 		.4byte	.LASF23
 399 01a7 01       		.byte	0x1
 400 01a8 43       		.byte	0x43
 401 01a9 6B000000 		.4byte	0x6b
 402 01ad 05       		.uleb128 0x5
 403 01ae 03       		.byte	0x3
 404 01af 00000000 		.4byte	sineptr
 405 01b3 0B       		.uleb128 0xb
 406 01b4 BF010000 		.4byte	.LASF24
 407 01b8 01       		.byte	0x1
 408 01b9 44       		.byte	0x44
 409 01ba 6B000000 		.4byte	0x6b
 410 01be 05       		.uleb128 0x5
 411 01bf 03       		.byte	0x3
 412 01c0 00000000 		.4byte	freqCount
 413 01c4 0B       		.uleb128 0xb
 414 01c5 7D000000 		.4byte	.LASF25
 415 01c9 01       		.byte	0x1
 416 01ca 45       		.byte	0x45
 417 01cb 6B000000 		.4byte	0x6b
 418 01cf 05       		.uleb128 0x5
 419 01d0 03       		.byte	0x3
 420 01d1 00000000 		.4byte	modulate
 421 01d5 0F       		.uleb128 0xf
 422 01d6 24000000 		.4byte	.LASF26
 423 01da 03       		.byte	0x3
 424 01db 29       		.byte	0x29
 425 01dc 10       		.uleb128 0x10
 426 01dd A2000000 		.4byte	.LASF29
 427 01e1 03       		.byte	0x3
 428 01e2 2B       		.byte	0x2b
 429 01e3 ED010000 		.4byte	0x1ed
 430 01e7 11       		.uleb128 0x11
 431 01e8 77000000 		.4byte	0x77
 432 01ec 00       		.byte	0
 433 01ed 0F       		.uleb128 0xf
 434 01ee 6B010000 		.4byte	.LASF27
 435 01f2 04       		.byte	0x4
 436 01f3 98       		.byte	0x98
 437 01f4 0F       		.uleb128 0xf
 438 01f5 8D000000 		.4byte	.LASF28
 439 01f9 05       		.byte	0x5
 440 01fa 52       		.byte	0x52
 441 01fb 10       		.uleb128 0x10
 442 01fc 7C020000 		.4byte	.LASF30
 443 0200 06       		.byte	0x6
ARM GAS  C:\Users\TOM~1.MCK\AppData\Local\Temp\ccAQAXh7.s 			page 11


 444 0201 23       		.byte	0x23
 445 0202 11020000 		.4byte	0x211
 446 0206 11       		.uleb128 0x11
 447 0207 C8000000 		.4byte	0xc8
 448 020b 11       		.uleb128 0x11
 449 020c C8000000 		.4byte	0xc8
 450 0210 00       		.byte	0
 451 0211 0F       		.uleb128 0xf
 452 0212 A9010000 		.4byte	.LASF31
 453 0216 04       		.byte	0x4
 454 0217 9C       		.byte	0x9c
 455 0218 00       		.byte	0
 456              		.section	.debug_abbrev,"",%progbits
 457              	.Ldebug_abbrev0:
 458 0000 01       		.uleb128 0x1
 459 0001 11       		.uleb128 0x11
 460 0002 01       		.byte	0x1
 461 0003 25       		.uleb128 0x25
 462 0004 0E       		.uleb128 0xe
 463 0005 13       		.uleb128 0x13
 464 0006 0B       		.uleb128 0xb
 465 0007 03       		.uleb128 0x3
 466 0008 0E       		.uleb128 0xe
 467 0009 1B       		.uleb128 0x1b
 468 000a 0E       		.uleb128 0xe
 469 000b 55       		.uleb128 0x55
 470 000c 17       		.uleb128 0x17
 471 000d 11       		.uleb128 0x11
 472 000e 01       		.uleb128 0x1
 473 000f 10       		.uleb128 0x10
 474 0010 17       		.uleb128 0x17
 475 0011 00       		.byte	0
 476 0012 00       		.byte	0
 477 0013 02       		.uleb128 0x2
 478 0014 24       		.uleb128 0x24
 479 0015 00       		.byte	0
 480 0016 0B       		.uleb128 0xb
 481 0017 0B       		.uleb128 0xb
 482 0018 3E       		.uleb128 0x3e
 483 0019 0B       		.uleb128 0xb
 484 001a 03       		.uleb128 0x3
 485 001b 0E       		.uleb128 0xe
 486 001c 00       		.byte	0
 487 001d 00       		.byte	0
 488 001e 03       		.uleb128 0x3
 489 001f 24       		.uleb128 0x24
 490 0020 00       		.byte	0
 491 0021 0B       		.uleb128 0xb
 492 0022 0B       		.uleb128 0xb
 493 0023 3E       		.uleb128 0x3e
 494 0024 0B       		.uleb128 0xb
 495 0025 03       		.uleb128 0x3
 496 0026 08       		.uleb128 0x8
 497 0027 00       		.byte	0
 498 0028 00       		.byte	0
 499 0029 04       		.uleb128 0x4
 500 002a 16       		.uleb128 0x16
ARM GAS  C:\Users\TOM~1.MCK\AppData\Local\Temp\ccAQAXh7.s 			page 12


 501 002b 00       		.byte	0
 502 002c 03       		.uleb128 0x3
 503 002d 0E       		.uleb128 0xe
 504 002e 3A       		.uleb128 0x3a
 505 002f 0B       		.uleb128 0xb
 506 0030 3B       		.uleb128 0x3b
 507 0031 05       		.uleb128 0x5
 508 0032 49       		.uleb128 0x49
 509 0033 13       		.uleb128 0x13
 510 0034 00       		.byte	0
 511 0035 00       		.byte	0
 512 0036 05       		.uleb128 0x5
 513 0037 35       		.uleb128 0x35
 514 0038 00       		.byte	0
 515 0039 49       		.uleb128 0x49
 516 003a 13       		.uleb128 0x13
 517 003b 00       		.byte	0
 518 003c 00       		.byte	0
 519 003d 06       		.uleb128 0x6
 520 003e 0F       		.uleb128 0xf
 521 003f 00       		.byte	0
 522 0040 0B       		.uleb128 0xb
 523 0041 0B       		.uleb128 0xb
 524 0042 00       		.byte	0
 525 0043 00       		.byte	0
 526 0044 07       		.uleb128 0x7
 527 0045 2E       		.uleb128 0x2e
 528 0046 01       		.byte	0x1
 529 0047 3F       		.uleb128 0x3f
 530 0048 19       		.uleb128 0x19
 531 0049 03       		.uleb128 0x3
 532 004a 0E       		.uleb128 0xe
 533 004b 3A       		.uleb128 0x3a
 534 004c 0B       		.uleb128 0xb
 535 004d 3B       		.uleb128 0x3b
 536 004e 0B       		.uleb128 0xb
 537 004f 49       		.uleb128 0x49
 538 0050 13       		.uleb128 0x13
 539 0051 11       		.uleb128 0x11
 540 0052 01       		.uleb128 0x1
 541 0053 12       		.uleb128 0x12
 542 0054 06       		.uleb128 0x6
 543 0055 40       		.uleb128 0x40
 544 0056 18       		.uleb128 0x18
 545 0057 9742     		.uleb128 0x2117
 546 0059 19       		.uleb128 0x19
 547 005a 01       		.uleb128 0x1
 548 005b 13       		.uleb128 0x13
 549 005c 00       		.byte	0
 550 005d 00       		.byte	0
 551 005e 08       		.uleb128 0x8
 552 005f 898201   		.uleb128 0x4109
 553 0062 00       		.byte	0
 554 0063 11       		.uleb128 0x11
 555 0064 01       		.uleb128 0x1
 556 0065 31       		.uleb128 0x31
 557 0066 13       		.uleb128 0x13
ARM GAS  C:\Users\TOM~1.MCK\AppData\Local\Temp\ccAQAXh7.s 			page 13


 558 0067 00       		.byte	0
 559 0068 00       		.byte	0
 560 0069 09       		.uleb128 0x9
 561 006a 898201   		.uleb128 0x4109
 562 006d 01       		.byte	0x1
 563 006e 11       		.uleb128 0x11
 564 006f 01       		.uleb128 0x1
 565 0070 31       		.uleb128 0x31
 566 0071 13       		.uleb128 0x13
 567 0072 01       		.uleb128 0x1
 568 0073 13       		.uleb128 0x13
 569 0074 00       		.byte	0
 570 0075 00       		.byte	0
 571 0076 0A       		.uleb128 0xa
 572 0077 8A8201   		.uleb128 0x410a
 573 007a 00       		.byte	0
 574 007b 02       		.uleb128 0x2
 575 007c 18       		.uleb128 0x18
 576 007d 9142     		.uleb128 0x2111
 577 007f 18       		.uleb128 0x18
 578 0080 00       		.byte	0
 579 0081 00       		.byte	0
 580 0082 0B       		.uleb128 0xb
 581 0083 34       		.uleb128 0x34
 582 0084 00       		.byte	0
 583 0085 03       		.uleb128 0x3
 584 0086 0E       		.uleb128 0xe
 585 0087 3A       		.uleb128 0x3a
 586 0088 0B       		.uleb128 0xb
 587 0089 3B       		.uleb128 0x3b
 588 008a 0B       		.uleb128 0xb
 589 008b 49       		.uleb128 0x49
 590 008c 13       		.uleb128 0x13
 591 008d 3F       		.uleb128 0x3f
 592 008e 19       		.uleb128 0x19
 593 008f 02       		.uleb128 0x2
 594 0090 18       		.uleb128 0x18
 595 0091 00       		.byte	0
 596 0092 00       		.byte	0
 597 0093 0C       		.uleb128 0xc
 598 0094 01       		.uleb128 0x1
 599 0095 01       		.byte	0x1
 600 0096 49       		.uleb128 0x49
 601 0097 13       		.uleb128 0x13
 602 0098 01       		.uleb128 0x1
 603 0099 13       		.uleb128 0x13
 604 009a 00       		.byte	0
 605 009b 00       		.byte	0
 606 009c 0D       		.uleb128 0xd
 607 009d 21       		.uleb128 0x21
 608 009e 00       		.byte	0
 609 009f 49       		.uleb128 0x49
 610 00a0 13       		.uleb128 0x13
 611 00a1 2F       		.uleb128 0x2f
 612 00a2 0B       		.uleb128 0xb
 613 00a3 00       		.byte	0
 614 00a4 00       		.byte	0
ARM GAS  C:\Users\TOM~1.MCK\AppData\Local\Temp\ccAQAXh7.s 			page 14


 615 00a5 0E       		.uleb128 0xe
 616 00a6 26       		.uleb128 0x26
 617 00a7 00       		.byte	0
 618 00a8 49       		.uleb128 0x49
 619 00a9 13       		.uleb128 0x13
 620 00aa 00       		.byte	0
 621 00ab 00       		.byte	0
 622 00ac 0F       		.uleb128 0xf
 623 00ad 2E       		.uleb128 0x2e
 624 00ae 00       		.byte	0
 625 00af 3F       		.uleb128 0x3f
 626 00b0 19       		.uleb128 0x19
 627 00b1 03       		.uleb128 0x3
 628 00b2 0E       		.uleb128 0xe
 629 00b3 3A       		.uleb128 0x3a
 630 00b4 0B       		.uleb128 0xb
 631 00b5 3B       		.uleb128 0x3b
 632 00b6 0B       		.uleb128 0xb
 633 00b7 27       		.uleb128 0x27
 634 00b8 19       		.uleb128 0x19
 635 00b9 3C       		.uleb128 0x3c
 636 00ba 19       		.uleb128 0x19
 637 00bb 00       		.byte	0
 638 00bc 00       		.byte	0
 639 00bd 10       		.uleb128 0x10
 640 00be 2E       		.uleb128 0x2e
 641 00bf 01       		.byte	0x1
 642 00c0 3F       		.uleb128 0x3f
 643 00c1 19       		.uleb128 0x19
 644 00c2 03       		.uleb128 0x3
 645 00c3 0E       		.uleb128 0xe
 646 00c4 3A       		.uleb128 0x3a
 647 00c5 0B       		.uleb128 0xb
 648 00c6 3B       		.uleb128 0x3b
 649 00c7 0B       		.uleb128 0xb
 650 00c8 27       		.uleb128 0x27
 651 00c9 19       		.uleb128 0x19
 652 00ca 3C       		.uleb128 0x3c
 653 00cb 19       		.uleb128 0x19
 654 00cc 01       		.uleb128 0x1
 655 00cd 13       		.uleb128 0x13
 656 00ce 00       		.byte	0
 657 00cf 00       		.byte	0
 658 00d0 11       		.uleb128 0x11
 659 00d1 05       		.uleb128 0x5
 660 00d2 00       		.byte	0
 661 00d3 49       		.uleb128 0x49
 662 00d4 13       		.uleb128 0x13
 663 00d5 00       		.byte	0
 664 00d6 00       		.byte	0
 665 00d7 00       		.byte	0
 666              		.section	.debug_aranges,"",%progbits
 667 0000 1C000000 		.4byte	0x1c
 668 0004 0200     		.2byte	0x2
 669 0006 00000000 		.4byte	.Ldebug_info0
 670 000a 04       		.byte	0x4
 671 000b 00       		.byte	0
ARM GAS  C:\Users\TOM~1.MCK\AppData\Local\Temp\ccAQAXh7.s 			page 15


 672 000c 0000     		.2byte	0
 673 000e 0000     		.2byte	0
 674 0010 00000000 		.4byte	.LFB69
 675 0014 80000000 		.4byte	.LFE69-.LFB69
 676 0018 00000000 		.4byte	0
 677 001c 00000000 		.4byte	0
 678              		.section	.debug_ranges,"",%progbits
 679              	.Ldebug_ranges0:
 680 0000 00000000 		.4byte	.LFB69
 681 0004 80000000 		.4byte	.LFE69
 682 0008 00000000 		.4byte	0
 683 000c 00000000 		.4byte	0
 684              		.section	.debug_line,"",%progbits
 685              	.Ldebug_line0:
 686 0000 9E000000 		.section	.debug_str,"MS",%progbits,1
 686      02007300 
 686      00000201 
 686      FB0E0D00 
 686      01010101 
 687              	.LASF6:
 688 0000 6C6F6E67 		.ascii	"long long int\000"
 688      206C6F6E 
 688      6720696E 
 688      7400
 689              	.LASF16:
 690 000e 72656733 		.ascii	"reg32\000"
 690      3200
 691              	.LASF19:
 692 0014 61646353 		.ascii	"adcSampleQpoint\000"
 692      616D706C 
 692      6551706F 
 692      696E7400 
 693              	.LASF26:
 694 0024 4F70616D 		.ascii	"OpampLPFilter_Start\000"
 694      704C5046 
 694      696C7465 
 694      725F5374 
 694      61727400 
 695              	.LASF3:
 696 0038 73686F72 		.ascii	"short unsigned int\000"
 696      7420756E 
 696      7369676E 
 696      65642069 
 696      6E7400
 697              	.LASF13:
 698 004b 666C6F61 		.ascii	"float\000"
 698      7400
 699              	.LASF1:
 700 0051 756E7369 		.ascii	"unsigned char\000"
 700      676E6564 
 700      20636861 
 700      7200
 701              	.LASF11:
 702 005f 696E7431 		.ascii	"int16\000"
 702      3600
 703              	.LASF5:
 704 0065 6C6F6E67 		.ascii	"long unsigned int\000"
ARM GAS  C:\Users\TOM~1.MCK\AppData\Local\Temp\ccAQAXh7.s 			page 16


 704      20756E73 
 704      69676E65 
 704      6420696E 
 704      7400
 705              	.LASF12:
 706 0077 696E7433 		.ascii	"int32\000"
 706      3200
 707              	.LASF25:
 708 007d 6D6F6475 		.ascii	"modulate\000"
 708      6C617465 
 708      00
 709              	.LASF14:
 710 0086 646F7562 		.ascii	"double\000"
 710      6C6500
 711              	.LASF28:
 712 008d 49444143 		.ascii	"IDAC8_Start\000"
 712      385F5374 
 712      61727400 
 713              	.LASF33:
 714 0099 2E5C6D61 		.ascii	".\\main.c\000"
 714      696E2E63 
 714      00
 715              	.LASF29:
 716 00a2 4F70616D 		.ascii	"OpampLPFilter_SetPower\000"
 716      704C5046 
 716      696C7465 
 716      725F5365 
 716      74506F77 
 717              	.LASF18:
 718 00b9 61646353 		.ascii	"adcSample\000"
 718      616D706C 
 718      6500
 719              	.LASF10:
 720 00c3 75696E74 		.ascii	"uint32\000"
 720      333200
 721              	.LASF35:
 722 00ca 6D61696E 		.ascii	"main\000"
 722      00
 723              	.LASF8:
 724 00cf 756E7369 		.ascii	"unsigned int\000"
 724      676E6564 
 724      20696E74 
 724      00
 725              	.LASF34:
 726 00dc 433A5C55 		.ascii	"C:\\Users\\Tom.McKay\\Documents\\bitbucket_reposito"
 726      73657273 
 726      5C546F6D 
 726      2E4D634B 
 726      61795C44 
 727 010b 72795C74 		.ascii	"ry\\test_project\\stickdrum_fn_proto\\DMA_ADC_PSoC4"
 727      6573745F 
 727      70726F6A 
 727      6563745C 
 727      73746963 
 728 013b 30315C50 		.ascii	"01\\PSOC4_Waffle_1b.cydsn\000"
 728      534F4334 
 728      5F576166 
ARM GAS  C:\Users\TOM~1.MCK\AppData\Local\Temp\ccAQAXh7.s 			page 17


 728      666C655F 
 728      31622E63 
 729              	.LASF7:
 730 0154 6C6F6E67 		.ascii	"long long unsigned int\000"
 730      206C6F6E 
 730      6720756E 
 730      7369676E 
 730      65642069 
 731              	.LASF27:
 732 016b 4144435F 		.ascii	"ADC_Start\000"
 732      53746172 
 732      7400
 733              	.LASF22:
 734 0175 73696E65 		.ascii	"sinetable\000"
 734      7461626C 
 734      6500
 735              	.LASF21:
 736 017f 6E657752 		.ascii	"newRegisterValue\000"
 736      65676973 
 736      74657256 
 736      616C7565 
 736      00
 737              	.LASF20:
 738 0190 69646163 		.ascii	"idacSet\000"
 738      53657400 
 739              	.LASF23:
 740 0198 73696E65 		.ascii	"sineptr\000"
 740      70747200 
 741              	.LASF17:
 742 01a0 73697A65 		.ascii	"sizetype\000"
 742      74797065 
 742      00
 743              	.LASF31:
 744 01a9 4144435F 		.ascii	"ADC_StartConvert\000"
 744      53746172 
 744      74436F6E 
 744      76657274 
 744      00
 745              	.LASF15:
 746 01ba 63686172 		.ascii	"char\000"
 746      00
 747              	.LASF24:
 748 01bf 66726571 		.ascii	"freqCount\000"
 748      436F756E 
 748      7400
 749              	.LASF32:
 750 01c9 474E5520 		.ascii	"GNU C 4.9.3 20150303 (release) [ARM/embedded-4_9-br"
 750      4320342E 
 750      392E3320 
 750      32303135 
 750      30333033 
 751 01fc 616E6368 		.ascii	"anch revision 221220] -mcpu=cortex-m0 -mthumb -g -O"
 751      20726576 
 751      6973696F 
 751      6E203232 
 751      31323230 
 752 022f 67202D66 		.ascii	"g -ffunction-sections -ffat-lto-objects\000"
ARM GAS  C:\Users\TOM~1.MCK\AppData\Local\Temp\ccAQAXh7.s 			page 18


 752      66756E63 
 752      74696F6E 
 752      2D736563 
 752      74696F6E 
 753              	.LASF2:
 754 0257 73686F72 		.ascii	"short int\000"
 754      7420696E 
 754      7400
 755              	.LASF9:
 756 0261 75696E74 		.ascii	"uint8\000"
 756      3800
 757              	.LASF4:
 758 0267 6C6F6E67 		.ascii	"long int\000"
 758      20696E74 
 758      00
 759              	.LASF0:
 760 0270 7369676E 		.ascii	"signed char\000"
 760      65642063 
 760      68617200 
 761              	.LASF30:
 762 027c 444D415F 		.ascii	"DMA_Start\000"
 762      53746172 
 762      7400
 763              		.ident	"GCC: (GNU Tools for ARM Embedded Processors) 4.9.3 20150303 (release) [ARM/embedded-4_9-br
