ARM GAS  C:\Users\TOM~1.MCK\AppData\Local\Temp\ccudFFGk.s 			page 1


   1              		.cpu cortex-m0
   2              		.fpu softvfp
   3              		.eabi_attribute 20, 1
   4              		.eabi_attribute 21, 1
   5              		.eabi_attribute 23, 3
   6              		.eabi_attribute 24, 1
   7              		.eabi_attribute 25, 1
   8              		.eabi_attribute 26, 1
   9              		.eabi_attribute 30, 1
  10              		.eabi_attribute 34, 0
  11              		.eabi_attribute 18, 4
  12              		.code	16
  13              		.file	"main.c"
  14              		.text
  15              	.Ltext0:
  16              		.cfi_sections	.debug_frame
  17              		.section	.text.main,"ax",%progbits
  18              		.align	2
  19              		.global	main
  20              		.code	16
  21              		.thumb_func
  22              		.type	main, %function
  23              	main:
  24              	.LFB165:
  25              		.file 1 ".\\main.c"
   1:.\main.c      **** /*******************************************************************************
   2:.\main.c      **** * File Name: main.c
   3:.\main.c      **** *
   4:.\main.c      **** * Version:   1.0
   5:.\main.c      **** *
   6:.\main.c      **** * Description:
   7:.\main.c      **** *  This example shows how to use the DMA to transfer data from a RAM array to
   8:.\main.c      **** *  the SPI TX buffer, and shows how to use the DMA to transfer data from the SPI
   9:.\main.c      **** *  RX buffer to a RAM array.
  10:.\main.c      **** *
  11:.\main.c      **** ********************************************************************************
  12:.\main.c      **** * Copyright 2015, Cypress Semiconductor Corporation. All rights reserved.
  13:.\main.c      **** * This software is owned by Cypress Semiconductor Corporation and is protected
  14:.\main.c      **** * by and subject to worldwide patent and copyright laws and treaties.
  15:.\main.c      **** * Therefore, you may use this software only as provided in the license agreement
  16:.\main.c      **** * accompanying the software package from which you obtained this software.
  17:.\main.c      **** * CYPRESS AND ITS SUPPLIERS MAKE NO WARRANTY OF ANY KIND, EXPRESS OR IMPLIED,
  18:.\main.c      **** * WITH REGARD TO THIS SOFTWARE, INCLUDING, BUT NOT LIMITED TO, NONINFRINGEMENT,
  19:.\main.c      **** * IMPLIED WARRANTIES OF MERCHANTABILITY AND FITNESS FOR A PARTICULAR PURPOSE.
  20:.\main.c      **** *******************************************************************************/
  21:.\main.c      **** 
  22:.\main.c      **** #include <project.h>
  23:.\main.c      **** #include <string.h>
  24:.\main.c      **** 
  25:.\main.c      **** #define     DESCR0              0
  26:.\main.c      **** #define     DESCR1              1
  27:.\main.c      **** #define     BUFFER_SIZE        32
  28:.\main.c      **** 
  29:.\main.c      **** /* LED control defines. LED is active low. */
  30:.\main.c      **** #define     LED_ON              0
  31:.\main.c      **** #define     LED_OFF             1
  32:.\main.c      **** 
ARM GAS  C:\Users\TOM~1.MCK\AppData\Local\Temp\ccudFFGk.s 			page 2


  33:.\main.c      **** /* Data buffers */
  34:.\main.c      **** static const int8 CYCODE masterTxBuffer[BUFFER_SIZE] = {"Data to transmit by SPI Master !"};
  35:.\main.c      **** static int8 masterRxBuffer[BUFFER_SIZE] = {0};
  36:.\main.c      **** 
  37:.\main.c      **** static const int8 CYCODE slaveTxBuffer[BUFFER_SIZE]  = {"Data to return by SPI Slave !!!!"};
  38:.\main.c      **** static int8 slaveRxBuffer[BUFFER_SIZE] = {0};
  39:.\main.c      **** 
  40:.\main.c      **** 
  41:.\main.c      **** /*******************************************************************************
  42:.\main.c      **** * Function Name: main
  43:.\main.c      **** ********************************************************************************
  44:.\main.c      **** *
  45:.\main.c      **** * Summary:
  46:.\main.c      **** *  This function starts the SPI communication, configures and starts DMA
  47:.\main.c      **** *  transfers. Once data exchange completes, checks the content of sent and
  48:.\main.c      **** *  received data.
  49:.\main.c      **** *
  50:.\main.c      **** * Parameters:
  51:.\main.c      **** *  None
  52:.\main.c      **** *
  53:.\main.c      **** * Return:
  54:.\main.c      **** *  None
  55:.\main.c      **** *
  56:.\main.c      **** *******************************************************************************/
  57:.\main.c      **** int main()
  58:.\main.c      **** {
  26              		.loc 1 58 0
  27              		.cfi_startproc
  28 0000 10B5     		push	{r4, lr}
  29              		.cfi_def_cfa_offset 8
  30              		.cfi_offset 4, -8
  31              		.cfi_offset 14, -4
  59:.\main.c      ****     /* Start TxDmaS to fill SPIS transmit FIFO in preparation for a data
  60:.\main.c      ****     * transfer. Other DMA channels are disabled.
  61:.\main.c      ****     */
  62:.\main.c      ****     TxDmaS_Start((void *)slaveTxBuffer, (void *)SPIS_TXDATA_PTR);
  32              		.loc 1 62 0
  33 0002 3048     		ldr	r0, .L9
  34 0004 3049     		ldr	r1, .L9+4
  35 0006 FFF7FEFF 		bl	TxDmaS_Start
  36              	.LVL0:
  63:.\main.c      ****     
  64:.\main.c      ****     /* Start SPI communication. */
  65:.\main.c      ****     SPIS_Start();
  37              		.loc 1 65 0
  38 000a FFF7FEFF 		bl	SPIS_Start
  39              	.LVL1:
  66:.\main.c      ****     SPIM_Start();
  40              		.loc 1 66 0
  41 000e FFF7FEFF 		bl	SPIM_Start
  42              	.LVL2:
  67:.\main.c      **** 
  68:.\main.c      ****     /* When configured in CPHA=0 mode, the SPI slave sends the very first byte
  69:.\main.c      ****     * from the internal shift register and then loads the next data bytes from
  70:.\main.c      ****     * transmit FIFO. Therefore, the first byte should either be written directly
  71:.\main.c      ****     * into the shift register or discarded by SPI master.
  72:.\main.c      ****     * Send a dummy byte not using a DMA. This byte will be discarded.
ARM GAS  C:\Users\TOM~1.MCK\AppData\Local\Temp\ccudFFGk.s 			page 3


  73:.\main.c      ****     */
  74:.\main.c      ****     SPIM_SpiUartWriteTxData(0u);
  43              		.loc 1 74 0
  44 0012 0020     		mov	r0, #0
  45 0014 FFF7FEFF 		bl	SPIM_SpiUartWriteTxData
  46              	.LVL3:
  47              	.L2:
  75:.\main.c      **** 
  76:.\main.c      ****     while(0u == SPIM_SpiUartGetRxBufferSize())
  48              		.loc 1 76 0 discriminator 1
  49 0018 FFF7FEFF 		bl	SPIM_SpiUartGetRxBufferSize
  50              	.LVL4:
  51 001c 0028     		cmp	r0, #0
  52 001e FBD0     		beq	.L2
  77:.\main.c      ****     {
  78:.\main.c      ****         /* Wait for the first byte exchange. */
  79:.\main.c      ****     }
  80:.\main.c      **** 
  81:.\main.c      ****     /* The first received byte is discarded. Clear data buffers. */
  82:.\main.c      ****     SPIM_SpiUartClearRxBuffer();
  53              		.loc 1 82 0
  54 0020 FFF7FEFF 		bl	SPIM_SpiUartClearRxBuffer
  55              	.LVL5:
  83:.\main.c      ****     SPIS_ClearRxBuffer();
  56              		.loc 1 83 0
  57 0024 FFF7FEFF 		bl	SPIS_ClearRxBuffer
  58              	.LVL6:
  84:.\main.c      **** 
  85:.\main.c      ****     /* Start other DMA channels to begin data transfer. */
  86:.\main.c      ****     RxDmaM_Start((void *)SPIM_RX_FIFO_RD_PTR, (void *)masterRxBuffer);
  59              		.loc 1 86 0
  60 0028 284C     		ldr	r4, .L9+8
  61 002a 2948     		ldr	r0, .L9+12
  62 002c 211C     		mov	r1, r4
  63 002e FFF7FEFF 		bl	RxDmaM_Start
  64              	.LVL7:
  87:.\main.c      ****     RxDmaS_Start((void *)SPIS_RXDATA_PTR, (void *)slaveRxBuffer);
  65              		.loc 1 87 0
  66 0032 211C     		mov	r1, r4
  67 0034 2031     		add	r1, r1, #32
  68 0036 2748     		ldr	r0, .L9+16
  69 0038 FFF7FEFF 		bl	RxDmaS_Start
  70              	.LVL8:
  88:.\main.c      ****     TxDmaM_Start((void *)masterTxBuffer, (void *)SPIM_TX_FIFO_WR_PTR);
  71              		.loc 1 88 0
  72 003c 2148     		ldr	r0, .L9
  73 003e 2030     		add	r0, r0, #32
  74 0040 2549     		ldr	r1, .L9+20
  75 0042 FFF7FEFF 		bl	TxDmaM_Start
  76              	.LVL9:
  77              	.L3:
  89:.\main.c      **** 
  90:.\main.c      ****     for(;;)
  91:.\main.c      ****     {
  92:.\main.c      ****         /* Check whether data exchange has been finished. RxDmaM and RxDmaS are 
  93:.\main.c      ****         * configured to set an interrupt when they finish transferring all data
  94:.\main.c      ****         * elements.
ARM GAS  C:\Users\TOM~1.MCK\AppData\Local\Temp\ccudFFGk.s 			page 4


  95:.\main.c      ****         */
  96:.\main.c      ****         if(0u == (CyDmaGetInterruptSourceMasked() ^ (RxDmaM_CHANNEL_MASK | RxDmaS_CHANNEL_MASK)))
  78              		.loc 1 96 0
  79 0046 FFF7FEFF 		bl	CyDmaGetInterruptSourceMasked
  80              	.LVL10:
  81 004a 0A28     		cmp	r0, #10
  82 004c FBD1     		bne	.L3
  97:.\main.c      ****         {
  98:.\main.c      ****             /* Once asserted, interrupt bits remain high until cleared. */
  99:.\main.c      ****             CyDmaClearInterruptSource(RxDmaM_CHANNEL_MASK | RxDmaS_CHANNEL_MASK);
  83              		.loc 1 99 0
  84 004e FFF7FEFF 		bl	CyDmaClearInterruptSource
  85              	.LVL11:
 100:.\main.c      **** 
 101:.\main.c      ****             /* Clear previous transfer complete status. */
 102:.\main.c      ****             SUCCESS_Write(LED_OFF);
  86              		.loc 1 102 0
  87 0052 0120     		mov	r0, #1
  88 0054 FFF7FEFF 		bl	SUCCESS_Write
  89              	.LVL12:
 103:.\main.c      **** 
 104:.\main.c      ****             /* Compare content of receive and transmit buffers to check if
 105:.\main.c      ****             * transfer has been successfully finished.
 106:.\main.c      ****             */
 107:.\main.c      ****             if(0 != memcmp((const void *) masterRxBuffer, (const void *) slaveTxBuffer, BUFFER_SIZE
  90              		.loc 1 107 0
  91 0058 1C48     		ldr	r0, .L9+8
  92 005a 1A49     		ldr	r1, .L9
  93 005c 2022     		mov	r2, #32
  94 005e FFF7FEFF 		bl	memcmp
  95              	.LVL13:
  96 0062 0028     		cmp	r0, #0
  97 0064 03D0     		beq	.L4
 108:.\main.c      ****             {
 109:.\main.c      ****                 /* Transfer finished with errors - Turn red LED on to indicate error. */
 110:.\main.c      ****                 ERROR_Write(LED_ON);
  98              		.loc 1 110 0
  99 0066 0020     		mov	r0, #0
 100 0068 FFF7FEFF 		bl	ERROR_Write
 101              	.LVL14:
 102              	.L5:
 111:.\main.c      **** 
 112:.\main.c      ****                 /* We must not get here. If we do, go into infinite loop. */
 113:.\main.c      ****                 while(1);
 103              		.loc 1 113 0 discriminator 1
 104 006c FEE7     		b	.L5
 105              	.L4:
 114:.\main.c      ****             }
 115:.\main.c      **** 
 116:.\main.c      ****             if(0 != memcmp((const void *) slaveRxBuffer, (const void *) masterTxBuffer, BUFFER_SIZE
 106              		.loc 1 116 0
 107 006e 1748     		ldr	r0, .L9+8
 108 0070 2030     		add	r0, r0, #32
 109 0072 1449     		ldr	r1, .L9
 110 0074 2031     		add	r1, r1, #32
 111 0076 2022     		mov	r2, #32
 112 0078 FFF7FEFF 		bl	memcmp
ARM GAS  C:\Users\TOM~1.MCK\AppData\Local\Temp\ccudFFGk.s 			page 5


 113              	.LVL15:
 114 007c 0028     		cmp	r0, #0
 115 007e 03D0     		beq	.L6
 117:.\main.c      ****             {
 118:.\main.c      ****                 /* Transfer finished with errors - Turn red LED on to indicate error. */
 119:.\main.c      ****                 ERROR_Write(LED_ON);
 116              		.loc 1 119 0
 117 0080 0020     		mov	r0, #0
 118 0082 FFF7FEFF 		bl	ERROR_Write
 119              	.LVL16:
 120              	.L7:
 120:.\main.c      **** 
 121:.\main.c      ****                 /* We must not get here. If we do, go into infinite loop. */
 122:.\main.c      ****                 while(1);
 121              		.loc 1 122 0 discriminator 2
 122 0086 FEE7     		b	.L7
 123              	.L6:
 123:.\main.c      ****             }
 124:.\main.c      **** 
 125:.\main.c      ****             /* Set transfer complete status. */
 126:.\main.c      ****             SUCCESS_Write(LED_ON);
 124              		.loc 1 126 0
 125 0088 0020     		mov	r0, #0
 126 008a FFF7FEFF 		bl	SUCCESS_Write
 127              	.LVL17:
 127:.\main.c      **** 
 128:.\main.c      ****             /* Reset receive buffers. */
 129:.\main.c      ****             memset((void *) masterRxBuffer, 0, BUFFER_SIZE);
 128              		.loc 1 129 0
 129 008e 0F4A     		ldr	r2, .L9+8
 130 0090 0023     		mov	r3, #0
 131 0092 1360     		str	r3, [r2]
 132 0094 5360     		str	r3, [r2, #4]
 133 0096 9360     		str	r3, [r2, #8]
 134 0098 D360     		str	r3, [r2, #12]
 135 009a 1361     		str	r3, [r2, #16]
 136 009c 5361     		str	r3, [r2, #20]
 137 009e 9361     		str	r3, [r2, #24]
 138 00a0 D361     		str	r3, [r2, #28]
 130:.\main.c      ****             memset((void *) slaveRxBuffer,  0, BUFFER_SIZE);
 139              		.loc 1 130 0
 140 00a2 1362     		str	r3, [r2, #32]
 141 00a4 5362     		str	r3, [r2, #36]
 142 00a6 9362     		str	r3, [r2, #40]
 143 00a8 D362     		str	r3, [r2, #44]
 144 00aa 1363     		str	r3, [r2, #48]
 145 00ac 5363     		str	r3, [r2, #52]
 146 00ae 9363     		str	r3, [r2, #56]
 147 00b0 D363     		str	r3, [r2, #60]
 148              	.LVL18:
 149              	.LBB6:
 150              	.LBB7:
 151              		.file 2 "Generated_Source\\PSoC4/TxDmaM.h"
   1:Generated_Source\PSoC4/TxDmaM.h **** /*******************************************************************************
   2:Generated_Source\PSoC4/TxDmaM.h **** * File Name: TxDmaM.h
   3:Generated_Source\PSoC4/TxDmaM.h **** * Version 1.0
   4:Generated_Source\PSoC4/TxDmaM.h **** *
ARM GAS  C:\Users\TOM~1.MCK\AppData\Local\Temp\ccudFFGk.s 			page 6


   5:Generated_Source\PSoC4/TxDmaM.h **** * Description:
   6:Generated_Source\PSoC4/TxDmaM.h **** *  This file provides DMA channel defines and API function definitions.
   7:Generated_Source\PSoC4/TxDmaM.h **** *
   8:Generated_Source\PSoC4/TxDmaM.h **** ********************************************************************************
   9:Generated_Source\PSoC4/TxDmaM.h **** * Copyright 2015, Cypress Semiconductor Corporation. All rights reserved.
  10:Generated_Source\PSoC4/TxDmaM.h **** * You may use this file only in accordance with the license, terms, conditions,
  11:Generated_Source\PSoC4/TxDmaM.h **** * disclaimers, and limitations in the end user license agreement accompanying
  12:Generated_Source\PSoC4/TxDmaM.h **** * the software package with which this file was provided.
  13:Generated_Source\PSoC4/TxDmaM.h **** *******************************************************************************/
  14:Generated_Source\PSoC4/TxDmaM.h **** 
  15:Generated_Source\PSoC4/TxDmaM.h **** #ifndef CY_DMA_CHANNEL_TxDmaM_H
  16:Generated_Source\PSoC4/TxDmaM.h **** #define CY_DMA_CHANNEL_TxDmaM_H
  17:Generated_Source\PSoC4/TxDmaM.h **** 
  18:Generated_Source\PSoC4/TxDmaM.h **** #include "CyDMA.h"
  19:Generated_Source\PSoC4/TxDmaM.h **** 
  20:Generated_Source\PSoC4/TxDmaM.h ****     
  21:Generated_Source\PSoC4/TxDmaM.h **** /***************************************
  22:Generated_Source\PSoC4/TxDmaM.h **** *   Conditional Compilation Parameters
  23:Generated_Source\PSoC4/TxDmaM.h **** ***************************************/
  24:Generated_Source\PSoC4/TxDmaM.h **** 
  25:Generated_Source\PSoC4/TxDmaM.h **** #define TxDmaM_CHANNEL           (TxDmaM__CHANNEL_NUMBER)
  26:Generated_Source\PSoC4/TxDmaM.h **** #define TxDmaM_CHANNEL_MASK      ((uint32)(1UL << TxDmaM_CHANNEL))
  27:Generated_Source\PSoC4/TxDmaM.h **** 
  28:Generated_Source\PSoC4/TxDmaM.h **** 
  29:Generated_Source\PSoC4/TxDmaM.h **** /***************************************
  30:Generated_Source\PSoC4/TxDmaM.h **** *        Function Prototypes
  31:Generated_Source\PSoC4/TxDmaM.h **** ***************************************/
  32:Generated_Source\PSoC4/TxDmaM.h **** 
  33:Generated_Source\PSoC4/TxDmaM.h **** /* Functions specific to this DMA channel */
  34:Generated_Source\PSoC4/TxDmaM.h **** void TxDmaM_Init(void);
  35:Generated_Source\PSoC4/TxDmaM.h **** void TxDmaM_Start(void * srcAddress, void * dstAddress);
  36:Generated_Source\PSoC4/TxDmaM.h **** 
  37:Generated_Source\PSoC4/TxDmaM.h **** /* Inline functions that call global API functions */
  38:Generated_Source\PSoC4/TxDmaM.h **** static void   TxDmaM_ChEnable(void);
  39:Generated_Source\PSoC4/TxDmaM.h **** static void   TxDmaM_ChDisable(void);
  40:Generated_Source\PSoC4/TxDmaM.h **** static void   TxDmaM_Trigger(void);
  41:Generated_Source\PSoC4/TxDmaM.h **** static void   TxDmaM_SetPriority(int32 priority);
  42:Generated_Source\PSoC4/TxDmaM.h **** static int32  TxDmaM_GetPriority(void);
  43:Generated_Source\PSoC4/TxDmaM.h **** static void   TxDmaM_SetNextDescriptor(int32 descriptor);
  44:Generated_Source\PSoC4/TxDmaM.h **** static int32  TxDmaM_GetNextDescriptor(void);
  45:Generated_Source\PSoC4/TxDmaM.h **** static void   TxDmaM_SetConfiguration(int32 descriptor, const cydma_init_struct * config);
  46:Generated_Source\PSoC4/TxDmaM.h **** static void   TxDmaM_ValidateDescriptor(int32 descriptor);
  47:Generated_Source\PSoC4/TxDmaM.h **** static uint32 TxDmaM_GetDescriptorStatus(int32 descriptor);
  48:Generated_Source\PSoC4/TxDmaM.h **** static void   TxDmaM_SetSrcAddress(int32 descriptor, void * srcAddress);
  49:Generated_Source\PSoC4/TxDmaM.h **** static void * TxDmaM_GetSrcAddress(int32 descriptor);
  50:Generated_Source\PSoC4/TxDmaM.h **** static void   TxDmaM_SetDstAddress(int32 descriptor, void * dstAddress);
  51:Generated_Source\PSoC4/TxDmaM.h **** static void * TxDmaM_GetDstAddress(int32 descriptor);
  52:Generated_Source\PSoC4/TxDmaM.h **** static void   TxDmaM_SetDataElementSize(int32 descriptor, uint32 dataElementSize);
  53:Generated_Source\PSoC4/TxDmaM.h **** static uint32 TxDmaM_GetDataElementSize(int32 descriptor);
  54:Generated_Source\PSoC4/TxDmaM.h **** static void   TxDmaM_SetNumDataElements(int32 descriptor, int32 numDataElements);
  55:Generated_Source\PSoC4/TxDmaM.h **** static int32  TxDmaM_GetNumDataElements(int32 descriptor);
  56:Generated_Source\PSoC4/TxDmaM.h **** static void   TxDmaM_SetSrcDstTransferWidth(int32 descriptor, uint32 transferWidth);
  57:Generated_Source\PSoC4/TxDmaM.h **** static uint32 TxDmaM_GetSrcDstTransferWidth(int32 descriptor);
  58:Generated_Source\PSoC4/TxDmaM.h **** static void   TxDmaM_SetAddressIncrement(int32 descriptor, uint32 addressIncrement);
  59:Generated_Source\PSoC4/TxDmaM.h **** static uint32 TxDmaM_GetAddressIncrement(int32 descriptor);
  60:Generated_Source\PSoC4/TxDmaM.h **** static void   TxDmaM_SetTriggerType(int32 descriptor, uint32 triggerType);
  61:Generated_Source\PSoC4/TxDmaM.h **** static uint32 TxDmaM_GetTriggerType(int32 descriptor);
ARM GAS  C:\Users\TOM~1.MCK\AppData\Local\Temp\ccudFFGk.s 			page 7


  62:Generated_Source\PSoC4/TxDmaM.h **** static void   TxDmaM_SetTransferMode(int32 descriptor, uint32 transferMode);
  63:Generated_Source\PSoC4/TxDmaM.h **** static uint32 TxDmaM_GetTransferMode(int32 descriptor);
  64:Generated_Source\PSoC4/TxDmaM.h **** static void   TxDmaM_SetPreemptable(int32 descriptor, uint32 preemptable);
  65:Generated_Source\PSoC4/TxDmaM.h **** static uint32 TxDmaM_GetPreemptable(int32 descriptor);
  66:Generated_Source\PSoC4/TxDmaM.h **** static void   TxDmaM_SetPostCompletionActions(int32 descriptor, uint32 actions);
  67:Generated_Source\PSoC4/TxDmaM.h **** static uint32 TxDmaM_GetPostCompletionAction(int32 descriptor);
  68:Generated_Source\PSoC4/TxDmaM.h **** static cydma_callback_t TxDmaM_SetInterruptCallback(cydma_callback_t callback);
  69:Generated_Source\PSoC4/TxDmaM.h **** static cydma_callback_t TxDmaM_GetInterruptCallback(void);
  70:Generated_Source\PSoC4/TxDmaM.h **** 
  71:Generated_Source\PSoC4/TxDmaM.h **** 
  72:Generated_Source\PSoC4/TxDmaM.h **** /*******************************************************************************
  73:Generated_Source\PSoC4/TxDmaM.h **** * Function Name: TxDmaM_ChEnable
  74:Generated_Source\PSoC4/TxDmaM.h **** ********************************************************************************
  75:Generated_Source\PSoC4/TxDmaM.h **** *
  76:Generated_Source\PSoC4/TxDmaM.h **** * Summary:
  77:Generated_Source\PSoC4/TxDmaM.h **** *  Enables the DMA channel. It is not necessary to call TxDmaM_ChEnable()
  78:Generated_Source\PSoC4/TxDmaM.h **** *  because the TxDmaM_Start() API calls this function, which is the
  79:Generated_Source\PSoC4/TxDmaM.h **** *  preferred method to begin the component operation.
  80:Generated_Source\PSoC4/TxDmaM.h **** *
  81:Generated_Source\PSoC4/TxDmaM.h **** * Parameters:
  82:Generated_Source\PSoC4/TxDmaM.h **** *  None.
  83:Generated_Source\PSoC4/TxDmaM.h **** *                   
  84:Generated_Source\PSoC4/TxDmaM.h **** * Return:
  85:Generated_Source\PSoC4/TxDmaM.h **** *  None.
  86:Generated_Source\PSoC4/TxDmaM.h **** *
  87:Generated_Source\PSoC4/TxDmaM.h **** * Side effect:
  88:Generated_Source\PSoC4/TxDmaM.h **** *  If this function is called before TxDmaM_Start(), or TxDmaM_Init()
  89:Generated_Source\PSoC4/TxDmaM.h **** *  or TxDmaM_SetConfiguration(), and TxDmaM_SetSrcAddress()
  90:Generated_Source\PSoC4/TxDmaM.h **** *  and TxDmaM_SetDstAddress the operation of the DMA is 
  91:Generated_Source\PSoC4/TxDmaM.h **** *  undefined and could result in system data corruption. 
  92:Generated_Source\PSoC4/TxDmaM.h **** *
  93:Generated_Source\PSoC4/TxDmaM.h **** *******************************************************************************/
  94:Generated_Source\PSoC4/TxDmaM.h **** static CY_INLINE void TxDmaM_ChEnable(void)
  95:Generated_Source\PSoC4/TxDmaM.h **** {
  96:Generated_Source\PSoC4/TxDmaM.h ****     CyDmaChEnable(TxDmaM_CHANNEL);
  97:Generated_Source\PSoC4/TxDmaM.h **** }
  98:Generated_Source\PSoC4/TxDmaM.h **** 
  99:Generated_Source\PSoC4/TxDmaM.h **** 
 100:Generated_Source\PSoC4/TxDmaM.h **** /*******************************************************************************
 101:Generated_Source\PSoC4/TxDmaM.h **** * Function Name: TxDmaM_ChDisable
 102:Generated_Source\PSoC4/TxDmaM.h **** ********************************************************************************
 103:Generated_Source\PSoC4/TxDmaM.h **** *
 104:Generated_Source\PSoC4/TxDmaM.h **** * Summary:
 105:Generated_Source\PSoC4/TxDmaM.h **** *  Disables the DMA channel.
 106:Generated_Source\PSoC4/TxDmaM.h **** *
 107:Generated_Source\PSoC4/TxDmaM.h **** * Parameters:
 108:Generated_Source\PSoC4/TxDmaM.h **** *  None.
 109:Generated_Source\PSoC4/TxDmaM.h **** *                   
 110:Generated_Source\PSoC4/TxDmaM.h **** * Return:
 111:Generated_Source\PSoC4/TxDmaM.h **** *  None.
 112:Generated_Source\PSoC4/TxDmaM.h **** *
 113:Generated_Source\PSoC4/TxDmaM.h **** * Side effect:
 114:Generated_Source\PSoC4/TxDmaM.h **** *  If this function is called during a DMA transfer the transfer is aborted. 
 115:Generated_Source\PSoC4/TxDmaM.h **** *
 116:Generated_Source\PSoC4/TxDmaM.h **** *******************************************************************************/
 117:Generated_Source\PSoC4/TxDmaM.h **** static CY_INLINE void TxDmaM_ChDisable(void)
 118:Generated_Source\PSoC4/TxDmaM.h **** {
ARM GAS  C:\Users\TOM~1.MCK\AppData\Local\Temp\ccudFFGk.s 			page 8


 119:Generated_Source\PSoC4/TxDmaM.h ****     CyDmaChDisable(TxDmaM_CHANNEL);
 120:Generated_Source\PSoC4/TxDmaM.h **** }
 121:Generated_Source\PSoC4/TxDmaM.h **** 
 122:Generated_Source\PSoC4/TxDmaM.h **** 
 123:Generated_Source\PSoC4/TxDmaM.h **** /*******************************************************************************
 124:Generated_Source\PSoC4/TxDmaM.h **** * Function Name: TxDmaM_Trigger
 125:Generated_Source\PSoC4/TxDmaM.h **** ********************************************************************************
 126:Generated_Source\PSoC4/TxDmaM.h **** *
 127:Generated_Source\PSoC4/TxDmaM.h **** * Summary:
 128:Generated_Source\PSoC4/TxDmaM.h **** *  Triggers the DMA channel, this is useful only for software triggers. This is
 129:Generated_Source\PSoC4/TxDmaM.h **** *  not needed when hardware triggers are used.
 130:Generated_Source\PSoC4/TxDmaM.h **** *
 131:Generated_Source\PSoC4/TxDmaM.h **** * Parameters:
 132:Generated_Source\PSoC4/TxDmaM.h **** *  None.
 133:Generated_Source\PSoC4/TxDmaM.h **** *                   
 134:Generated_Source\PSoC4/TxDmaM.h **** * Return:
 135:Generated_Source\PSoC4/TxDmaM.h **** *  None. 
 136:Generated_Source\PSoC4/TxDmaM.h **** *
 137:Generated_Source\PSoC4/TxDmaM.h **** *******************************************************************************/
 138:Generated_Source\PSoC4/TxDmaM.h **** static CY_INLINE void TxDmaM_Trigger(void)
 139:Generated_Source\PSoC4/TxDmaM.h **** {
 140:Generated_Source\PSoC4/TxDmaM.h ****     CyDmaTrigger(TxDmaM_CHANNEL);
 141:Generated_Source\PSoC4/TxDmaM.h **** }
 142:Generated_Source\PSoC4/TxDmaM.h **** 
 143:Generated_Source\PSoC4/TxDmaM.h **** 
 144:Generated_Source\PSoC4/TxDmaM.h **** /*******************************************************************************
 145:Generated_Source\PSoC4/TxDmaM.h **** * Function Name: TxDmaM_SetPriority
 146:Generated_Source\PSoC4/TxDmaM.h **** ********************************************************************************
 147:Generated_Source\PSoC4/TxDmaM.h **** *
 148:Generated_Source\PSoC4/TxDmaM.h **** * Summary:
 149:Generated_Source\PSoC4/TxDmaM.h **** *  Sets the priority for the channel.
 150:Generated_Source\PSoC4/TxDmaM.h **** *
 151:Generated_Source\PSoC4/TxDmaM.h **** * Parameters:
 152:Generated_Source\PSoC4/TxDmaM.h **** *  priority: Priority for channel. Priority can be 0,1,2, or 3.
 153:Generated_Source\PSoC4/TxDmaM.h **** *            0 is the highest priority.
 154:Generated_Source\PSoC4/TxDmaM.h **** *                   
 155:Generated_Source\PSoC4/TxDmaM.h **** * Return:
 156:Generated_Source\PSoC4/TxDmaM.h **** *  None.
 157:Generated_Source\PSoC4/TxDmaM.h **** *
 158:Generated_Source\PSoC4/TxDmaM.h **** * Side effect:
 159:Generated_Source\PSoC4/TxDmaM.h **** *  This function should not be called while the channel is enabled.
 160:Generated_Source\PSoC4/TxDmaM.h **** *
 161:Generated_Source\PSoC4/TxDmaM.h **** *******************************************************************************/
 162:Generated_Source\PSoC4/TxDmaM.h **** static CY_INLINE void TxDmaM_SetPriority(int32 priority)
 163:Generated_Source\PSoC4/TxDmaM.h **** {
 164:Generated_Source\PSoC4/TxDmaM.h ****     CyDmaSetPriority(TxDmaM_CHANNEL, priority);
 165:Generated_Source\PSoC4/TxDmaM.h **** }
 166:Generated_Source\PSoC4/TxDmaM.h **** 
 167:Generated_Source\PSoC4/TxDmaM.h **** 
 168:Generated_Source\PSoC4/TxDmaM.h **** /*******************************************************************************
 169:Generated_Source\PSoC4/TxDmaM.h **** * Function Name: TxDmaM_GetPriority
 170:Generated_Source\PSoC4/TxDmaM.h **** ********************************************************************************
 171:Generated_Source\PSoC4/TxDmaM.h **** *
 172:Generated_Source\PSoC4/TxDmaM.h **** * Summary:
 173:Generated_Source\PSoC4/TxDmaM.h **** *  Gets the priority for the channel.
 174:Generated_Source\PSoC4/TxDmaM.h **** *
 175:Generated_Source\PSoC4/TxDmaM.h **** * Parameters:
ARM GAS  C:\Users\TOM~1.MCK\AppData\Local\Temp\ccudFFGk.s 			page 9


 176:Generated_Source\PSoC4/TxDmaM.h **** *  None.
 177:Generated_Source\PSoC4/TxDmaM.h **** *                   
 178:Generated_Source\PSoC4/TxDmaM.h **** * Return:
 179:Generated_Source\PSoC4/TxDmaM.h **** *  Priority for channel. Priority can be 0,1,2, or 3. 0 is the highest priority.
 180:Generated_Source\PSoC4/TxDmaM.h **** *
 181:Generated_Source\PSoC4/TxDmaM.h **** *******************************************************************************/
 182:Generated_Source\PSoC4/TxDmaM.h **** static CY_INLINE int32 TxDmaM_GetPriority(void)
 183:Generated_Source\PSoC4/TxDmaM.h **** {
 184:Generated_Source\PSoC4/TxDmaM.h ****     return (CyDmaGetPriority(TxDmaM_CHANNEL));
 185:Generated_Source\PSoC4/TxDmaM.h **** }
 186:Generated_Source\PSoC4/TxDmaM.h **** 
 187:Generated_Source\PSoC4/TxDmaM.h **** 
 188:Generated_Source\PSoC4/TxDmaM.h **** /*******************************************************************************
 189:Generated_Source\PSoC4/TxDmaM.h **** * Function Name: TxDmaM_SetNextDescriptor
 190:Generated_Source\PSoC4/TxDmaM.h **** ********************************************************************************
 191:Generated_Source\PSoC4/TxDmaM.h **** *
 192:Generated_Source\PSoC4/TxDmaM.h **** * Summary:
 193:Generated_Source\PSoC4/TxDmaM.h **** *  Sets the descriptor that should be run the next time the channel is
 194:Generated_Source\PSoC4/TxDmaM.h **** *  triggered.
 195:Generated_Source\PSoC4/TxDmaM.h **** *
 196:Generated_Source\PSoC4/TxDmaM.h **** * Parameters:
 197:Generated_Source\PSoC4/TxDmaM.h **** *  descriptor: Next Descriptor to run (0 or 1).
 198:Generated_Source\PSoC4/TxDmaM.h **** *                   
 199:Generated_Source\PSoC4/TxDmaM.h **** * Side effect:
 200:Generated_Source\PSoC4/TxDmaM.h **** *  This function should not be called while the channel is enabled.
 201:Generated_Source\PSoC4/TxDmaM.h **** *
 202:Generated_Source\PSoC4/TxDmaM.h **** *******************************************************************************/
 203:Generated_Source\PSoC4/TxDmaM.h **** static CY_INLINE void TxDmaM_SetNextDescriptor(int32 descriptor)
 204:Generated_Source\PSoC4/TxDmaM.h **** {
 205:Generated_Source\PSoC4/TxDmaM.h ****     CyDmaSetNextDescriptor(TxDmaM_CHANNEL, descriptor);
 206:Generated_Source\PSoC4/TxDmaM.h **** }
 207:Generated_Source\PSoC4/TxDmaM.h **** 
 208:Generated_Source\PSoC4/TxDmaM.h **** 
 209:Generated_Source\PSoC4/TxDmaM.h **** /*******************************************************************************
 210:Generated_Source\PSoC4/TxDmaM.h **** * Function Name: TxDmaM_GetNextDescriptor
 211:Generated_Source\PSoC4/TxDmaM.h **** ********************************************************************************
 212:Generated_Source\PSoC4/TxDmaM.h **** *
 213:Generated_Source\PSoC4/TxDmaM.h **** * Summary:
 214:Generated_Source\PSoC4/TxDmaM.h **** *  Returns the next descriptor that should be run, as set by 
 215:Generated_Source\PSoC4/TxDmaM.h **** *  TxDmaM_SetNextDescriptor().
 216:Generated_Source\PSoC4/TxDmaM.h **** *
 217:Generated_Source\PSoC4/TxDmaM.h **** * Parameters:
 218:Generated_Source\PSoC4/TxDmaM.h **** *  None.
 219:Generated_Source\PSoC4/TxDmaM.h **** *                   
 220:Generated_Source\PSoC4/TxDmaM.h **** * Return:
 221:Generated_Source\PSoC4/TxDmaM.h **** *  Next Descriptor to run (0 or 1).
 222:Generated_Source\PSoC4/TxDmaM.h **** *
 223:Generated_Source\PSoC4/TxDmaM.h **** *******************************************************************************/
 224:Generated_Source\PSoC4/TxDmaM.h **** static CY_INLINE int32 TxDmaM_GetNextDescriptor(void)
 225:Generated_Source\PSoC4/TxDmaM.h **** {
 226:Generated_Source\PSoC4/TxDmaM.h ****     return (CyDmaGetNextDescriptor(TxDmaM_CHANNEL));
 227:Generated_Source\PSoC4/TxDmaM.h **** }
 228:Generated_Source\PSoC4/TxDmaM.h **** 
 229:Generated_Source\PSoC4/TxDmaM.h **** 
 230:Generated_Source\PSoC4/TxDmaM.h **** /*******************************************************************************
 231:Generated_Source\PSoC4/TxDmaM.h **** * Function Name: TxDmaM_SetConfiguration
 232:Generated_Source\PSoC4/TxDmaM.h **** ********************************************************************************
ARM GAS  C:\Users\TOM~1.MCK\AppData\Local\Temp\ccudFFGk.s 			page 10


 233:Generated_Source\PSoC4/TxDmaM.h **** *
 234:Generated_Source\PSoC4/TxDmaM.h **** * Summary:
 235:Generated_Source\PSoC4/TxDmaM.h **** *  Sets configuration information for the specified descriptor.
 236:Generated_Source\PSoC4/TxDmaM.h **** *
 237:Generated_Source\PSoC4/TxDmaM.h **** * Parameters:
 238:Generated_Source\PSoC4/TxDmaM.h **** *  descriptor: Descriptor (0 or 1) modified by this function.
 239:Generated_Source\PSoC4/TxDmaM.h **** *  config: Pointer to a configuration structure. Refer to cydma_init_struct
 240:Generated_Source\PSoC4/TxDmaM.h **** *          structure definition in CyDMA_P4.h or the component datasheet.
 241:Generated_Source\PSoC4/TxDmaM.h **** *                   
 242:Generated_Source\PSoC4/TxDmaM.h **** * Return:
 243:Generated_Source\PSoC4/TxDmaM.h **** *  None.
 244:Generated_Source\PSoC4/TxDmaM.h **** *
 245:Generated_Source\PSoC4/TxDmaM.h **** * Side effect:
 246:Generated_Source\PSoC4/TxDmaM.h **** *  The status register associated with the specified descriptor is reset to
 247:Generated_Source\PSoC4/TxDmaM.h **** *  zero after this function call. This function also validates the descriptor.
 248:Generated_Source\PSoC4/TxDmaM.h **** *  This function should not be called while the descriptor is active.
 249:Generated_Source\PSoC4/TxDmaM.h **** *  This can be checked by calling CyDmaGetStatus().
 250:Generated_Source\PSoC4/TxDmaM.h **** *
 251:Generated_Source\PSoC4/TxDmaM.h **** *******************************************************************************/
 252:Generated_Source\PSoC4/TxDmaM.h **** static CY_INLINE void TxDmaM_SetConfiguration(int32 descriptor, const cydma_init_struct * config)
 253:Generated_Source\PSoC4/TxDmaM.h **** {
 254:Generated_Source\PSoC4/TxDmaM.h ****     CyDmaSetConfiguration(TxDmaM_CHANNEL, descriptor, config);
 255:Generated_Source\PSoC4/TxDmaM.h **** }
 256:Generated_Source\PSoC4/TxDmaM.h **** 
 257:Generated_Source\PSoC4/TxDmaM.h **** 
 258:Generated_Source\PSoC4/TxDmaM.h **** /*******************************************************************************
 259:Generated_Source\PSoC4/TxDmaM.h **** * Function Name: TxDmaM_ValidateDescriptor
 260:Generated_Source\PSoC4/TxDmaM.h **** ********************************************************************************
 261:Generated_Source\PSoC4/TxDmaM.h **** *
 262:Generated_Source\PSoC4/TxDmaM.h **** * Summary:
 263:Generated_Source\PSoC4/TxDmaM.h **** *  Validates the specified descriptor after it has been invalidated.
 264:Generated_Source\PSoC4/TxDmaM.h **** *
 265:Generated_Source\PSoC4/TxDmaM.h **** * Parameters:
 266:Generated_Source\PSoC4/TxDmaM.h **** *  descriptor: Descriptor (0 or 1) modified by this function.
 267:Generated_Source\PSoC4/TxDmaM.h **** *                   
 268:Generated_Source\PSoC4/TxDmaM.h **** * Return:
 269:Generated_Source\PSoC4/TxDmaM.h **** *  None. 
 270:Generated_Source\PSoC4/TxDmaM.h **** *
 271:Generated_Source\PSoC4/TxDmaM.h **** * Side effect:
 272:Generated_Source\PSoC4/TxDmaM.h **** *  The status register associated with the specified descriptor is reset to
 273:Generated_Source\PSoC4/TxDmaM.h **** *  zero after this function call. This function should not be called while the
 274:Generated_Source\PSoC4/TxDmaM.h **** *  descriptor is active. This can be checked by calling CyDmaGetStatus().
 275:Generated_Source\PSoC4/TxDmaM.h **** *
 276:Generated_Source\PSoC4/TxDmaM.h **** *******************************************************************************/
 277:Generated_Source\PSoC4/TxDmaM.h **** static CY_INLINE void TxDmaM_ValidateDescriptor(int32 descriptor)
 278:Generated_Source\PSoC4/TxDmaM.h **** {
 279:Generated_Source\PSoC4/TxDmaM.h ****     CyDmaValidateDescriptor(TxDmaM_CHANNEL, descriptor);
 152              		.loc 2 279 0
 153 00b2 0220     		mov	r0, #2
 154 00b4 0021     		mov	r1, #0
 155 00b6 FFF7FEFF 		bl	CyDmaValidateDescriptor
 156              	.LVL19:
 157              	.LBE7:
 158              	.LBE6:
 159              	.LBB8:
 160              	.LBB9:
  96:Generated_Source\PSoC4/TxDmaM.h **** }
ARM GAS  C:\Users\TOM~1.MCK\AppData\Local\Temp\ccudFFGk.s 			page 11


 161              		.loc 2 96 0
 162 00ba 0220     		mov	r0, #2
 163 00bc FFF7FEFF 		bl	CyDmaChEnable
 164              	.LVL20:
 165 00c0 C1E7     		b	.L3
 166              	.L10:
 167 00c2 C046     		.align	2
 168              	.L9:
 169 00c4 00000000 		.word	.LANCHOR0
 170 00c8 41000F40 		.word	1074724929
 171 00cc 00000000 		.word	.LANCHOR1
 172 00d0 40032540 		.word	1076167488
 173 00d4 51000F40 		.word	1074724945
 174 00d8 40022540 		.word	1076167232
 175              	.LBE9:
 176              	.LBE8:
 177              		.cfi_endproc
 178              	.LFE165:
 179              		.size	main, .-main
 180              		.section	.rodata
 181              		.align	2
 182              		.set	.LANCHOR0,. + 0
 183              		.type	slaveTxBuffer, %object
 184              		.size	slaveTxBuffer, 32
 185              	slaveTxBuffer:
 186 0000 44617461 		.ascii	"Data to return by SPI Slave !!!!"
 186      20746F20 
 186      72657475 
 186      726E2062 
 186      79205350 
 187              		.type	masterTxBuffer, %object
 188              		.size	masterTxBuffer, 32
 189              	masterTxBuffer:
 190 0020 44617461 		.ascii	"Data to transmit by SPI Master !"
 190      20746F20 
 190      7472616E 
 190      736D6974 
 190      20627920 
 191              		.bss
 192              		.align	2
 193              		.set	.LANCHOR1,. + 0
 194              		.type	masterRxBuffer, %object
 195              		.size	masterRxBuffer, 32
 196              	masterRxBuffer:
 197 0000 00000000 		.space	32
 197      00000000 
 197      00000000 
 197      00000000 
 197      00000000 
 198              		.type	slaveRxBuffer, %object
 199              		.size	slaveRxBuffer, 32
 200              	slaveRxBuffer:
 201 0020 00000000 		.space	32
 201      00000000 
 201      00000000 
 201      00000000 
 201      00000000 
ARM GAS  C:\Users\TOM~1.MCK\AppData\Local\Temp\ccudFFGk.s 			page 12


 202              		.text
 203              	.Letext0:
 204              		.file 3 "Generated_Source\\PSoC4/cytypes.h"
 205              		.file 4 "c:\\program files (x86)\\cypress\\psoc creator\\3.3\\psoc creator\\import\\gnu\\arm\\4.9.
 206              		.file 5 "Generated_Source\\PSoC4/CyDMA.h"
 207              		.file 6 "Generated_Source\\PSoC4/TxDmaS.h"
 208              		.file 7 "Generated_Source\\PSoC4/SPIS.h"
 209              		.file 8 "Generated_Source\\PSoC4/SPIM.h"
 210              		.file 9 "Generated_Source\\PSoC4/SPIM_SPI_UART.h"
 211              		.file 10 "Generated_Source\\PSoC4/RxDmaM.h"
 212              		.file 11 "Generated_Source\\PSoC4/RxDmaS.h"
 213              		.file 12 "Generated_Source\\PSoC4/SUCCESS.h"
 214              		.file 13 "c:\\program files (x86)\\cypress\\psoc creator\\3.3\\psoc creator\\import\\gnu\\arm\\4.9
 215              		.file 14 "Generated_Source\\PSoC4/ERROR.h"
 216              		.section	.debug_info,"",%progbits
 217              	.Ldebug_info0:
 218 0000 42040000 		.4byte	0x442
 219 0004 0400     		.2byte	0x4
 220 0006 00000000 		.4byte	.Ldebug_abbrev0
 221 000a 04       		.byte	0x4
 222 000b 01       		.uleb128 0x1
 223 000c 8A020000 		.4byte	.LASF39
 224 0010 01       		.byte	0x1
 225 0011 84010000 		.4byte	.LASF40
 226 0015 F0010000 		.4byte	.LASF41
 227 0019 00000000 		.4byte	.Ldebug_ranges0+0
 228 001d 00000000 		.4byte	0
 229 0021 00000000 		.4byte	.Ldebug_line0
 230 0025 02       		.uleb128 0x2
 231 0026 01       		.byte	0x1
 232 0027 06       		.byte	0x6
 233 0028 4F030000 		.4byte	.LASF0
 234 002c 02       		.uleb128 0x2
 235 002d 01       		.byte	0x1
 236 002e 08       		.byte	0x8
 237 002f EB000000 		.4byte	.LASF1
 238 0033 02       		.uleb128 0x2
 239 0034 02       		.byte	0x2
 240 0035 05       		.byte	0x5
 241 0036 18030000 		.4byte	.LASF2
 242 003a 02       		.uleb128 0x2
 243 003b 02       		.byte	0x2
 244 003c 07       		.byte	0x7
 245 003d 87000000 		.4byte	.LASF3
 246 0041 02       		.uleb128 0x2
 247 0042 04       		.byte	0x4
 248 0043 05       		.byte	0x5
 249 0044 35030000 		.4byte	.LASF4
 250 0048 02       		.uleb128 0x2
 251 0049 04       		.byte	0x4
 252 004a 07       		.byte	0x7
 253 004b 23010000 		.4byte	.LASF5
 254 004f 02       		.uleb128 0x2
 255 0050 08       		.byte	0x8
 256 0051 05       		.byte	0x5
 257 0052 77020000 		.4byte	.LASF6
 258 0056 02       		.uleb128 0x2
ARM GAS  C:\Users\TOM~1.MCK\AppData\Local\Temp\ccudFFGk.s 			page 13


 259 0057 08       		.byte	0x8
 260 0058 07       		.byte	0x7
 261 0059 CE010000 		.4byte	.LASF7
 262 005d 03       		.uleb128 0x3
 263 005e 04       		.byte	0x4
 264 005f 05       		.byte	0x5
 265 0060 696E7400 		.ascii	"int\000"
 266 0064 02       		.uleb128 0x2
 267 0065 04       		.byte	0x4
 268 0066 07       		.byte	0x7
 269 0067 B3010000 		.4byte	.LASF8
 270 006b 04       		.uleb128 0x4
 271 006c 22030000 		.4byte	.LASF9
 272 0070 03       		.byte	0x3
 273 0071 9801     		.2byte	0x198
 274 0073 2C000000 		.4byte	0x2c
 275 0077 04       		.uleb128 0x4
 276 0078 A7010000 		.4byte	.LASF10
 277 007c 03       		.byte	0x3
 278 007d 9A01     		.2byte	0x19a
 279 007f 48000000 		.4byte	0x48
 280 0083 04       		.uleb128 0x4
 281 0084 7F010000 		.4byte	.LASF11
 282 0088 03       		.byte	0x3
 283 0089 9B01     		.2byte	0x19b
 284 008b 25000000 		.4byte	0x25
 285 008f 04       		.uleb128 0x4
 286 0090 35010000 		.4byte	.LASF12
 287 0094 03       		.byte	0x3
 288 0095 9D01     		.2byte	0x19d
 289 0097 41000000 		.4byte	0x41
 290 009b 02       		.uleb128 0x2
 291 009c 04       		.byte	0x4
 292 009d 04       		.byte	0x4
 293 009e E5000000 		.4byte	.LASF13
 294 00a2 02       		.uleb128 0x2
 295 00a3 08       		.byte	0x8
 296 00a4 04       		.byte	0x4
 297 00a5 78010000 		.4byte	.LASF14
 298 00a9 02       		.uleb128 0x2
 299 00aa 01       		.byte	0x1
 300 00ab 08       		.byte	0x8
 301 00ac 85020000 		.4byte	.LASF15
 302 00b0 04       		.uleb128 0x4
 303 00b1 69020000 		.4byte	.LASF16
 304 00b5 03       		.byte	0x3
 305 00b6 4202     		.2byte	0x242
 306 00b8 BC000000 		.4byte	0xbc
 307 00bc 05       		.uleb128 0x5
 308 00bd 6B000000 		.4byte	0x6b
 309 00c1 04       		.uleb128 0x4
 310 00c2 3E030000 		.4byte	.LASF17
 311 00c6 03       		.byte	0x3
 312 00c7 4402     		.2byte	0x244
 313 00c9 CD000000 		.4byte	0xcd
 314 00cd 05       		.uleb128 0x5
 315 00ce 77000000 		.4byte	0x77
ARM GAS  C:\Users\TOM~1.MCK\AppData\Local\Temp\ccudFFGk.s 			page 14


 316 00d2 06       		.uleb128 0x6
 317 00d3 25000000 		.4byte	.LASF18
 318 00d7 04       		.byte	0x4
 319 00d8 D4       		.byte	0xd4
 320 00d9 64000000 		.4byte	0x64
 321 00dd 02       		.uleb128 0x2
 322 00de 04       		.byte	0x4
 323 00df 07       		.byte	0x7
 324 00e0 6E020000 		.4byte	.LASF19
 325 00e4 07       		.uleb128 0x7
 326 00e5 04       		.byte	0x4
 327 00e6 08       		.uleb128 0x8
 328 00e7 F9000000 		.4byte	.LASF42
 329 00eb 02       		.byte	0x2
 330 00ec 1501     		.2byte	0x115
 331 00ee 03       		.byte	0x3
 332 00ef 00010000 		.4byte	0x100
 333 00f3 09       		.uleb128 0x9
 334 00f4 44030000 		.4byte	.LASF43
 335 00f8 02       		.byte	0x2
 336 00f9 1501     		.2byte	0x115
 337 00fb 8F000000 		.4byte	0x8f
 338 00ff 00       		.byte	0
 339 0100 0A       		.uleb128 0xa
 340 0101 13010000 		.4byte	.LASF44
 341 0105 02       		.byte	0x2
 342 0106 5E       		.byte	0x5e
 343 0107 03       		.byte	0x3
 344 0108 0B       		.uleb128 0xb
 345 0109 AE010000 		.4byte	.LASF45
 346 010d 01       		.byte	0x1
 347 010e 39       		.byte	0x39
 348 010f 5D000000 		.4byte	0x5d
 349 0113 00000000 		.4byte	.LFB165
 350 0117 DC000000 		.4byte	.LFE165-.LFB165
 351 011b 01       		.uleb128 0x1
 352 011c 9C       		.byte	0x9c
 353 011d CD020000 		.4byte	0x2cd
 354 0121 0C       		.uleb128 0xc
 355 0122 E6000000 		.4byte	0xe6
 356 0126 B2000000 		.4byte	.LBB6
 357 012a 08000000 		.4byte	.LBE6-.LBB6
 358 012e 01       		.byte	0x1
 359 012f 89       		.byte	0x89
 360 0130 4F010000 		.4byte	0x14f
 361 0134 0D       		.uleb128 0xd
 362 0135 F3000000 		.4byte	0xf3
 363 0139 00       		.byte	0
 364 013a 0E       		.uleb128 0xe
 365 013b BA000000 		.4byte	.LVL19
 366 013f 2B030000 		.4byte	0x32b
 367 0143 0F       		.uleb128 0xf
 368 0144 01       		.uleb128 0x1
 369 0145 51       		.byte	0x51
 370 0146 01       		.uleb128 0x1
 371 0147 30       		.byte	0x30
 372 0148 0F       		.uleb128 0xf
ARM GAS  C:\Users\TOM~1.MCK\AppData\Local\Temp\ccudFFGk.s 			page 15


 373 0149 01       		.uleb128 0x1
 374 014a 50       		.byte	0x50
 375 014b 01       		.uleb128 0x1
 376 014c 32       		.byte	0x32
 377 014d 00       		.byte	0
 378 014e 00       		.byte	0
 379 014f 0C       		.uleb128 0xc
 380 0150 00010000 		.4byte	0x100
 381 0154 BA000000 		.4byte	.LBB8
 382 0158 22000000 		.4byte	.LBE8-.LBB8
 383 015c 01       		.byte	0x1
 384 015d 8A       		.byte	0x8a
 385 015e 72010000 		.4byte	0x172
 386 0162 0E       		.uleb128 0xe
 387 0163 C0000000 		.4byte	.LVL20
 388 0167 41030000 		.4byte	0x341
 389 016b 0F       		.uleb128 0xf
 390 016c 01       		.uleb128 0x1
 391 016d 50       		.byte	0x50
 392 016e 01       		.uleb128 0x1
 393 016f 32       		.byte	0x32
 394 0170 00       		.byte	0
 395 0171 00       		.byte	0
 396 0172 10       		.uleb128 0x10
 397 0173 0A000000 		.4byte	.LVL0
 398 0177 52030000 		.4byte	0x352
 399 017b 92010000 		.4byte	0x192
 400 017f 0F       		.uleb128 0xf
 401 0180 01       		.uleb128 0x1
 402 0181 51       		.byte	0x51
 403 0182 05       		.uleb128 0x5
 404 0183 0C       		.byte	0xc
 405 0184 41000F40 		.4byte	0x400f0041
 406 0188 0F       		.uleb128 0xf
 407 0189 01       		.uleb128 0x1
 408 018a 50       		.byte	0x50
 409 018b 05       		.uleb128 0x5
 410 018c 03       		.byte	0x3
 411 018d 00000000 		.4byte	.LANCHOR0
 412 0191 00       		.byte	0
 413 0192 11       		.uleb128 0x11
 414 0193 0E000000 		.4byte	.LVL1
 415 0197 68030000 		.4byte	0x368
 416 019b 11       		.uleb128 0x11
 417 019c 12000000 		.4byte	.LVL2
 418 01a0 6F030000 		.4byte	0x36f
 419 01a4 10       		.uleb128 0x10
 420 01a5 18000000 		.4byte	.LVL3
 421 01a9 76030000 		.4byte	0x376
 422 01ad B7010000 		.4byte	0x1b7
 423 01b1 0F       		.uleb128 0xf
 424 01b2 01       		.uleb128 0x1
 425 01b3 50       		.byte	0x50
 426 01b4 01       		.uleb128 0x1
 427 01b5 30       		.byte	0x30
 428 01b6 00       		.byte	0
 429 01b7 11       		.uleb128 0x11
ARM GAS  C:\Users\TOM~1.MCK\AppData\Local\Temp\ccudFFGk.s 			page 16


 430 01b8 1C000000 		.4byte	.LVL4
 431 01bc 88030000 		.4byte	0x388
 432 01c0 11       		.uleb128 0x11
 433 01c1 24000000 		.4byte	.LVL5
 434 01c5 94030000 		.4byte	0x394
 435 01c9 11       		.uleb128 0x11
 436 01ca 28000000 		.4byte	.LVL6
 437 01ce 9C030000 		.4byte	0x39c
 438 01d2 10       		.uleb128 0x10
 439 01d3 32000000 		.4byte	.LVL7
 440 01d7 A3030000 		.4byte	0x3a3
 441 01db EF010000 		.4byte	0x1ef
 442 01df 0F       		.uleb128 0xf
 443 01e0 01       		.uleb128 0x1
 444 01e1 51       		.byte	0x51
 445 01e2 02       		.uleb128 0x2
 446 01e3 74       		.byte	0x74
 447 01e4 00       		.sleb128 0
 448 01e5 0F       		.uleb128 0xf
 449 01e6 01       		.uleb128 0x1
 450 01e7 50       		.byte	0x50
 451 01e8 05       		.uleb128 0x5
 452 01e9 0C       		.byte	0xc
 453 01ea 40032540 		.4byte	0x40250340
 454 01ee 00       		.byte	0
 455 01ef 10       		.uleb128 0x10
 456 01f0 3C000000 		.4byte	.LVL8
 457 01f4 B9030000 		.4byte	0x3b9
 458 01f8 0C020000 		.4byte	0x20c
 459 01fc 0F       		.uleb128 0xf
 460 01fd 01       		.uleb128 0x1
 461 01fe 51       		.byte	0x51
 462 01ff 02       		.uleb128 0x2
 463 0200 74       		.byte	0x74
 464 0201 20       		.sleb128 32
 465 0202 0F       		.uleb128 0xf
 466 0203 01       		.uleb128 0x1
 467 0204 50       		.byte	0x50
 468 0205 05       		.uleb128 0x5
 469 0206 0C       		.byte	0xc
 470 0207 51000F40 		.4byte	0x400f0051
 471 020b 00       		.byte	0
 472 020c 10       		.uleb128 0x10
 473 020d 46000000 		.4byte	.LVL9
 474 0211 CF030000 		.4byte	0x3cf
 475 0215 2C020000 		.4byte	0x22c
 476 0219 0F       		.uleb128 0xf
 477 021a 01       		.uleb128 0x1
 478 021b 51       		.byte	0x51
 479 021c 05       		.uleb128 0x5
 480 021d 0C       		.byte	0xc
 481 021e 40022540 		.4byte	0x40250240
 482 0222 0F       		.uleb128 0xf
 483 0223 01       		.uleb128 0x1
 484 0224 50       		.byte	0x50
 485 0225 05       		.uleb128 0x5
 486 0226 03       		.byte	0x3
ARM GAS  C:\Users\TOM~1.MCK\AppData\Local\Temp\ccudFFGk.s 			page 17


 487 0227 20000000 		.4byte	.LANCHOR0+32
 488 022b 00       		.byte	0
 489 022c 11       		.uleb128 0x11
 490 022d 4A000000 		.4byte	.LVL10
 491 0231 E5030000 		.4byte	0x3e5
 492 0235 11       		.uleb128 0x11
 493 0236 52000000 		.4byte	.LVL11
 494 023a F0030000 		.4byte	0x3f0
 495 023e 10       		.uleb128 0x10
 496 023f 58000000 		.4byte	.LVL12
 497 0243 01040000 		.4byte	0x401
 498 0247 51020000 		.4byte	0x251
 499 024b 0F       		.uleb128 0xf
 500 024c 01       		.uleb128 0x1
 501 024d 50       		.byte	0x50
 502 024e 01       		.uleb128 0x1
 503 024f 31       		.byte	0x31
 504 0250 00       		.byte	0
 505 0251 10       		.uleb128 0x10
 506 0252 62000000 		.4byte	.LVL13
 507 0256 12040000 		.4byte	0x412
 508 025a 74020000 		.4byte	0x274
 509 025e 0F       		.uleb128 0xf
 510 025f 01       		.uleb128 0x1
 511 0260 52       		.byte	0x52
 512 0261 02       		.uleb128 0x2
 513 0262 08       		.byte	0x8
 514 0263 20       		.byte	0x20
 515 0264 0F       		.uleb128 0xf
 516 0265 01       		.uleb128 0x1
 517 0266 51       		.byte	0x51
 518 0267 05       		.uleb128 0x5
 519 0268 03       		.byte	0x3
 520 0269 00000000 		.4byte	.LANCHOR0
 521 026d 0F       		.uleb128 0xf
 522 026e 01       		.uleb128 0x1
 523 026f 50       		.byte	0x50
 524 0270 02       		.uleb128 0x2
 525 0271 74       		.byte	0x74
 526 0272 00       		.sleb128 0
 527 0273 00       		.byte	0
 528 0274 10       		.uleb128 0x10
 529 0275 6C000000 		.4byte	.LVL14
 530 0279 38040000 		.4byte	0x438
 531 027d 87020000 		.4byte	0x287
 532 0281 0F       		.uleb128 0xf
 533 0282 01       		.uleb128 0x1
 534 0283 50       		.byte	0x50
 535 0284 01       		.uleb128 0x1
 536 0285 30       		.byte	0x30
 537 0286 00       		.byte	0
 538 0287 10       		.uleb128 0x10
 539 0288 7C000000 		.4byte	.LVL15
 540 028c 12040000 		.4byte	0x412
 541 0290 AA020000 		.4byte	0x2aa
 542 0294 0F       		.uleb128 0xf
 543 0295 01       		.uleb128 0x1
ARM GAS  C:\Users\TOM~1.MCK\AppData\Local\Temp\ccudFFGk.s 			page 18


 544 0296 52       		.byte	0x52
 545 0297 02       		.uleb128 0x2
 546 0298 08       		.byte	0x8
 547 0299 20       		.byte	0x20
 548 029a 0F       		.uleb128 0xf
 549 029b 01       		.uleb128 0x1
 550 029c 51       		.byte	0x51
 551 029d 05       		.uleb128 0x5
 552 029e 03       		.byte	0x3
 553 029f 20000000 		.4byte	.LANCHOR0+32
 554 02a3 0F       		.uleb128 0xf
 555 02a4 01       		.uleb128 0x1
 556 02a5 50       		.byte	0x50
 557 02a6 02       		.uleb128 0x2
 558 02a7 74       		.byte	0x74
 559 02a8 20       		.sleb128 32
 560 02a9 00       		.byte	0
 561 02aa 10       		.uleb128 0x10
 562 02ab 86000000 		.4byte	.LVL16
 563 02af 38040000 		.4byte	0x438
 564 02b3 BD020000 		.4byte	0x2bd
 565 02b7 0F       		.uleb128 0xf
 566 02b8 01       		.uleb128 0x1
 567 02b9 50       		.byte	0x50
 568 02ba 01       		.uleb128 0x1
 569 02bb 30       		.byte	0x30
 570 02bc 00       		.byte	0
 571 02bd 0E       		.uleb128 0xe
 572 02be 8E000000 		.4byte	.LVL17
 573 02c2 01040000 		.4byte	0x401
 574 02c6 0F       		.uleb128 0xf
 575 02c7 01       		.uleb128 0x1
 576 02c8 50       		.byte	0x50
 577 02c9 01       		.uleb128 0x1
 578 02ca 30       		.byte	0x30
 579 02cb 00       		.byte	0
 580 02cc 00       		.byte	0
 581 02cd 12       		.uleb128 0x12
 582 02ce 83000000 		.4byte	0x83
 583 02d2 DD020000 		.4byte	0x2dd
 584 02d6 13       		.uleb128 0x13
 585 02d7 DD000000 		.4byte	0xdd
 586 02db 1F       		.byte	0x1f
 587 02dc 00       		.byte	0
 588 02dd 14       		.uleb128 0x14
 589 02de 9A000000 		.4byte	.LASF20
 590 02e2 01       		.byte	0x1
 591 02e3 22       		.byte	0x22
 592 02e4 EE020000 		.4byte	0x2ee
 593 02e8 05       		.uleb128 0x5
 594 02e9 03       		.byte	0x3
 595 02ea 20000000 		.4byte	masterTxBuffer
 596 02ee 15       		.uleb128 0x15
 597 02ef CD020000 		.4byte	0x2cd
 598 02f3 14       		.uleb128 0x14
 599 02f4 A9000000 		.4byte	.LASF21
 600 02f8 01       		.byte	0x1
ARM GAS  C:\Users\TOM~1.MCK\AppData\Local\Temp\ccudFFGk.s 			page 19


 601 02f9 23       		.byte	0x23
 602 02fa CD020000 		.4byte	0x2cd
 603 02fe 05       		.uleb128 0x5
 604 02ff 03       		.byte	0x3
 605 0300 00000000 		.4byte	masterRxBuffer
 606 0304 14       		.uleb128 0x14
 607 0305 C0010000 		.4byte	.LASF22
 608 0309 01       		.byte	0x1
 609 030a 25       		.byte	0x25
 610 030b 15030000 		.4byte	0x315
 611 030f 05       		.uleb128 0x5
 612 0310 03       		.byte	0x3
 613 0311 00000000 		.4byte	slaveTxBuffer
 614 0315 15       		.uleb128 0x15
 615 0316 CD020000 		.4byte	0x2cd
 616 031a 14       		.uleb128 0x14
 617 031b 5B030000 		.4byte	.LASF23
 618 031f 01       		.byte	0x1
 619 0320 26       		.byte	0x26
 620 0321 CD020000 		.4byte	0x2cd
 621 0325 05       		.uleb128 0x5
 622 0326 03       		.byte	0x3
 623 0327 20000000 		.4byte	slaveRxBuffer
 624 032b 16       		.uleb128 0x16
 625 032c 37000000 		.4byte	.LASF24
 626 0330 05       		.byte	0x5
 627 0331 8F       		.byte	0x8f
 628 0332 41030000 		.4byte	0x341
 629 0336 17       		.uleb128 0x17
 630 0337 8F000000 		.4byte	0x8f
 631 033b 17       		.uleb128 0x17
 632 033c 8F000000 		.4byte	0x8f
 633 0340 00       		.byte	0
 634 0341 16       		.uleb128 0x16
 635 0342 8D010000 		.4byte	.LASF25
 636 0346 05       		.byte	0x5
 637 0347 82       		.byte	0x82
 638 0348 52030000 		.4byte	0x352
 639 034c 17       		.uleb128 0x17
 640 034d 8F000000 		.4byte	0x8f
 641 0351 00       		.byte	0
 642 0352 16       		.uleb128 0x16
 643 0353 28030000 		.4byte	.LASF26
 644 0357 06       		.byte	0x6
 645 0358 23       		.byte	0x23
 646 0359 68030000 		.4byte	0x368
 647 035d 17       		.uleb128 0x17
 648 035e E4000000 		.4byte	0xe4
 649 0362 17       		.uleb128 0x17
 650 0363 E4000000 		.4byte	0xe4
 651 0367 00       		.byte	0
 652 0368 18       		.uleb128 0x18
 653 0369 2C000000 		.4byte	.LASF27
 654 036d 07       		.byte	0x7
 655 036e 4B       		.byte	0x4b
 656 036f 18       		.uleb128 0x18
 657 0370 E5010000 		.4byte	.LASF28
ARM GAS  C:\Users\TOM~1.MCK\AppData\Local\Temp\ccudFFGk.s 			page 20


 658 0374 08       		.byte	0x8
 659 0375 6E       		.byte	0x6e
 660 0376 19       		.uleb128 0x19
 661 0377 0D000000 		.4byte	.LASF29
 662 037b 09       		.byte	0x9
 663 037c 3A03     		.2byte	0x33a
 664 037e 88030000 		.4byte	0x388
 665 0382 17       		.uleb128 0x17
 666 0383 77000000 		.4byte	0x77
 667 0387 00       		.byte	0
 668 0388 1A       		.uleb128 0x1a
 669 0389 48010000 		.4byte	.LASF35
 670 038d 09       		.byte	0x9
 671 038e 3403     		.2byte	0x334
 672 0390 77000000 		.4byte	0x77
 673 0394 1B       		.uleb128 0x1b
 674 0395 CB000000 		.4byte	.LASF30
 675 0399 09       		.byte	0x9
 676 039a 3503     		.2byte	0x335
 677 039c 18       		.uleb128 0x18
 678 039d B8000000 		.4byte	.LASF31
 679 03a1 07       		.byte	0x7
 680 03a2 5F       		.byte	0x5f
 681 03a3 16       		.uleb128 0x16
 682 03a4 64010000 		.4byte	.LASF32
 683 03a8 0A       		.byte	0xa
 684 03a9 23       		.byte	0x23
 685 03aa B9030000 		.4byte	0x3b9
 686 03ae 17       		.uleb128 0x17
 687 03af E4000000 		.4byte	0xe4
 688 03b3 17       		.uleb128 0x17
 689 03b4 E4000000 		.4byte	0xe4
 690 03b8 00       		.byte	0
 691 03b9 16       		.uleb128 0x16
 692 03ba 00000000 		.4byte	.LASF33
 693 03be 0B       		.byte	0xb
 694 03bf 23       		.byte	0x23
 695 03c0 CF030000 		.4byte	0x3cf
 696 03c4 17       		.uleb128 0x17
 697 03c5 E4000000 		.4byte	0xe4
 698 03c9 17       		.uleb128 0x17
 699 03ca E4000000 		.4byte	0xe4
 700 03ce 00       		.byte	0
 701 03cf 16       		.uleb128 0x16
 702 03d0 3B010000 		.4byte	.LASF34
 703 03d4 02       		.byte	0x2
 704 03d5 23       		.byte	0x23
 705 03d6 E5030000 		.4byte	0x3e5
 706 03da 17       		.uleb128 0x17
 707 03db E4000000 		.4byte	0xe4
 708 03df 17       		.uleb128 0x17
 709 03e0 E4000000 		.4byte	0xe4
 710 03e4 00       		.byte	0
 711 03e5 1C       		.uleb128 0x1c
 712 03e6 4F000000 		.4byte	.LASF36
 713 03ea 05       		.byte	0x5
 714 03eb 78       		.byte	0x78
ARM GAS  C:\Users\TOM~1.MCK\AppData\Local\Temp\ccudFFGk.s 			page 21


 715 03ec 77000000 		.4byte	0x77
 716 03f0 16       		.uleb128 0x16
 717 03f1 6D000000 		.4byte	.LASF37
 718 03f5 05       		.byte	0x5
 719 03f6 77       		.byte	0x77
 720 03f7 01040000 		.4byte	0x401
 721 03fb 17       		.uleb128 0x17
 722 03fc 77000000 		.4byte	0x77
 723 0400 00       		.byte	0
 724 0401 16       		.uleb128 0x16
 725 0402 69030000 		.4byte	.LASF38
 726 0406 0C       		.byte	0xc
 727 0407 33       		.byte	0x33
 728 0408 12040000 		.4byte	0x412
 729 040c 17       		.uleb128 0x17
 730 040d 6B000000 		.4byte	0x6b
 731 0411 00       		.byte	0
 732 0412 1D       		.uleb128 0x1d
 733 0413 71010000 		.4byte	.LASF46
 734 0417 0D       		.byte	0xd
 735 0418 16       		.byte	0x16
 736 0419 5D000000 		.4byte	0x5d
 737 041d 31040000 		.4byte	0x431
 738 0421 17       		.uleb128 0x17
 739 0422 31040000 		.4byte	0x431
 740 0426 17       		.uleb128 0x17
 741 0427 31040000 		.4byte	0x431
 742 042b 17       		.uleb128 0x17
 743 042c D2000000 		.4byte	0xd2
 744 0430 00       		.byte	0
 745 0431 1E       		.uleb128 0x1e
 746 0432 04       		.byte	0x4
 747 0433 37040000 		.4byte	0x437
 748 0437 1F       		.uleb128 0x1f
 749 0438 20       		.uleb128 0x20
 750 0439 9B010000 		.4byte	.LASF47
 751 043d 0E       		.byte	0xe
 752 043e 33       		.byte	0x33
 753 043f 17       		.uleb128 0x17
 754 0440 6B000000 		.4byte	0x6b
 755 0444 00       		.byte	0
 756 0445 00       		.byte	0
 757              		.section	.debug_abbrev,"",%progbits
 758              	.Ldebug_abbrev0:
 759 0000 01       		.uleb128 0x1
 760 0001 11       		.uleb128 0x11
 761 0002 01       		.byte	0x1
 762 0003 25       		.uleb128 0x25
 763 0004 0E       		.uleb128 0xe
 764 0005 13       		.uleb128 0x13
 765 0006 0B       		.uleb128 0xb
 766 0007 03       		.uleb128 0x3
 767 0008 0E       		.uleb128 0xe
 768 0009 1B       		.uleb128 0x1b
 769 000a 0E       		.uleb128 0xe
 770 000b 55       		.uleb128 0x55
 771 000c 17       		.uleb128 0x17
ARM GAS  C:\Users\TOM~1.MCK\AppData\Local\Temp\ccudFFGk.s 			page 22


 772 000d 11       		.uleb128 0x11
 773 000e 01       		.uleb128 0x1
 774 000f 10       		.uleb128 0x10
 775 0010 17       		.uleb128 0x17
 776 0011 00       		.byte	0
 777 0012 00       		.byte	0
 778 0013 02       		.uleb128 0x2
 779 0014 24       		.uleb128 0x24
 780 0015 00       		.byte	0
 781 0016 0B       		.uleb128 0xb
 782 0017 0B       		.uleb128 0xb
 783 0018 3E       		.uleb128 0x3e
 784 0019 0B       		.uleb128 0xb
 785 001a 03       		.uleb128 0x3
 786 001b 0E       		.uleb128 0xe
 787 001c 00       		.byte	0
 788 001d 00       		.byte	0
 789 001e 03       		.uleb128 0x3
 790 001f 24       		.uleb128 0x24
 791 0020 00       		.byte	0
 792 0021 0B       		.uleb128 0xb
 793 0022 0B       		.uleb128 0xb
 794 0023 3E       		.uleb128 0x3e
 795 0024 0B       		.uleb128 0xb
 796 0025 03       		.uleb128 0x3
 797 0026 08       		.uleb128 0x8
 798 0027 00       		.byte	0
 799 0028 00       		.byte	0
 800 0029 04       		.uleb128 0x4
 801 002a 16       		.uleb128 0x16
 802 002b 00       		.byte	0
 803 002c 03       		.uleb128 0x3
 804 002d 0E       		.uleb128 0xe
 805 002e 3A       		.uleb128 0x3a
 806 002f 0B       		.uleb128 0xb
 807 0030 3B       		.uleb128 0x3b
 808 0031 05       		.uleb128 0x5
 809 0032 49       		.uleb128 0x49
 810 0033 13       		.uleb128 0x13
 811 0034 00       		.byte	0
 812 0035 00       		.byte	0
 813 0036 05       		.uleb128 0x5
 814 0037 35       		.uleb128 0x35
 815 0038 00       		.byte	0
 816 0039 49       		.uleb128 0x49
 817 003a 13       		.uleb128 0x13
 818 003b 00       		.byte	0
 819 003c 00       		.byte	0
 820 003d 06       		.uleb128 0x6
 821 003e 16       		.uleb128 0x16
 822 003f 00       		.byte	0
 823 0040 03       		.uleb128 0x3
 824 0041 0E       		.uleb128 0xe
 825 0042 3A       		.uleb128 0x3a
 826 0043 0B       		.uleb128 0xb
 827 0044 3B       		.uleb128 0x3b
 828 0045 0B       		.uleb128 0xb
ARM GAS  C:\Users\TOM~1.MCK\AppData\Local\Temp\ccudFFGk.s 			page 23


 829 0046 49       		.uleb128 0x49
 830 0047 13       		.uleb128 0x13
 831 0048 00       		.byte	0
 832 0049 00       		.byte	0
 833 004a 07       		.uleb128 0x7
 834 004b 0F       		.uleb128 0xf
 835 004c 00       		.byte	0
 836 004d 0B       		.uleb128 0xb
 837 004e 0B       		.uleb128 0xb
 838 004f 00       		.byte	0
 839 0050 00       		.byte	0
 840 0051 08       		.uleb128 0x8
 841 0052 2E       		.uleb128 0x2e
 842 0053 01       		.byte	0x1
 843 0054 03       		.uleb128 0x3
 844 0055 0E       		.uleb128 0xe
 845 0056 3A       		.uleb128 0x3a
 846 0057 0B       		.uleb128 0xb
 847 0058 3B       		.uleb128 0x3b
 848 0059 05       		.uleb128 0x5
 849 005a 27       		.uleb128 0x27
 850 005b 19       		.uleb128 0x19
 851 005c 20       		.uleb128 0x20
 852 005d 0B       		.uleb128 0xb
 853 005e 01       		.uleb128 0x1
 854 005f 13       		.uleb128 0x13
 855 0060 00       		.byte	0
 856 0061 00       		.byte	0
 857 0062 09       		.uleb128 0x9
 858 0063 05       		.uleb128 0x5
 859 0064 00       		.byte	0
 860 0065 03       		.uleb128 0x3
 861 0066 0E       		.uleb128 0xe
 862 0067 3A       		.uleb128 0x3a
 863 0068 0B       		.uleb128 0xb
 864 0069 3B       		.uleb128 0x3b
 865 006a 05       		.uleb128 0x5
 866 006b 49       		.uleb128 0x49
 867 006c 13       		.uleb128 0x13
 868 006d 00       		.byte	0
 869 006e 00       		.byte	0
 870 006f 0A       		.uleb128 0xa
 871 0070 2E       		.uleb128 0x2e
 872 0071 00       		.byte	0
 873 0072 03       		.uleb128 0x3
 874 0073 0E       		.uleb128 0xe
 875 0074 3A       		.uleb128 0x3a
 876 0075 0B       		.uleb128 0xb
 877 0076 3B       		.uleb128 0x3b
 878 0077 0B       		.uleb128 0xb
 879 0078 27       		.uleb128 0x27
 880 0079 19       		.uleb128 0x19
 881 007a 20       		.uleb128 0x20
 882 007b 0B       		.uleb128 0xb
 883 007c 00       		.byte	0
 884 007d 00       		.byte	0
 885 007e 0B       		.uleb128 0xb
ARM GAS  C:\Users\TOM~1.MCK\AppData\Local\Temp\ccudFFGk.s 			page 24


 886 007f 2E       		.uleb128 0x2e
 887 0080 01       		.byte	0x1
 888 0081 3F       		.uleb128 0x3f
 889 0082 19       		.uleb128 0x19
 890 0083 03       		.uleb128 0x3
 891 0084 0E       		.uleb128 0xe
 892 0085 3A       		.uleb128 0x3a
 893 0086 0B       		.uleb128 0xb
 894 0087 3B       		.uleb128 0x3b
 895 0088 0B       		.uleb128 0xb
 896 0089 49       		.uleb128 0x49
 897 008a 13       		.uleb128 0x13
 898 008b 11       		.uleb128 0x11
 899 008c 01       		.uleb128 0x1
 900 008d 12       		.uleb128 0x12
 901 008e 06       		.uleb128 0x6
 902 008f 40       		.uleb128 0x40
 903 0090 18       		.uleb128 0x18
 904 0091 9742     		.uleb128 0x2117
 905 0093 19       		.uleb128 0x19
 906 0094 01       		.uleb128 0x1
 907 0095 13       		.uleb128 0x13
 908 0096 00       		.byte	0
 909 0097 00       		.byte	0
 910 0098 0C       		.uleb128 0xc
 911 0099 1D       		.uleb128 0x1d
 912 009a 01       		.byte	0x1
 913 009b 31       		.uleb128 0x31
 914 009c 13       		.uleb128 0x13
 915 009d 11       		.uleb128 0x11
 916 009e 01       		.uleb128 0x1
 917 009f 12       		.uleb128 0x12
 918 00a0 06       		.uleb128 0x6
 919 00a1 58       		.uleb128 0x58
 920 00a2 0B       		.uleb128 0xb
 921 00a3 59       		.uleb128 0x59
 922 00a4 0B       		.uleb128 0xb
 923 00a5 01       		.uleb128 0x1
 924 00a6 13       		.uleb128 0x13
 925 00a7 00       		.byte	0
 926 00a8 00       		.byte	0
 927 00a9 0D       		.uleb128 0xd
 928 00aa 05       		.uleb128 0x5
 929 00ab 00       		.byte	0
 930 00ac 31       		.uleb128 0x31
 931 00ad 13       		.uleb128 0x13
 932 00ae 1C       		.uleb128 0x1c
 933 00af 0B       		.uleb128 0xb
 934 00b0 00       		.byte	0
 935 00b1 00       		.byte	0
 936 00b2 0E       		.uleb128 0xe
 937 00b3 898201   		.uleb128 0x4109
 938 00b6 01       		.byte	0x1
 939 00b7 11       		.uleb128 0x11
 940 00b8 01       		.uleb128 0x1
 941 00b9 31       		.uleb128 0x31
 942 00ba 13       		.uleb128 0x13
ARM GAS  C:\Users\TOM~1.MCK\AppData\Local\Temp\ccudFFGk.s 			page 25


 943 00bb 00       		.byte	0
 944 00bc 00       		.byte	0
 945 00bd 0F       		.uleb128 0xf
 946 00be 8A8201   		.uleb128 0x410a
 947 00c1 00       		.byte	0
 948 00c2 02       		.uleb128 0x2
 949 00c3 18       		.uleb128 0x18
 950 00c4 9142     		.uleb128 0x2111
 951 00c6 18       		.uleb128 0x18
 952 00c7 00       		.byte	0
 953 00c8 00       		.byte	0
 954 00c9 10       		.uleb128 0x10
 955 00ca 898201   		.uleb128 0x4109
 956 00cd 01       		.byte	0x1
 957 00ce 11       		.uleb128 0x11
 958 00cf 01       		.uleb128 0x1
 959 00d0 31       		.uleb128 0x31
 960 00d1 13       		.uleb128 0x13
 961 00d2 01       		.uleb128 0x1
 962 00d3 13       		.uleb128 0x13
 963 00d4 00       		.byte	0
 964 00d5 00       		.byte	0
 965 00d6 11       		.uleb128 0x11
 966 00d7 898201   		.uleb128 0x4109
 967 00da 00       		.byte	0
 968 00db 11       		.uleb128 0x11
 969 00dc 01       		.uleb128 0x1
 970 00dd 31       		.uleb128 0x31
 971 00de 13       		.uleb128 0x13
 972 00df 00       		.byte	0
 973 00e0 00       		.byte	0
 974 00e1 12       		.uleb128 0x12
 975 00e2 01       		.uleb128 0x1
 976 00e3 01       		.byte	0x1
 977 00e4 49       		.uleb128 0x49
 978 00e5 13       		.uleb128 0x13
 979 00e6 01       		.uleb128 0x1
 980 00e7 13       		.uleb128 0x13
 981 00e8 00       		.byte	0
 982 00e9 00       		.byte	0
 983 00ea 13       		.uleb128 0x13
 984 00eb 21       		.uleb128 0x21
 985 00ec 00       		.byte	0
 986 00ed 49       		.uleb128 0x49
 987 00ee 13       		.uleb128 0x13
 988 00ef 2F       		.uleb128 0x2f
 989 00f0 0B       		.uleb128 0xb
 990 00f1 00       		.byte	0
 991 00f2 00       		.byte	0
 992 00f3 14       		.uleb128 0x14
 993 00f4 34       		.uleb128 0x34
 994 00f5 00       		.byte	0
 995 00f6 03       		.uleb128 0x3
 996 00f7 0E       		.uleb128 0xe
 997 00f8 3A       		.uleb128 0x3a
 998 00f9 0B       		.uleb128 0xb
 999 00fa 3B       		.uleb128 0x3b
ARM GAS  C:\Users\TOM~1.MCK\AppData\Local\Temp\ccudFFGk.s 			page 26


 1000 00fb 0B       		.uleb128 0xb
 1001 00fc 49       		.uleb128 0x49
 1002 00fd 13       		.uleb128 0x13
 1003 00fe 02       		.uleb128 0x2
 1004 00ff 18       		.uleb128 0x18
 1005 0100 00       		.byte	0
 1006 0101 00       		.byte	0
 1007 0102 15       		.uleb128 0x15
 1008 0103 26       		.uleb128 0x26
 1009 0104 00       		.byte	0
 1010 0105 49       		.uleb128 0x49
 1011 0106 13       		.uleb128 0x13
 1012 0107 00       		.byte	0
 1013 0108 00       		.byte	0
 1014 0109 16       		.uleb128 0x16
 1015 010a 2E       		.uleb128 0x2e
 1016 010b 01       		.byte	0x1
 1017 010c 3F       		.uleb128 0x3f
 1018 010d 19       		.uleb128 0x19
 1019 010e 03       		.uleb128 0x3
 1020 010f 0E       		.uleb128 0xe
 1021 0110 3A       		.uleb128 0x3a
 1022 0111 0B       		.uleb128 0xb
 1023 0112 3B       		.uleb128 0x3b
 1024 0113 0B       		.uleb128 0xb
 1025 0114 27       		.uleb128 0x27
 1026 0115 19       		.uleb128 0x19
 1027 0116 3C       		.uleb128 0x3c
 1028 0117 19       		.uleb128 0x19
 1029 0118 01       		.uleb128 0x1
 1030 0119 13       		.uleb128 0x13
 1031 011a 00       		.byte	0
 1032 011b 00       		.byte	0
 1033 011c 17       		.uleb128 0x17
 1034 011d 05       		.uleb128 0x5
 1035 011e 00       		.byte	0
 1036 011f 49       		.uleb128 0x49
 1037 0120 13       		.uleb128 0x13
 1038 0121 00       		.byte	0
 1039 0122 00       		.byte	0
 1040 0123 18       		.uleb128 0x18
 1041 0124 2E       		.uleb128 0x2e
 1042 0125 00       		.byte	0
 1043 0126 3F       		.uleb128 0x3f
 1044 0127 19       		.uleb128 0x19
 1045 0128 03       		.uleb128 0x3
 1046 0129 0E       		.uleb128 0xe
 1047 012a 3A       		.uleb128 0x3a
 1048 012b 0B       		.uleb128 0xb
 1049 012c 3B       		.uleb128 0x3b
 1050 012d 0B       		.uleb128 0xb
 1051 012e 27       		.uleb128 0x27
 1052 012f 19       		.uleb128 0x19
 1053 0130 3C       		.uleb128 0x3c
 1054 0131 19       		.uleb128 0x19
 1055 0132 00       		.byte	0
 1056 0133 00       		.byte	0
ARM GAS  C:\Users\TOM~1.MCK\AppData\Local\Temp\ccudFFGk.s 			page 27


 1057 0134 19       		.uleb128 0x19
 1058 0135 2E       		.uleb128 0x2e
 1059 0136 01       		.byte	0x1
 1060 0137 3F       		.uleb128 0x3f
 1061 0138 19       		.uleb128 0x19
 1062 0139 03       		.uleb128 0x3
 1063 013a 0E       		.uleb128 0xe
 1064 013b 3A       		.uleb128 0x3a
 1065 013c 0B       		.uleb128 0xb
 1066 013d 3B       		.uleb128 0x3b
 1067 013e 05       		.uleb128 0x5
 1068 013f 27       		.uleb128 0x27
 1069 0140 19       		.uleb128 0x19
 1070 0141 3C       		.uleb128 0x3c
 1071 0142 19       		.uleb128 0x19
 1072 0143 01       		.uleb128 0x1
 1073 0144 13       		.uleb128 0x13
 1074 0145 00       		.byte	0
 1075 0146 00       		.byte	0
 1076 0147 1A       		.uleb128 0x1a
 1077 0148 2E       		.uleb128 0x2e
 1078 0149 00       		.byte	0
 1079 014a 3F       		.uleb128 0x3f
 1080 014b 19       		.uleb128 0x19
 1081 014c 03       		.uleb128 0x3
 1082 014d 0E       		.uleb128 0xe
 1083 014e 3A       		.uleb128 0x3a
 1084 014f 0B       		.uleb128 0xb
 1085 0150 3B       		.uleb128 0x3b
 1086 0151 05       		.uleb128 0x5
 1087 0152 27       		.uleb128 0x27
 1088 0153 19       		.uleb128 0x19
 1089 0154 49       		.uleb128 0x49
 1090 0155 13       		.uleb128 0x13
 1091 0156 3C       		.uleb128 0x3c
 1092 0157 19       		.uleb128 0x19
 1093 0158 00       		.byte	0
 1094 0159 00       		.byte	0
 1095 015a 1B       		.uleb128 0x1b
 1096 015b 2E       		.uleb128 0x2e
 1097 015c 00       		.byte	0
 1098 015d 3F       		.uleb128 0x3f
 1099 015e 19       		.uleb128 0x19
 1100 015f 03       		.uleb128 0x3
 1101 0160 0E       		.uleb128 0xe
 1102 0161 3A       		.uleb128 0x3a
 1103 0162 0B       		.uleb128 0xb
 1104 0163 3B       		.uleb128 0x3b
 1105 0164 05       		.uleb128 0x5
 1106 0165 27       		.uleb128 0x27
 1107 0166 19       		.uleb128 0x19
 1108 0167 3C       		.uleb128 0x3c
 1109 0168 19       		.uleb128 0x19
 1110 0169 00       		.byte	0
 1111 016a 00       		.byte	0
 1112 016b 1C       		.uleb128 0x1c
 1113 016c 2E       		.uleb128 0x2e
ARM GAS  C:\Users\TOM~1.MCK\AppData\Local\Temp\ccudFFGk.s 			page 28


 1114 016d 00       		.byte	0
 1115 016e 3F       		.uleb128 0x3f
 1116 016f 19       		.uleb128 0x19
 1117 0170 03       		.uleb128 0x3
 1118 0171 0E       		.uleb128 0xe
 1119 0172 3A       		.uleb128 0x3a
 1120 0173 0B       		.uleb128 0xb
 1121 0174 3B       		.uleb128 0x3b
 1122 0175 0B       		.uleb128 0xb
 1123 0176 27       		.uleb128 0x27
 1124 0177 19       		.uleb128 0x19
 1125 0178 49       		.uleb128 0x49
 1126 0179 13       		.uleb128 0x13
 1127 017a 3C       		.uleb128 0x3c
 1128 017b 19       		.uleb128 0x19
 1129 017c 00       		.byte	0
 1130 017d 00       		.byte	0
 1131 017e 1D       		.uleb128 0x1d
 1132 017f 2E       		.uleb128 0x2e
 1133 0180 01       		.byte	0x1
 1134 0181 3F       		.uleb128 0x3f
 1135 0182 19       		.uleb128 0x19
 1136 0183 03       		.uleb128 0x3
 1137 0184 0E       		.uleb128 0xe
 1138 0185 3A       		.uleb128 0x3a
 1139 0186 0B       		.uleb128 0xb
 1140 0187 3B       		.uleb128 0x3b
 1141 0188 0B       		.uleb128 0xb
 1142 0189 27       		.uleb128 0x27
 1143 018a 19       		.uleb128 0x19
 1144 018b 49       		.uleb128 0x49
 1145 018c 13       		.uleb128 0x13
 1146 018d 3C       		.uleb128 0x3c
 1147 018e 19       		.uleb128 0x19
 1148 018f 01       		.uleb128 0x1
 1149 0190 13       		.uleb128 0x13
 1150 0191 00       		.byte	0
 1151 0192 00       		.byte	0
 1152 0193 1E       		.uleb128 0x1e
 1153 0194 0F       		.uleb128 0xf
 1154 0195 00       		.byte	0
 1155 0196 0B       		.uleb128 0xb
 1156 0197 0B       		.uleb128 0xb
 1157 0198 49       		.uleb128 0x49
 1158 0199 13       		.uleb128 0x13
 1159 019a 00       		.byte	0
 1160 019b 00       		.byte	0
 1161 019c 1F       		.uleb128 0x1f
 1162 019d 26       		.uleb128 0x26
 1163 019e 00       		.byte	0
 1164 019f 00       		.byte	0
 1165 01a0 00       		.byte	0
 1166 01a1 20       		.uleb128 0x20
 1167 01a2 2E       		.uleb128 0x2e
 1168 01a3 01       		.byte	0x1
 1169 01a4 3F       		.uleb128 0x3f
 1170 01a5 19       		.uleb128 0x19
ARM GAS  C:\Users\TOM~1.MCK\AppData\Local\Temp\ccudFFGk.s 			page 29


 1171 01a6 03       		.uleb128 0x3
 1172 01a7 0E       		.uleb128 0xe
 1173 01a8 3A       		.uleb128 0x3a
 1174 01a9 0B       		.uleb128 0xb
 1175 01aa 3B       		.uleb128 0x3b
 1176 01ab 0B       		.uleb128 0xb
 1177 01ac 27       		.uleb128 0x27
 1178 01ad 19       		.uleb128 0x19
 1179 01ae 3C       		.uleb128 0x3c
 1180 01af 19       		.uleb128 0x19
 1181 01b0 00       		.byte	0
 1182 01b1 00       		.byte	0
 1183 01b2 00       		.byte	0
 1184              		.section	.debug_aranges,"",%progbits
 1185 0000 1C000000 		.4byte	0x1c
 1186 0004 0200     		.2byte	0x2
 1187 0006 00000000 		.4byte	.Ldebug_info0
 1188 000a 04       		.byte	0x4
 1189 000b 00       		.byte	0
 1190 000c 0000     		.2byte	0
 1191 000e 0000     		.2byte	0
 1192 0010 00000000 		.4byte	.LFB165
 1193 0014 DC000000 		.4byte	.LFE165-.LFB165
 1194 0018 00000000 		.4byte	0
 1195 001c 00000000 		.4byte	0
 1196              		.section	.debug_ranges,"",%progbits
 1197              	.Ldebug_ranges0:
 1198 0000 00000000 		.4byte	.LFB165
 1199 0004 DC000000 		.4byte	.LFE165
 1200 0008 00000000 		.4byte	0
 1201 000c 00000000 		.4byte	0
 1202              		.section	.debug_line,"",%progbits
 1203              	.Ldebug_line0:
 1204 0000 F3010000 		.section	.debug_str,"MS",%progbits,1
 1204      0200B301 
 1204      00000201 
 1204      FB0E0D00 
 1204      01010101 
 1205              	.LASF33:
 1206 0000 5278446D 		.ascii	"RxDmaS_Start\000"
 1206      61535F53 
 1206      74617274 
 1206      00
 1207              	.LASF29:
 1208 000d 5350494D 		.ascii	"SPIM_SpiUartWriteTxData\000"
 1208      5F537069 
 1208      55617274 
 1208      57726974 
 1208      65547844 
 1209              	.LASF18:
 1210 0025 73697A65 		.ascii	"size_t\000"
 1210      5F7400
 1211              	.LASF27:
 1212 002c 53504953 		.ascii	"SPIS_Start\000"
 1212      5F537461 
 1212      727400
 1213              	.LASF24:
ARM GAS  C:\Users\TOM~1.MCK\AppData\Local\Temp\ccudFFGk.s 			page 30


 1214 0037 4379446D 		.ascii	"CyDmaValidateDescriptor\000"
 1214      6156616C 
 1214      69646174 
 1214      65446573 
 1214      63726970 
 1215              	.LASF36:
 1216 004f 4379446D 		.ascii	"CyDmaGetInterruptSourceMasked\000"
 1216      61476574 
 1216      496E7465 
 1216      72727570 
 1216      74536F75 
 1217              	.LASF37:
 1218 006d 4379446D 		.ascii	"CyDmaClearInterruptSource\000"
 1218      61436C65 
 1218      6172496E 
 1218      74657272 
 1218      75707453 
 1219              	.LASF3:
 1220 0087 73686F72 		.ascii	"short unsigned int\000"
 1220      7420756E 
 1220      7369676E 
 1220      65642069 
 1220      6E7400
 1221              	.LASF20:
 1222 009a 6D617374 		.ascii	"masterTxBuffer\000"
 1222      65725478 
 1222      42756666 
 1222      657200
 1223              	.LASF21:
 1224 00a9 6D617374 		.ascii	"masterRxBuffer\000"
 1224      65725278 
 1224      42756666 
 1224      657200
 1225              	.LASF31:
 1226 00b8 53504953 		.ascii	"SPIS_ClearRxBuffer\000"
 1226      5F436C65 
 1226      61725278 
 1226      42756666 
 1226      657200
 1227              	.LASF30:
 1228 00cb 5350494D 		.ascii	"SPIM_SpiUartClearRxBuffer\000"
 1228      5F537069 
 1228      55617274 
 1228      436C6561 
 1228      72527842 
 1229              	.LASF13:
 1230 00e5 666C6F61 		.ascii	"float\000"
 1230      7400
 1231              	.LASF1:
 1232 00eb 756E7369 		.ascii	"unsigned char\000"
 1232      676E6564 
 1232      20636861 
 1232      7200
 1233              	.LASF42:
 1234 00f9 5478446D 		.ascii	"TxDmaM_ValidateDescriptor\000"
 1234      614D5F56 
 1234      616C6964 
ARM GAS  C:\Users\TOM~1.MCK\AppData\Local\Temp\ccudFFGk.s 			page 31


 1234      61746544 
 1234      65736372 
 1235              	.LASF44:
 1236 0113 5478446D 		.ascii	"TxDmaM_ChEnable\000"
 1236      614D5F43 
 1236      68456E61 
 1236      626C6500 
 1237              	.LASF5:
 1238 0123 6C6F6E67 		.ascii	"long unsigned int\000"
 1238      20756E73 
 1238      69676E65 
 1238      6420696E 
 1238      7400
 1239              	.LASF12:
 1240 0135 696E7433 		.ascii	"int32\000"
 1240      3200
 1241              	.LASF34:
 1242 013b 5478446D 		.ascii	"TxDmaM_Start\000"
 1242      614D5F53 
 1242      74617274 
 1242      00
 1243              	.LASF35:
 1244 0148 5350494D 		.ascii	"SPIM_SpiUartGetRxBufferSize\000"
 1244      5F537069 
 1244      55617274 
 1244      47657452 
 1244      78427566 
 1245              	.LASF32:
 1246 0164 5278446D 		.ascii	"RxDmaM_Start\000"
 1246      614D5F53 
 1246      74617274 
 1246      00
 1247              	.LASF46:
 1248 0171 6D656D63 		.ascii	"memcmp\000"
 1248      6D7000
 1249              	.LASF14:
 1250 0178 646F7562 		.ascii	"double\000"
 1250      6C6500
 1251              	.LASF11:
 1252 017f 696E7438 		.ascii	"int8\000"
 1252      00
 1253              	.LASF40:
 1254 0184 2E5C6D61 		.ascii	".\\main.c\000"
 1254      696E2E63 
 1254      00
 1255              	.LASF25:
 1256 018d 4379446D 		.ascii	"CyDmaChEnable\000"
 1256      61436845 
 1256      6E61626C 
 1256      6500
 1257              	.LASF47:
 1258 019b 4552524F 		.ascii	"ERROR_Write\000"
 1258      525F5772 
 1258      69746500 
 1259              	.LASF10:
 1260 01a7 75696E74 		.ascii	"uint32\000"
 1260      333200
ARM GAS  C:\Users\TOM~1.MCK\AppData\Local\Temp\ccudFFGk.s 			page 32


 1261              	.LASF45:
 1262 01ae 6D61696E 		.ascii	"main\000"
 1262      00
 1263              	.LASF8:
 1264 01b3 756E7369 		.ascii	"unsigned int\000"
 1264      676E6564 
 1264      20696E74 
 1264      00
 1265              	.LASF22:
 1266 01c0 736C6176 		.ascii	"slaveTxBuffer\000"
 1266      65547842 
 1266      75666665 
 1266      7200
 1267              	.LASF7:
 1268 01ce 6C6F6E67 		.ascii	"long long unsigned int\000"
 1268      206C6F6E 
 1268      6720756E 
 1268      7369676E 
 1268      65642069 
 1269              	.LASF28:
 1270 01e5 5350494D 		.ascii	"SPIM_Start\000"
 1270      5F537461 
 1270      727400
 1271              	.LASF41:
 1272 01f0 433A5C55 		.ascii	"C:\\Users\\Tom.McKay\\Documents\\PacificAveResearch"
 1272      73657273 
 1272      5C546F6D 
 1272      2E4D634B 
 1272      61795C44 
 1273 021f 5C70726F 		.ascii	"\\projects\\fall2016_waffle_prototype\\DMA_SPI_PSoC"
 1273      6A656374 
 1273      735C6661 
 1273      6C6C3230 
 1273      31365F77 
 1274 024f 3430315C 		.ascii	"401\\DMA_SPI_PSoC401.cydsn\000"
 1274      444D415F 
 1274      5350495F 
 1274      50536F43 
 1274      3430312E 
 1275              	.LASF16:
 1276 0269 72656738 		.ascii	"reg8\000"
 1276      00
 1277              	.LASF19:
 1278 026e 73697A65 		.ascii	"sizetype\000"
 1278      74797065 
 1278      00
 1279              	.LASF6:
 1280 0277 6C6F6E67 		.ascii	"long long int\000"
 1280      206C6F6E 
 1280      6720696E 
 1280      7400
 1281              	.LASF15:
 1282 0285 63686172 		.ascii	"char\000"
 1282      00
 1283              	.LASF39:
 1284 028a 474E5520 		.ascii	"GNU C 4.9.3 20150303 (release) [ARM/embedded-4_9-br"
 1284      4320342E 
ARM GAS  C:\Users\TOM~1.MCK\AppData\Local\Temp\ccudFFGk.s 			page 33


 1284      392E3320 
 1284      32303135 
 1284      30333033 
 1285 02bd 616E6368 		.ascii	"anch revision 221220] -mcpu=cortex-m0 -mthumb -g -O"
 1285      20726576 
 1285      6973696F 
 1285      6E203232 
 1285      31323230 
 1286 02f0 67202D66 		.ascii	"g -ffunction-sections -ffat-lto-objects\000"
 1286      66756E63 
 1286      74696F6E 
 1286      2D736563 
 1286      74696F6E 
 1287              	.LASF2:
 1288 0318 73686F72 		.ascii	"short int\000"
 1288      7420696E 
 1288      7400
 1289              	.LASF9:
 1290 0322 75696E74 		.ascii	"uint8\000"
 1290      3800
 1291              	.LASF26:
 1292 0328 5478446D 		.ascii	"TxDmaS_Start\000"
 1292      61535F53 
 1292      74617274 
 1292      00
 1293              	.LASF4:
 1294 0335 6C6F6E67 		.ascii	"long int\000"
 1294      20696E74 
 1294      00
 1295              	.LASF17:
 1296 033e 72656733 		.ascii	"reg32\000"
 1296      3200
 1297              	.LASF43:
 1298 0344 64657363 		.ascii	"descriptor\000"
 1298      72697074 
 1298      6F7200
 1299              	.LASF0:
 1300 034f 7369676E 		.ascii	"signed char\000"
 1300      65642063 
 1300      68617200 
 1301              	.LASF23:
 1302 035b 736C6176 		.ascii	"slaveRxBuffer\000"
 1302      65527842 
 1302      75666665 
 1302      7200
 1303              	.LASF38:
 1304 0369 53554343 		.ascii	"SUCCESS_Write\000"
 1304      4553535F 
 1304      57726974 
 1304      6500
 1305              		.ident	"GCC: (GNU Tools for ARM Embedded Processors) 4.9.3 20150303 (release) [ARM/embedded-4_9-br
