ARM GAS  C:\Users\TOM~1.MCK\AppData\Local\Temp\cc9DiSGE.s 			page 1


   1              		.cpu cortex-m0
   2              		.fpu softvfp
   3              		.eabi_attribute 20, 1
   4              		.eabi_attribute 21, 1
   5              		.eabi_attribute 23, 3
   6              		.eabi_attribute 24, 1
   7              		.eabi_attribute 25, 1
   8              		.eabi_attribute 26, 1
   9              		.eabi_attribute 30, 1
  10              		.eabi_attribute 34, 0
  11              		.eabi_attribute 18, 4
  12              		.code	16
  13              		.file	"RxDmaS.c"
  14              		.text
  15              	.Ltext0:
  16              		.cfi_sections	.debug_frame
  17              		.section	.text.RxDmaS_Init,"ax",%progbits
  18              		.align	2
  19              		.global	RxDmaS_Init
  20              		.code	16
  21              		.thumb_func
  22              		.type	RxDmaS_Init, %function
  23              	RxDmaS_Init:
  24              	.LFB33:
  25              		.file 1 ".\\Generated_Source\\PSoC4\\RxDmaS.c"
   1:.\Generated_Source\PSoC4/RxDmaS.c **** /*******************************************************************************
   2:.\Generated_Source\PSoC4/RxDmaS.c **** * File Name: RxDmaS.h
   3:.\Generated_Source\PSoC4/RxDmaS.c **** * Version 1.0
   4:.\Generated_Source\PSoC4/RxDmaS.c **** *
   5:.\Generated_Source\PSoC4/RxDmaS.c **** * Description:
   6:.\Generated_Source\PSoC4/RxDmaS.c **** *  This file contains all of the channel DMA API functions.
   7:.\Generated_Source\PSoC4/RxDmaS.c **** *
   8:.\Generated_Source\PSoC4/RxDmaS.c **** ********************************************************************************
   9:.\Generated_Source\PSoC4/RxDmaS.c **** * Copyright 2015, Cypress Semiconductor Corporation. All rights reserved.
  10:.\Generated_Source\PSoC4/RxDmaS.c **** * You may use this file only in accordance with the license, terms, conditions,
  11:.\Generated_Source\PSoC4/RxDmaS.c **** * disclaimers, and limitations in the end user license agreement accompanying
  12:.\Generated_Source\PSoC4/RxDmaS.c **** * the software package with which this file was provided.
  13:.\Generated_Source\PSoC4/RxDmaS.c **** *******************************************************************************/
  14:.\Generated_Source\PSoC4/RxDmaS.c **** 
  15:.\Generated_Source\PSoC4/RxDmaS.c **** #include "RxDmaS.h"
  16:.\Generated_Source\PSoC4/RxDmaS.c **** 
  17:.\Generated_Source\PSoC4/RxDmaS.c **** uint8 RxDmaS_initVar = 0u;
  18:.\Generated_Source\PSoC4/RxDmaS.c **** 
  19:.\Generated_Source\PSoC4/RxDmaS.c **** 
  20:.\Generated_Source\PSoC4/RxDmaS.c **** /*******************************************************************************
  21:.\Generated_Source\PSoC4/RxDmaS.c **** * Function Name: RxDmaS_Start
  22:.\Generated_Source\PSoC4/RxDmaS.c **** ********************************************************************************
  23:.\Generated_Source\PSoC4/RxDmaS.c **** *
  24:.\Generated_Source\PSoC4/RxDmaS.c **** * Summary:
  25:.\Generated_Source\PSoC4/RxDmaS.c **** *  Calls Init() to configure the DMA channel based on the customizer settings if
  26:.\Generated_Source\PSoC4/RxDmaS.c **** *  the channel has not been initialized before.
  27:.\Generated_Source\PSoC4/RxDmaS.c **** *  Sets source and destination address, validates descriptor 0 and enables the
  28:.\Generated_Source\PSoC4/RxDmaS.c **** *  channel. After calling this function the DMA channel is active and waiting
  29:.\Generated_Source\PSoC4/RxDmaS.c **** *  for a trigger.
  30:.\Generated_Source\PSoC4/RxDmaS.c **** *
  31:.\Generated_Source\PSoC4/RxDmaS.c **** * Parameters:
  32:.\Generated_Source\PSoC4/RxDmaS.c **** *  srcAddress: Address of DMA transfer source for descriptor 0.
ARM GAS  C:\Users\TOM~1.MCK\AppData\Local\Temp\cc9DiSGE.s 			page 2


  33:.\Generated_Source\PSoC4/RxDmaS.c **** *  dstAddress: Address of DMA transfer destination for descriptor 0.
  34:.\Generated_Source\PSoC4/RxDmaS.c **** *                   
  35:.\Generated_Source\PSoC4/RxDmaS.c **** * Return:
  36:.\Generated_Source\PSoC4/RxDmaS.c **** *  None.
  37:.\Generated_Source\PSoC4/RxDmaS.c **** *
  38:.\Generated_Source\PSoC4/RxDmaS.c **** *******************************************************************************/
  39:.\Generated_Source\PSoC4/RxDmaS.c **** void RxDmaS_Start(void * srcAddress, void * dstAddress)
  40:.\Generated_Source\PSoC4/RxDmaS.c **** {
  41:.\Generated_Source\PSoC4/RxDmaS.c ****     if(0u == RxDmaS_initVar)
  42:.\Generated_Source\PSoC4/RxDmaS.c ****     {
  43:.\Generated_Source\PSoC4/RxDmaS.c ****         RxDmaS_Init();
  44:.\Generated_Source\PSoC4/RxDmaS.c ****         RxDmaS_initVar = 1u;
  45:.\Generated_Source\PSoC4/RxDmaS.c ****     }
  46:.\Generated_Source\PSoC4/RxDmaS.c ****     CyDmaEnable();
  47:.\Generated_Source\PSoC4/RxDmaS.c ****     RxDmaS_SetSrcAddress(0, srcAddress);
  48:.\Generated_Source\PSoC4/RxDmaS.c ****     RxDmaS_SetDstAddress(0, dstAddress);
  49:.\Generated_Source\PSoC4/RxDmaS.c ****     RxDmaS_ValidateDescriptor(0);
  50:.\Generated_Source\PSoC4/RxDmaS.c ****     RxDmaS_ChEnable();
  51:.\Generated_Source\PSoC4/RxDmaS.c **** }
  52:.\Generated_Source\PSoC4/RxDmaS.c **** 
  53:.\Generated_Source\PSoC4/RxDmaS.c **** 
  54:.\Generated_Source\PSoC4/RxDmaS.c **** /*******************************************************************************
  55:.\Generated_Source\PSoC4/RxDmaS.c **** * Function Name: RxDmaS_Init
  56:.\Generated_Source\PSoC4/RxDmaS.c **** ********************************************************************************
  57:.\Generated_Source\PSoC4/RxDmaS.c **** *
  58:.\Generated_Source\PSoC4/RxDmaS.c **** * Summary:
  59:.\Generated_Source\PSoC4/RxDmaS.c **** *  Initializes the DMA channel based on the parameters set in the component
  60:.\Generated_Source\PSoC4/RxDmaS.c **** *  customizer. It is not necessary to call RxDmaS_Init() because the
  61:.\Generated_Source\PSoC4/RxDmaS.c **** *  RxDmaS_Start() API calls this function, which is the preferred method
  62:.\Generated_Source\PSoC4/RxDmaS.c **** *  to begin component operation.
  63:.\Generated_Source\PSoC4/RxDmaS.c **** *
  64:.\Generated_Source\PSoC4/RxDmaS.c **** * Parameters:
  65:.\Generated_Source\PSoC4/RxDmaS.c **** *  None.
  66:.\Generated_Source\PSoC4/RxDmaS.c **** *                   
  67:.\Generated_Source\PSoC4/RxDmaS.c **** * Return:
  68:.\Generated_Source\PSoC4/RxDmaS.c **** *  None.
  69:.\Generated_Source\PSoC4/RxDmaS.c **** *
  70:.\Generated_Source\PSoC4/RxDmaS.c **** * Side effect:
  71:.\Generated_Source\PSoC4/RxDmaS.c **** *  The first descriptor is set to descriptor 0. This function should not be
  72:.\Generated_Source\PSoC4/RxDmaS.c **** *  called while the channel is enabled. All settings will be reset to their
  73:.\Generated_Source\PSoC4/RxDmaS.c **** *  initial values.
  74:.\Generated_Source\PSoC4/RxDmaS.c **** *
  75:.\Generated_Source\PSoC4/RxDmaS.c **** *******************************************************************************/
  76:.\Generated_Source\PSoC4/RxDmaS.c **** void RxDmaS_Init(void)
  77:.\Generated_Source\PSoC4/RxDmaS.c **** {
  26              		.loc 1 77 0
  27              		.cfi_startproc
  78:.\Generated_Source\PSoC4/RxDmaS.c ****     CYDMA_CH_CTL_BASE.ctl[RxDmaS_CHANNEL] = RxDmaS_CHANNEL_CFG;
  28              		.loc 1 78 0
  29 0000 C022     		mov	r2, #192
  30 0002 9205     		lsl	r2, r2, #22
  31 0004 064B     		ldr	r3, .L2
  32 0006 5A60     		str	r2, [r3, #4]
  79:.\Generated_Source\PSoC4/RxDmaS.c ****     CYDMA_DESCR_BASE.descriptor[RxDmaS_CHANNEL][0].ctl = RxDmaS_DESCR0_CFG;
  33              		.loc 1 79 0
  34 0008 064B     		ldr	r3, .L2+4
  35 000a 074A     		ldr	r2, .L2+8
ARM GAS  C:\Users\TOM~1.MCK\AppData\Local\Temp\cc9DiSGE.s 			page 3


  36 000c 9A62     		str	r2, [r3, #40]
  80:.\Generated_Source\PSoC4/RxDmaS.c ****     CYDMA_DESCR_BASE.descriptor[RxDmaS_CHANNEL][1].ctl = RxDmaS_DESCR1_CFG;
  37              		.loc 1 80 0
  38 000e 0022     		mov	r2, #0
  39 0010 9A63     		str	r2, [r3, #56]
  81:.\Generated_Source\PSoC4/RxDmaS.c **** 
  82:.\Generated_Source\PSoC4/RxDmaS.c ****     /* If the Generate IRQ option is selected for descriptor 0 or 1, set the
  83:.\Generated_Source\PSoC4/RxDmaS.c ****     * channel bit field in the DMA interrupt mask register.
  84:.\Generated_Source\PSoC4/RxDmaS.c ****     */
  85:.\Generated_Source\PSoC4/RxDmaS.c ****     #if (0u != ((RxDmaS_DESCR0_CFG | RxDmaS_DESCR1_CFG) & CYDMA_GENERATE_IRQ))
  86:.\Generated_Source\PSoC4/RxDmaS.c ****         CYDMA_INTR_MASK_REG |= RxDmaS_CHANNEL_MASK;
  40              		.loc 1 86 0
  41 0012 064A     		ldr	r2, .L2+12
  42 0014 1168     		ldr	r1, [r2]
  43 0016 0223     		mov	r3, #2
  44 0018 0B43     		orr	r3, r1
  45 001a 1360     		str	r3, [r2]
  87:.\Generated_Source\PSoC4/RxDmaS.c ****     #endif /* (0u != ((RxDmaS_DESCR0_CFG | RxDmaS_DESCR1_CFG) & CYDMA_GENERATE_IRQ)) */
  88:.\Generated_Source\PSoC4/RxDmaS.c **** }
  46              		.loc 1 88 0
  47              		@ sp needed
  48 001c 7047     		bx	lr
  49              	.L3:
  50 001e C046     		.align	2
  51              	.L2:
  52 0020 80101040 		.word	1074794624
  53 0024 00181040 		.word	1074796544
  54 0028 1F002009 		.word	153092127
  55 002c F8171040 		.word	1074796536
  56              		.cfi_endproc
  57              	.LFE33:
  58              		.size	RxDmaS_Init, .-RxDmaS_Init
  59              		.section	.text.RxDmaS_Start,"ax",%progbits
  60              		.align	2
  61              		.global	RxDmaS_Start
  62              		.code	16
  63              		.thumb_func
  64              		.type	RxDmaS_Start, %function
  65              	RxDmaS_Start:
  66              	.LFB32:
  40:.\Generated_Source\PSoC4/RxDmaS.c ****     if(0u == RxDmaS_initVar)
  67              		.loc 1 40 0
  68              		.cfi_startproc
  69              	.LVL0:
  70 0000 38B5     		push	{r3, r4, r5, lr}
  71              		.cfi_def_cfa_offset 16
  72              		.cfi_offset 3, -16
  73              		.cfi_offset 4, -12
  74              		.cfi_offset 5, -8
  75              		.cfi_offset 14, -4
  76 0002 051C     		mov	r5, r0
  77 0004 0C1C     		mov	r4, r1
  41:.\Generated_Source\PSoC4/RxDmaS.c ****     {
  78              		.loc 1 41 0
  79 0006 0E4B     		ldr	r3, .L6
  80 0008 1B78     		ldrb	r3, [r3]
  81 000a 002B     		cmp	r3, #0
ARM GAS  C:\Users\TOM~1.MCK\AppData\Local\Temp\cc9DiSGE.s 			page 4


  82 000c 04D1     		bne	.L5
  43:.\Generated_Source\PSoC4/RxDmaS.c ****         RxDmaS_initVar = 1u;
  83              		.loc 1 43 0
  84 000e FFF7FEFF 		bl	RxDmaS_Init
  85              	.LVL1:
  44:.\Generated_Source\PSoC4/RxDmaS.c ****     }
  86              		.loc 1 44 0
  87 0012 0122     		mov	r2, #1
  88 0014 0A4B     		ldr	r3, .L6
  89 0016 1A70     		strb	r2, [r3]
  90              	.L5:
  46:.\Generated_Source\PSoC4/RxDmaS.c ****     RxDmaS_SetSrcAddress(0, srcAddress);
  91              		.loc 1 46 0
  92 0018 FFF7FEFF 		bl	CyDmaEnable
  93              	.LVL2:
  94              	.LBB10:
  95              	.LBB11:
  96              		.file 2 ".\\Generated_Source\\PSoC4\\RxDmaS.h"
   1:.\Generated_Source\PSoC4/RxDmaS.h **** /*******************************************************************************
   2:.\Generated_Source\PSoC4/RxDmaS.h **** * File Name: RxDmaS.h
   3:.\Generated_Source\PSoC4/RxDmaS.h **** * Version 1.0
   4:.\Generated_Source\PSoC4/RxDmaS.h **** *
   5:.\Generated_Source\PSoC4/RxDmaS.h **** * Description:
   6:.\Generated_Source\PSoC4/RxDmaS.h **** *  This file provides DMA channel defines and API function definitions.
   7:.\Generated_Source\PSoC4/RxDmaS.h **** *
   8:.\Generated_Source\PSoC4/RxDmaS.h **** ********************************************************************************
   9:.\Generated_Source\PSoC4/RxDmaS.h **** * Copyright 2015, Cypress Semiconductor Corporation. All rights reserved.
  10:.\Generated_Source\PSoC4/RxDmaS.h **** * You may use this file only in accordance with the license, terms, conditions,
  11:.\Generated_Source\PSoC4/RxDmaS.h **** * disclaimers, and limitations in the end user license agreement accompanying
  12:.\Generated_Source\PSoC4/RxDmaS.h **** * the software package with which this file was provided.
  13:.\Generated_Source\PSoC4/RxDmaS.h **** *******************************************************************************/
  14:.\Generated_Source\PSoC4/RxDmaS.h **** 
  15:.\Generated_Source\PSoC4/RxDmaS.h **** #ifndef CY_DMA_CHANNEL_RxDmaS_H
  16:.\Generated_Source\PSoC4/RxDmaS.h **** #define CY_DMA_CHANNEL_RxDmaS_H
  17:.\Generated_Source\PSoC4/RxDmaS.h **** 
  18:.\Generated_Source\PSoC4/RxDmaS.h **** #include "CyDMA.h"
  19:.\Generated_Source\PSoC4/RxDmaS.h **** 
  20:.\Generated_Source\PSoC4/RxDmaS.h ****     
  21:.\Generated_Source\PSoC4/RxDmaS.h **** /***************************************
  22:.\Generated_Source\PSoC4/RxDmaS.h **** *   Conditional Compilation Parameters
  23:.\Generated_Source\PSoC4/RxDmaS.h **** ***************************************/
  24:.\Generated_Source\PSoC4/RxDmaS.h **** 
  25:.\Generated_Source\PSoC4/RxDmaS.h **** #define RxDmaS_CHANNEL           (RxDmaS__CHANNEL_NUMBER)
  26:.\Generated_Source\PSoC4/RxDmaS.h **** #define RxDmaS_CHANNEL_MASK      ((uint32)(1UL << RxDmaS_CHANNEL))
  27:.\Generated_Source\PSoC4/RxDmaS.h **** 
  28:.\Generated_Source\PSoC4/RxDmaS.h **** 
  29:.\Generated_Source\PSoC4/RxDmaS.h **** /***************************************
  30:.\Generated_Source\PSoC4/RxDmaS.h **** *        Function Prototypes
  31:.\Generated_Source\PSoC4/RxDmaS.h **** ***************************************/
  32:.\Generated_Source\PSoC4/RxDmaS.h **** 
  33:.\Generated_Source\PSoC4/RxDmaS.h **** /* Functions specific to this DMA channel */
  34:.\Generated_Source\PSoC4/RxDmaS.h **** void RxDmaS_Init(void);
  35:.\Generated_Source\PSoC4/RxDmaS.h **** void RxDmaS_Start(void * srcAddress, void * dstAddress);
  36:.\Generated_Source\PSoC4/RxDmaS.h **** 
  37:.\Generated_Source\PSoC4/RxDmaS.h **** /* Inline functions that call global API functions */
  38:.\Generated_Source\PSoC4/RxDmaS.h **** static void   RxDmaS_ChEnable(void);
  39:.\Generated_Source\PSoC4/RxDmaS.h **** static void   RxDmaS_ChDisable(void);
ARM GAS  C:\Users\TOM~1.MCK\AppData\Local\Temp\cc9DiSGE.s 			page 5


  40:.\Generated_Source\PSoC4/RxDmaS.h **** static void   RxDmaS_Trigger(void);
  41:.\Generated_Source\PSoC4/RxDmaS.h **** static void   RxDmaS_SetPriority(int32 priority);
  42:.\Generated_Source\PSoC4/RxDmaS.h **** static int32  RxDmaS_GetPriority(void);
  43:.\Generated_Source\PSoC4/RxDmaS.h **** static void   RxDmaS_SetNextDescriptor(int32 descriptor);
  44:.\Generated_Source\PSoC4/RxDmaS.h **** static int32  RxDmaS_GetNextDescriptor(void);
  45:.\Generated_Source\PSoC4/RxDmaS.h **** static void   RxDmaS_SetConfiguration(int32 descriptor, const cydma_init_struct * config);
  46:.\Generated_Source\PSoC4/RxDmaS.h **** static void   RxDmaS_ValidateDescriptor(int32 descriptor);
  47:.\Generated_Source\PSoC4/RxDmaS.h **** static uint32 RxDmaS_GetDescriptorStatus(int32 descriptor);
  48:.\Generated_Source\PSoC4/RxDmaS.h **** static void   RxDmaS_SetSrcAddress(int32 descriptor, void * srcAddress);
  49:.\Generated_Source\PSoC4/RxDmaS.h **** static void * RxDmaS_GetSrcAddress(int32 descriptor);
  50:.\Generated_Source\PSoC4/RxDmaS.h **** static void   RxDmaS_SetDstAddress(int32 descriptor, void * dstAddress);
  51:.\Generated_Source\PSoC4/RxDmaS.h **** static void * RxDmaS_GetDstAddress(int32 descriptor);
  52:.\Generated_Source\PSoC4/RxDmaS.h **** static void   RxDmaS_SetDataElementSize(int32 descriptor, uint32 dataElementSize);
  53:.\Generated_Source\PSoC4/RxDmaS.h **** static uint32 RxDmaS_GetDataElementSize(int32 descriptor);
  54:.\Generated_Source\PSoC4/RxDmaS.h **** static void   RxDmaS_SetNumDataElements(int32 descriptor, int32 numDataElements);
  55:.\Generated_Source\PSoC4/RxDmaS.h **** static int32  RxDmaS_GetNumDataElements(int32 descriptor);
  56:.\Generated_Source\PSoC4/RxDmaS.h **** static void   RxDmaS_SetSrcDstTransferWidth(int32 descriptor, uint32 transferWidth);
  57:.\Generated_Source\PSoC4/RxDmaS.h **** static uint32 RxDmaS_GetSrcDstTransferWidth(int32 descriptor);
  58:.\Generated_Source\PSoC4/RxDmaS.h **** static void   RxDmaS_SetAddressIncrement(int32 descriptor, uint32 addressIncrement);
  59:.\Generated_Source\PSoC4/RxDmaS.h **** static uint32 RxDmaS_GetAddressIncrement(int32 descriptor);
  60:.\Generated_Source\PSoC4/RxDmaS.h **** static void   RxDmaS_SetTriggerType(int32 descriptor, uint32 triggerType);
  61:.\Generated_Source\PSoC4/RxDmaS.h **** static uint32 RxDmaS_GetTriggerType(int32 descriptor);
  62:.\Generated_Source\PSoC4/RxDmaS.h **** static void   RxDmaS_SetTransferMode(int32 descriptor, uint32 transferMode);
  63:.\Generated_Source\PSoC4/RxDmaS.h **** static uint32 RxDmaS_GetTransferMode(int32 descriptor);
  64:.\Generated_Source\PSoC4/RxDmaS.h **** static void   RxDmaS_SetPreemptable(int32 descriptor, uint32 preemptable);
  65:.\Generated_Source\PSoC4/RxDmaS.h **** static uint32 RxDmaS_GetPreemptable(int32 descriptor);
  66:.\Generated_Source\PSoC4/RxDmaS.h **** static void   RxDmaS_SetPostCompletionActions(int32 descriptor, uint32 actions);
  67:.\Generated_Source\PSoC4/RxDmaS.h **** static uint32 RxDmaS_GetPostCompletionAction(int32 descriptor);
  68:.\Generated_Source\PSoC4/RxDmaS.h **** static cydma_callback_t RxDmaS_SetInterruptCallback(cydma_callback_t callback);
  69:.\Generated_Source\PSoC4/RxDmaS.h **** static cydma_callback_t RxDmaS_GetInterruptCallback(void);
  70:.\Generated_Source\PSoC4/RxDmaS.h **** 
  71:.\Generated_Source\PSoC4/RxDmaS.h **** 
  72:.\Generated_Source\PSoC4/RxDmaS.h **** /*******************************************************************************
  73:.\Generated_Source\PSoC4/RxDmaS.h **** * Function Name: RxDmaS_ChEnable
  74:.\Generated_Source\PSoC4/RxDmaS.h **** ********************************************************************************
  75:.\Generated_Source\PSoC4/RxDmaS.h **** *
  76:.\Generated_Source\PSoC4/RxDmaS.h **** * Summary:
  77:.\Generated_Source\PSoC4/RxDmaS.h **** *  Enables the DMA channel. It is not necessary to call RxDmaS_ChEnable()
  78:.\Generated_Source\PSoC4/RxDmaS.h **** *  because the RxDmaS_Start() API calls this function, which is the
  79:.\Generated_Source\PSoC4/RxDmaS.h **** *  preferred method to begin the component operation.
  80:.\Generated_Source\PSoC4/RxDmaS.h **** *
  81:.\Generated_Source\PSoC4/RxDmaS.h **** * Parameters:
  82:.\Generated_Source\PSoC4/RxDmaS.h **** *  None.
  83:.\Generated_Source\PSoC4/RxDmaS.h **** *                   
  84:.\Generated_Source\PSoC4/RxDmaS.h **** * Return:
  85:.\Generated_Source\PSoC4/RxDmaS.h **** *  None.
  86:.\Generated_Source\PSoC4/RxDmaS.h **** *
  87:.\Generated_Source\PSoC4/RxDmaS.h **** * Side effect:
  88:.\Generated_Source\PSoC4/RxDmaS.h **** *  If this function is called before RxDmaS_Start(), or RxDmaS_Init()
  89:.\Generated_Source\PSoC4/RxDmaS.h **** *  or RxDmaS_SetConfiguration(), and RxDmaS_SetSrcAddress()
  90:.\Generated_Source\PSoC4/RxDmaS.h **** *  and RxDmaS_SetDstAddress the operation of the DMA is 
  91:.\Generated_Source\PSoC4/RxDmaS.h **** *  undefined and could result in system data corruption. 
  92:.\Generated_Source\PSoC4/RxDmaS.h **** *
  93:.\Generated_Source\PSoC4/RxDmaS.h **** *******************************************************************************/
  94:.\Generated_Source\PSoC4/RxDmaS.h **** static CY_INLINE void RxDmaS_ChEnable(void)
  95:.\Generated_Source\PSoC4/RxDmaS.h **** {
  96:.\Generated_Source\PSoC4/RxDmaS.h ****     CyDmaChEnable(RxDmaS_CHANNEL);
ARM GAS  C:\Users\TOM~1.MCK\AppData\Local\Temp\cc9DiSGE.s 			page 6


  97:.\Generated_Source\PSoC4/RxDmaS.h **** }
  98:.\Generated_Source\PSoC4/RxDmaS.h **** 
  99:.\Generated_Source\PSoC4/RxDmaS.h **** 
 100:.\Generated_Source\PSoC4/RxDmaS.h **** /*******************************************************************************
 101:.\Generated_Source\PSoC4/RxDmaS.h **** * Function Name: RxDmaS_ChDisable
 102:.\Generated_Source\PSoC4/RxDmaS.h **** ********************************************************************************
 103:.\Generated_Source\PSoC4/RxDmaS.h **** *
 104:.\Generated_Source\PSoC4/RxDmaS.h **** * Summary:
 105:.\Generated_Source\PSoC4/RxDmaS.h **** *  Disables the DMA channel.
 106:.\Generated_Source\PSoC4/RxDmaS.h **** *
 107:.\Generated_Source\PSoC4/RxDmaS.h **** * Parameters:
 108:.\Generated_Source\PSoC4/RxDmaS.h **** *  None.
 109:.\Generated_Source\PSoC4/RxDmaS.h **** *                   
 110:.\Generated_Source\PSoC4/RxDmaS.h **** * Return:
 111:.\Generated_Source\PSoC4/RxDmaS.h **** *  None.
 112:.\Generated_Source\PSoC4/RxDmaS.h **** *
 113:.\Generated_Source\PSoC4/RxDmaS.h **** * Side effect:
 114:.\Generated_Source\PSoC4/RxDmaS.h **** *  If this function is called during a DMA transfer the transfer is aborted. 
 115:.\Generated_Source\PSoC4/RxDmaS.h **** *
 116:.\Generated_Source\PSoC4/RxDmaS.h **** *******************************************************************************/
 117:.\Generated_Source\PSoC4/RxDmaS.h **** static CY_INLINE void RxDmaS_ChDisable(void)
 118:.\Generated_Source\PSoC4/RxDmaS.h **** {
 119:.\Generated_Source\PSoC4/RxDmaS.h ****     CyDmaChDisable(RxDmaS_CHANNEL);
 120:.\Generated_Source\PSoC4/RxDmaS.h **** }
 121:.\Generated_Source\PSoC4/RxDmaS.h **** 
 122:.\Generated_Source\PSoC4/RxDmaS.h **** 
 123:.\Generated_Source\PSoC4/RxDmaS.h **** /*******************************************************************************
 124:.\Generated_Source\PSoC4/RxDmaS.h **** * Function Name: RxDmaS_Trigger
 125:.\Generated_Source\PSoC4/RxDmaS.h **** ********************************************************************************
 126:.\Generated_Source\PSoC4/RxDmaS.h **** *
 127:.\Generated_Source\PSoC4/RxDmaS.h **** * Summary:
 128:.\Generated_Source\PSoC4/RxDmaS.h **** *  Triggers the DMA channel, this is useful only for software triggers. This is
 129:.\Generated_Source\PSoC4/RxDmaS.h **** *  not needed when hardware triggers are used.
 130:.\Generated_Source\PSoC4/RxDmaS.h **** *
 131:.\Generated_Source\PSoC4/RxDmaS.h **** * Parameters:
 132:.\Generated_Source\PSoC4/RxDmaS.h **** *  None.
 133:.\Generated_Source\PSoC4/RxDmaS.h **** *                   
 134:.\Generated_Source\PSoC4/RxDmaS.h **** * Return:
 135:.\Generated_Source\PSoC4/RxDmaS.h **** *  None. 
 136:.\Generated_Source\PSoC4/RxDmaS.h **** *
 137:.\Generated_Source\PSoC4/RxDmaS.h **** *******************************************************************************/
 138:.\Generated_Source\PSoC4/RxDmaS.h **** static CY_INLINE void RxDmaS_Trigger(void)
 139:.\Generated_Source\PSoC4/RxDmaS.h **** {
 140:.\Generated_Source\PSoC4/RxDmaS.h ****     CyDmaTrigger(RxDmaS_CHANNEL);
 141:.\Generated_Source\PSoC4/RxDmaS.h **** }
 142:.\Generated_Source\PSoC4/RxDmaS.h **** 
 143:.\Generated_Source\PSoC4/RxDmaS.h **** 
 144:.\Generated_Source\PSoC4/RxDmaS.h **** /*******************************************************************************
 145:.\Generated_Source\PSoC4/RxDmaS.h **** * Function Name: RxDmaS_SetPriority
 146:.\Generated_Source\PSoC4/RxDmaS.h **** ********************************************************************************
 147:.\Generated_Source\PSoC4/RxDmaS.h **** *
 148:.\Generated_Source\PSoC4/RxDmaS.h **** * Summary:
 149:.\Generated_Source\PSoC4/RxDmaS.h **** *  Sets the priority for the channel.
 150:.\Generated_Source\PSoC4/RxDmaS.h **** *
 151:.\Generated_Source\PSoC4/RxDmaS.h **** * Parameters:
 152:.\Generated_Source\PSoC4/RxDmaS.h **** *  priority: Priority for channel. Priority can be 0,1,2, or 3.
 153:.\Generated_Source\PSoC4/RxDmaS.h **** *            0 is the highest priority.
ARM GAS  C:\Users\TOM~1.MCK\AppData\Local\Temp\cc9DiSGE.s 			page 7


 154:.\Generated_Source\PSoC4/RxDmaS.h **** *                   
 155:.\Generated_Source\PSoC4/RxDmaS.h **** * Return:
 156:.\Generated_Source\PSoC4/RxDmaS.h **** *  None.
 157:.\Generated_Source\PSoC4/RxDmaS.h **** *
 158:.\Generated_Source\PSoC4/RxDmaS.h **** * Side effect:
 159:.\Generated_Source\PSoC4/RxDmaS.h **** *  This function should not be called while the channel is enabled.
 160:.\Generated_Source\PSoC4/RxDmaS.h **** *
 161:.\Generated_Source\PSoC4/RxDmaS.h **** *******************************************************************************/
 162:.\Generated_Source\PSoC4/RxDmaS.h **** static CY_INLINE void RxDmaS_SetPriority(int32 priority)
 163:.\Generated_Source\PSoC4/RxDmaS.h **** {
 164:.\Generated_Source\PSoC4/RxDmaS.h ****     CyDmaSetPriority(RxDmaS_CHANNEL, priority);
 165:.\Generated_Source\PSoC4/RxDmaS.h **** }
 166:.\Generated_Source\PSoC4/RxDmaS.h **** 
 167:.\Generated_Source\PSoC4/RxDmaS.h **** 
 168:.\Generated_Source\PSoC4/RxDmaS.h **** /*******************************************************************************
 169:.\Generated_Source\PSoC4/RxDmaS.h **** * Function Name: RxDmaS_GetPriority
 170:.\Generated_Source\PSoC4/RxDmaS.h **** ********************************************************************************
 171:.\Generated_Source\PSoC4/RxDmaS.h **** *
 172:.\Generated_Source\PSoC4/RxDmaS.h **** * Summary:
 173:.\Generated_Source\PSoC4/RxDmaS.h **** *  Gets the priority for the channel.
 174:.\Generated_Source\PSoC4/RxDmaS.h **** *
 175:.\Generated_Source\PSoC4/RxDmaS.h **** * Parameters:
 176:.\Generated_Source\PSoC4/RxDmaS.h **** *  None.
 177:.\Generated_Source\PSoC4/RxDmaS.h **** *                   
 178:.\Generated_Source\PSoC4/RxDmaS.h **** * Return:
 179:.\Generated_Source\PSoC4/RxDmaS.h **** *  Priority for channel. Priority can be 0,1,2, or 3. 0 is the highest priority.
 180:.\Generated_Source\PSoC4/RxDmaS.h **** *
 181:.\Generated_Source\PSoC4/RxDmaS.h **** *******************************************************************************/
 182:.\Generated_Source\PSoC4/RxDmaS.h **** static CY_INLINE int32 RxDmaS_GetPriority(void)
 183:.\Generated_Source\PSoC4/RxDmaS.h **** {
 184:.\Generated_Source\PSoC4/RxDmaS.h ****     return (CyDmaGetPriority(RxDmaS_CHANNEL));
 185:.\Generated_Source\PSoC4/RxDmaS.h **** }
 186:.\Generated_Source\PSoC4/RxDmaS.h **** 
 187:.\Generated_Source\PSoC4/RxDmaS.h **** 
 188:.\Generated_Source\PSoC4/RxDmaS.h **** /*******************************************************************************
 189:.\Generated_Source\PSoC4/RxDmaS.h **** * Function Name: RxDmaS_SetNextDescriptor
 190:.\Generated_Source\PSoC4/RxDmaS.h **** ********************************************************************************
 191:.\Generated_Source\PSoC4/RxDmaS.h **** *
 192:.\Generated_Source\PSoC4/RxDmaS.h **** * Summary:
 193:.\Generated_Source\PSoC4/RxDmaS.h **** *  Sets the descriptor that should be run the next time the channel is
 194:.\Generated_Source\PSoC4/RxDmaS.h **** *  triggered.
 195:.\Generated_Source\PSoC4/RxDmaS.h **** *
 196:.\Generated_Source\PSoC4/RxDmaS.h **** * Parameters:
 197:.\Generated_Source\PSoC4/RxDmaS.h **** *  descriptor: Next Descriptor to run (0 or 1).
 198:.\Generated_Source\PSoC4/RxDmaS.h **** *                   
 199:.\Generated_Source\PSoC4/RxDmaS.h **** * Side effect:
 200:.\Generated_Source\PSoC4/RxDmaS.h **** *  This function should not be called while the channel is enabled.
 201:.\Generated_Source\PSoC4/RxDmaS.h **** *
 202:.\Generated_Source\PSoC4/RxDmaS.h **** *******************************************************************************/
 203:.\Generated_Source\PSoC4/RxDmaS.h **** static CY_INLINE void RxDmaS_SetNextDescriptor(int32 descriptor)
 204:.\Generated_Source\PSoC4/RxDmaS.h **** {
 205:.\Generated_Source\PSoC4/RxDmaS.h ****     CyDmaSetNextDescriptor(RxDmaS_CHANNEL, descriptor);
 206:.\Generated_Source\PSoC4/RxDmaS.h **** }
 207:.\Generated_Source\PSoC4/RxDmaS.h **** 
 208:.\Generated_Source\PSoC4/RxDmaS.h **** 
 209:.\Generated_Source\PSoC4/RxDmaS.h **** /*******************************************************************************
 210:.\Generated_Source\PSoC4/RxDmaS.h **** * Function Name: RxDmaS_GetNextDescriptor
ARM GAS  C:\Users\TOM~1.MCK\AppData\Local\Temp\cc9DiSGE.s 			page 8


 211:.\Generated_Source\PSoC4/RxDmaS.h **** ********************************************************************************
 212:.\Generated_Source\PSoC4/RxDmaS.h **** *
 213:.\Generated_Source\PSoC4/RxDmaS.h **** * Summary:
 214:.\Generated_Source\PSoC4/RxDmaS.h **** *  Returns the next descriptor that should be run, as set by 
 215:.\Generated_Source\PSoC4/RxDmaS.h **** *  RxDmaS_SetNextDescriptor().
 216:.\Generated_Source\PSoC4/RxDmaS.h **** *
 217:.\Generated_Source\PSoC4/RxDmaS.h **** * Parameters:
 218:.\Generated_Source\PSoC4/RxDmaS.h **** *  None.
 219:.\Generated_Source\PSoC4/RxDmaS.h **** *                   
 220:.\Generated_Source\PSoC4/RxDmaS.h **** * Return:
 221:.\Generated_Source\PSoC4/RxDmaS.h **** *  Next Descriptor to run (0 or 1).
 222:.\Generated_Source\PSoC4/RxDmaS.h **** *
 223:.\Generated_Source\PSoC4/RxDmaS.h **** *******************************************************************************/
 224:.\Generated_Source\PSoC4/RxDmaS.h **** static CY_INLINE int32 RxDmaS_GetNextDescriptor(void)
 225:.\Generated_Source\PSoC4/RxDmaS.h **** {
 226:.\Generated_Source\PSoC4/RxDmaS.h ****     return (CyDmaGetNextDescriptor(RxDmaS_CHANNEL));
 227:.\Generated_Source\PSoC4/RxDmaS.h **** }
 228:.\Generated_Source\PSoC4/RxDmaS.h **** 
 229:.\Generated_Source\PSoC4/RxDmaS.h **** 
 230:.\Generated_Source\PSoC4/RxDmaS.h **** /*******************************************************************************
 231:.\Generated_Source\PSoC4/RxDmaS.h **** * Function Name: RxDmaS_SetConfiguration
 232:.\Generated_Source\PSoC4/RxDmaS.h **** ********************************************************************************
 233:.\Generated_Source\PSoC4/RxDmaS.h **** *
 234:.\Generated_Source\PSoC4/RxDmaS.h **** * Summary:
 235:.\Generated_Source\PSoC4/RxDmaS.h **** *  Sets configuration information for the specified descriptor.
 236:.\Generated_Source\PSoC4/RxDmaS.h **** *
 237:.\Generated_Source\PSoC4/RxDmaS.h **** * Parameters:
 238:.\Generated_Source\PSoC4/RxDmaS.h **** *  descriptor: Descriptor (0 or 1) modified by this function.
 239:.\Generated_Source\PSoC4/RxDmaS.h **** *  config: Pointer to a configuration structure. Refer to cydma_init_struct
 240:.\Generated_Source\PSoC4/RxDmaS.h **** *          structure definition in CyDMA_P4.h or the component datasheet.
 241:.\Generated_Source\PSoC4/RxDmaS.h **** *                   
 242:.\Generated_Source\PSoC4/RxDmaS.h **** * Return:
 243:.\Generated_Source\PSoC4/RxDmaS.h **** *  None.
 244:.\Generated_Source\PSoC4/RxDmaS.h **** *
 245:.\Generated_Source\PSoC4/RxDmaS.h **** * Side effect:
 246:.\Generated_Source\PSoC4/RxDmaS.h **** *  The status register associated with the specified descriptor is reset to
 247:.\Generated_Source\PSoC4/RxDmaS.h **** *  zero after this function call. This function also validates the descriptor.
 248:.\Generated_Source\PSoC4/RxDmaS.h **** *  This function should not be called while the descriptor is active.
 249:.\Generated_Source\PSoC4/RxDmaS.h **** *  This can be checked by calling CyDmaGetStatus().
 250:.\Generated_Source\PSoC4/RxDmaS.h **** *
 251:.\Generated_Source\PSoC4/RxDmaS.h **** *******************************************************************************/
 252:.\Generated_Source\PSoC4/RxDmaS.h **** static CY_INLINE void RxDmaS_SetConfiguration(int32 descriptor, const cydma_init_struct * config)
 253:.\Generated_Source\PSoC4/RxDmaS.h **** {
 254:.\Generated_Source\PSoC4/RxDmaS.h ****     CyDmaSetConfiguration(RxDmaS_CHANNEL, descriptor, config);
 255:.\Generated_Source\PSoC4/RxDmaS.h **** }
 256:.\Generated_Source\PSoC4/RxDmaS.h **** 
 257:.\Generated_Source\PSoC4/RxDmaS.h **** 
 258:.\Generated_Source\PSoC4/RxDmaS.h **** /*******************************************************************************
 259:.\Generated_Source\PSoC4/RxDmaS.h **** * Function Name: RxDmaS_ValidateDescriptor
 260:.\Generated_Source\PSoC4/RxDmaS.h **** ********************************************************************************
 261:.\Generated_Source\PSoC4/RxDmaS.h **** *
 262:.\Generated_Source\PSoC4/RxDmaS.h **** * Summary:
 263:.\Generated_Source\PSoC4/RxDmaS.h **** *  Validates the specified descriptor after it has been invalidated.
 264:.\Generated_Source\PSoC4/RxDmaS.h **** *
 265:.\Generated_Source\PSoC4/RxDmaS.h **** * Parameters:
 266:.\Generated_Source\PSoC4/RxDmaS.h **** *  descriptor: Descriptor (0 or 1) modified by this function.
 267:.\Generated_Source\PSoC4/RxDmaS.h **** *                   
ARM GAS  C:\Users\TOM~1.MCK\AppData\Local\Temp\cc9DiSGE.s 			page 9


 268:.\Generated_Source\PSoC4/RxDmaS.h **** * Return:
 269:.\Generated_Source\PSoC4/RxDmaS.h **** *  None. 
 270:.\Generated_Source\PSoC4/RxDmaS.h **** *
 271:.\Generated_Source\PSoC4/RxDmaS.h **** * Side effect:
 272:.\Generated_Source\PSoC4/RxDmaS.h **** *  The status register associated with the specified descriptor is reset to
 273:.\Generated_Source\PSoC4/RxDmaS.h **** *  zero after this function call. This function should not be called while the
 274:.\Generated_Source\PSoC4/RxDmaS.h **** *  descriptor is active. This can be checked by calling CyDmaGetStatus().
 275:.\Generated_Source\PSoC4/RxDmaS.h **** *
 276:.\Generated_Source\PSoC4/RxDmaS.h **** *******************************************************************************/
 277:.\Generated_Source\PSoC4/RxDmaS.h **** static CY_INLINE void RxDmaS_ValidateDescriptor(int32 descriptor)
 278:.\Generated_Source\PSoC4/RxDmaS.h **** {
 279:.\Generated_Source\PSoC4/RxDmaS.h ****     CyDmaValidateDescriptor(RxDmaS_CHANNEL, descriptor);
 280:.\Generated_Source\PSoC4/RxDmaS.h **** }
 281:.\Generated_Source\PSoC4/RxDmaS.h **** 
 282:.\Generated_Source\PSoC4/RxDmaS.h **** 
 283:.\Generated_Source\PSoC4/RxDmaS.h **** /*******************************************************************************
 284:.\Generated_Source\PSoC4/RxDmaS.h **** * Function Name: RxDmaS_GetDescriptorStatus
 285:.\Generated_Source\PSoC4/RxDmaS.h **** ********************************************************************************
 286:.\Generated_Source\PSoC4/RxDmaS.h **** *
 287:.\Generated_Source\PSoC4/RxDmaS.h **** * Summary:
 288:.\Generated_Source\PSoC4/RxDmaS.h **** *  Returns the status of the specified descriptor.
 289:.\Generated_Source\PSoC4/RxDmaS.h **** *
 290:.\Generated_Source\PSoC4/RxDmaS.h **** * Parameters:
 291:.\Generated_Source\PSoC4/RxDmaS.h **** *  descriptor: Descriptor (0 or 1) modified by this function.
 292:.\Generated_Source\PSoC4/RxDmaS.h **** *                   
 293:.\Generated_Source\PSoC4/RxDmaS.h **** * Return:
 294:.\Generated_Source\PSoC4/RxDmaS.h **** *  Returns the contents of the specified descriptors status register. Refer to 
 295:.\Generated_Source\PSoC4/RxDmaS.h **** *  descriptor status register bit definitions in CyDMA_P4.h or the API
 296:.\Generated_Source\PSoC4/RxDmaS.h **** *  description in the DMA channel datasheet for more information.
 297:.\Generated_Source\PSoC4/RxDmaS.h **** *
 298:.\Generated_Source\PSoC4/RxDmaS.h **** *******************************************************************************/
 299:.\Generated_Source\PSoC4/RxDmaS.h **** static CY_INLINE uint32 RxDmaS_GetDescriptorStatus(int32 descriptor)
 300:.\Generated_Source\PSoC4/RxDmaS.h **** {
 301:.\Generated_Source\PSoC4/RxDmaS.h ****     return (CyDmaGetDescriptorStatus(RxDmaS_CHANNEL, descriptor));
 302:.\Generated_Source\PSoC4/RxDmaS.h **** }
 303:.\Generated_Source\PSoC4/RxDmaS.h **** 
 304:.\Generated_Source\PSoC4/RxDmaS.h **** 
 305:.\Generated_Source\PSoC4/RxDmaS.h **** /*******************************************************************************
 306:.\Generated_Source\PSoC4/RxDmaS.h **** * Function Name: RxDmaS_SetSrcAddress
 307:.\Generated_Source\PSoC4/RxDmaS.h **** ********************************************************************************
 308:.\Generated_Source\PSoC4/RxDmaS.h **** *
 309:.\Generated_Source\PSoC4/RxDmaS.h **** * Summary:
 310:.\Generated_Source\PSoC4/RxDmaS.h **** *  Configures the source address for the specified descriptor.
 311:.\Generated_Source\PSoC4/RxDmaS.h **** *
 312:.\Generated_Source\PSoC4/RxDmaS.h **** * Parameters:
 313:.\Generated_Source\PSoC4/RxDmaS.h **** *  descriptor: Descriptor (0 or 1) modified by this function.
 314:.\Generated_Source\PSoC4/RxDmaS.h **** *  srcAddress: Address of DMA transfer source.
 315:.\Generated_Source\PSoC4/RxDmaS.h **** *                   
 316:.\Generated_Source\PSoC4/RxDmaS.h **** * Return:
 317:.\Generated_Source\PSoC4/RxDmaS.h **** *  None.
 318:.\Generated_Source\PSoC4/RxDmaS.h **** *
 319:.\Generated_Source\PSoC4/RxDmaS.h **** * Side effect:
 320:.\Generated_Source\PSoC4/RxDmaS.h **** *  This function should not be called when the specified descriptor is active
 321:.\Generated_Source\PSoC4/RxDmaS.h **** *  in the DMA transfer engine. This can be checked by calling CyDmaGetStatus(). 
 322:.\Generated_Source\PSoC4/RxDmaS.h **** *
 323:.\Generated_Source\PSoC4/RxDmaS.h **** *******************************************************************************/
 324:.\Generated_Source\PSoC4/RxDmaS.h **** static CY_INLINE void RxDmaS_SetSrcAddress(int32 descriptor, void * srcAddress)
ARM GAS  C:\Users\TOM~1.MCK\AppData\Local\Temp\cc9DiSGE.s 			page 10


 325:.\Generated_Source\PSoC4/RxDmaS.h **** {
 326:.\Generated_Source\PSoC4/RxDmaS.h ****     CyDmaSetSrcAddress(RxDmaS_CHANNEL, descriptor, srcAddress);
  97              		.loc 2 326 0
  98 001c 0120     		mov	r0, #1
  99 001e 0021     		mov	r1, #0
 100 0020 2A1C     		mov	r2, r5
 101 0022 FFF7FEFF 		bl	CyDmaSetSrcAddress
 102              	.LVL3:
 103              	.LBE11:
 104              	.LBE10:
 105              	.LBB12:
 106              	.LBB13:
 327:.\Generated_Source\PSoC4/RxDmaS.h **** }
 328:.\Generated_Source\PSoC4/RxDmaS.h **** 
 329:.\Generated_Source\PSoC4/RxDmaS.h **** 
 330:.\Generated_Source\PSoC4/RxDmaS.h **** /*******************************************************************************
 331:.\Generated_Source\PSoC4/RxDmaS.h **** * Function Name: RxDmaS_GetSrcAddress
 332:.\Generated_Source\PSoC4/RxDmaS.h **** ********************************************************************************
 333:.\Generated_Source\PSoC4/RxDmaS.h **** *
 334:.\Generated_Source\PSoC4/RxDmaS.h **** * Summary:
 335:.\Generated_Source\PSoC4/RxDmaS.h **** *  Returns the source address for the specified descriptor, set by either 
 336:.\Generated_Source\PSoC4/RxDmaS.h **** *  RxDmaS_Start() or RxDmaS_SetSrcAddress().
 337:.\Generated_Source\PSoC4/RxDmaS.h **** *
 338:.\Generated_Source\PSoC4/RxDmaS.h **** * Parameters:
 339:.\Generated_Source\PSoC4/RxDmaS.h **** *  descriptor: Specifies descriptor (0 or 1) used by this function.
 340:.\Generated_Source\PSoC4/RxDmaS.h **** *                   
 341:.\Generated_Source\PSoC4/RxDmaS.h **** * Return:
 342:.\Generated_Source\PSoC4/RxDmaS.h **** *  Source address written to specified descriptor.
 343:.\Generated_Source\PSoC4/RxDmaS.h **** *
 344:.\Generated_Source\PSoC4/RxDmaS.h **** *******************************************************************************/
 345:.\Generated_Source\PSoC4/RxDmaS.h **** static CY_INLINE void * RxDmaS_GetSrcAddress(int32 descriptor)
 346:.\Generated_Source\PSoC4/RxDmaS.h **** {
 347:.\Generated_Source\PSoC4/RxDmaS.h ****     return (CyDmaGetSrcAddress(RxDmaS_CHANNEL, descriptor));
 348:.\Generated_Source\PSoC4/RxDmaS.h **** }
 349:.\Generated_Source\PSoC4/RxDmaS.h **** 
 350:.\Generated_Source\PSoC4/RxDmaS.h **** 
 351:.\Generated_Source\PSoC4/RxDmaS.h **** /*******************************************************************************
 352:.\Generated_Source\PSoC4/RxDmaS.h **** * Function Name: RxDmaS_SetDstAddress
 353:.\Generated_Source\PSoC4/RxDmaS.h **** ********************************************************************************
 354:.\Generated_Source\PSoC4/RxDmaS.h **** *
 355:.\Generated_Source\PSoC4/RxDmaS.h **** * Summary:
 356:.\Generated_Source\PSoC4/RxDmaS.h **** *  Configures the destination address for the specified descriptor.
 357:.\Generated_Source\PSoC4/RxDmaS.h **** *
 358:.\Generated_Source\PSoC4/RxDmaS.h **** * Parameters:
 359:.\Generated_Source\PSoC4/RxDmaS.h **** *  descriptor: Descriptor (0 or 1) modified by this function.
 360:.\Generated_Source\PSoC4/RxDmaS.h **** *  dstAddress: Address of DMA transfer destination.
 361:.\Generated_Source\PSoC4/RxDmaS.h **** *                   
 362:.\Generated_Source\PSoC4/RxDmaS.h **** * Return:
 363:.\Generated_Source\PSoC4/RxDmaS.h **** *  None.
 364:.\Generated_Source\PSoC4/RxDmaS.h **** *
 365:.\Generated_Source\PSoC4/RxDmaS.h **** * Side effect:
 366:.\Generated_Source\PSoC4/RxDmaS.h **** *  This function should not be called when the specified descriptor is active
 367:.\Generated_Source\PSoC4/RxDmaS.h **** *  in the DMA transfer engine. This can be checked by calling CyDmaGetStatus(). 
 368:.\Generated_Source\PSoC4/RxDmaS.h **** *
 369:.\Generated_Source\PSoC4/RxDmaS.h **** *******************************************************************************/
 370:.\Generated_Source\PSoC4/RxDmaS.h **** static CY_INLINE void RxDmaS_SetDstAddress(int32 descriptor, void * dstAddress)
 371:.\Generated_Source\PSoC4/RxDmaS.h **** {
ARM GAS  C:\Users\TOM~1.MCK\AppData\Local\Temp\cc9DiSGE.s 			page 11


 372:.\Generated_Source\PSoC4/RxDmaS.h ****     CyDmaSetDstAddress(RxDmaS_CHANNEL, descriptor, dstAddress);
 107              		.loc 2 372 0
 108 0026 0120     		mov	r0, #1
 109 0028 0021     		mov	r1, #0
 110 002a 221C     		mov	r2, r4
 111 002c FFF7FEFF 		bl	CyDmaSetDstAddress
 112              	.LVL4:
 113              	.LBE13:
 114              	.LBE12:
 115              	.LBB14:
 116              	.LBB15:
 279:.\Generated_Source\PSoC4/RxDmaS.h **** }
 117              		.loc 2 279 0
 118 0030 0120     		mov	r0, #1
 119 0032 0021     		mov	r1, #0
 120 0034 FFF7FEFF 		bl	CyDmaValidateDescriptor
 121              	.LVL5:
 122              	.LBE15:
 123              	.LBE14:
 124              	.LBB16:
 125              	.LBB17:
  96:.\Generated_Source\PSoC4/RxDmaS.h **** }
 126              		.loc 2 96 0
 127 0038 0120     		mov	r0, #1
 128 003a FFF7FEFF 		bl	CyDmaChEnable
 129              	.LVL6:
 130              	.LBE17:
 131              	.LBE16:
  51:.\Generated_Source\PSoC4/RxDmaS.c **** 
 132              		.loc 1 51 0
 133              		@ sp needed
 134              	.LVL7:
 135              	.LVL8:
 136 003e 38BD     		pop	{r3, r4, r5, pc}
 137              	.L7:
 138              		.align	2
 139              	.L6:
 140 0040 00000000 		.word	.LANCHOR0
 141              		.cfi_endproc
 142              	.LFE32:
 143              		.size	RxDmaS_Start, .-RxDmaS_Start
 144              		.global	RxDmaS_initVar
 145              		.bss
 146              		.set	.LANCHOR0,. + 0
 147              		.type	RxDmaS_initVar, %object
 148              		.size	RxDmaS_initVar, 1
 149              	RxDmaS_initVar:
 150 0000 00       		.space	1
 151              		.text
 152              	.Letext0:
 153              		.file 3 ".\\Generated_Source\\PSoC4\\cytypes.h"
 154              		.file 4 ".\\Generated_Source\\PSoC4\\CyDMA.h"
 155              		.section	.debug_info,"",%progbits
 156              	.Ldebug_info0:
 157 0000 6B030000 		.4byte	0x36b
 158 0004 0400     		.2byte	0x4
 159 0006 00000000 		.4byte	.Ldebug_abbrev0
ARM GAS  C:\Users\TOM~1.MCK\AppData\Local\Temp\cc9DiSGE.s 			page 12


 160 000a 04       		.byte	0x4
 161 000b 01       		.uleb128 0x1
 162 000c 47010000 		.4byte	.LASF31
 163 0010 01       		.byte	0x1
 164 0011 FD010000 		.4byte	.LASF32
 165 0015 49000000 		.4byte	.LASF33
 166 0019 00000000 		.4byte	.Ldebug_ranges0+0
 167 001d 00000000 		.4byte	0
 168 0021 00000000 		.4byte	.Ldebug_line0
 169 0025 02       		.uleb128 0x2
 170 0026 01       		.byte	0x1
 171 0027 06       		.byte	0x6
 172 0028 F6000000 		.4byte	.LASF0
 173 002c 02       		.uleb128 0x2
 174 002d 01       		.byte	0x1
 175 002e 08       		.byte	0x8
 176 002f D5010000 		.4byte	.LASF1
 177 0033 02       		.uleb128 0x2
 178 0034 02       		.byte	0x2
 179 0035 05       		.byte	0x5
 180 0036 36000000 		.4byte	.LASF2
 181 003a 02       		.uleb128 0x2
 182 003b 02       		.byte	0x2
 183 003c 07       		.byte	0x7
 184 003d 59020000 		.4byte	.LASF3
 185 0041 02       		.uleb128 0x2
 186 0042 04       		.byte	0x4
 187 0043 05       		.byte	0x5
 188 0044 16010000 		.4byte	.LASF4
 189 0048 02       		.uleb128 0x2
 190 0049 04       		.byte	0x4
 191 004a 07       		.byte	0x7
 192 004b CD020000 		.4byte	.LASF5
 193 004f 02       		.uleb128 0x2
 194 0050 08       		.byte	0x8
 195 0051 05       		.byte	0x5
 196 0052 08010000 		.4byte	.LASF6
 197 0056 02       		.uleb128 0x2
 198 0057 08       		.byte	0x8
 199 0058 07       		.byte	0x7
 200 0059 1F020000 		.4byte	.LASF7
 201 005d 03       		.uleb128 0x3
 202 005e 04       		.byte	0x4
 203 005f 05       		.byte	0x5
 204 0060 696E7400 		.ascii	"int\000"
 205 0064 02       		.uleb128 0x2
 206 0065 04       		.byte	0x4
 207 0066 07       		.byte	0x7
 208 0067 36020000 		.4byte	.LASF8
 209 006b 04       		.uleb128 0x4
 210 006c DB000000 		.4byte	.LASF9
 211 0070 03       		.byte	0x3
 212 0071 9801     		.2byte	0x198
 213 0073 2C000000 		.4byte	0x2c
 214 0077 04       		.uleb128 0x4
 215 0078 C6020000 		.4byte	.LASF10
 216 007c 03       		.byte	0x3
ARM GAS  C:\Users\TOM~1.MCK\AppData\Local\Temp\cc9DiSGE.s 			page 13


 217 007d 9A01     		.2byte	0x19a
 218 007f 48000000 		.4byte	0x48
 219 0083 04       		.uleb128 0x4
 220 0084 DF020000 		.4byte	.LASF11
 221 0088 03       		.byte	0x3
 222 0089 9D01     		.2byte	0x19d
 223 008b 41000000 		.4byte	0x41
 224 008f 02       		.uleb128 0x2
 225 0090 04       		.byte	0x4
 226 0091 04       		.byte	0x4
 227 0092 02010000 		.4byte	.LASF12
 228 0096 02       		.uleb128 0x2
 229 0097 08       		.byte	0x8
 230 0098 04       		.byte	0x4
 231 0099 E5020000 		.4byte	.LASF13
 232 009d 02       		.uleb128 0x2
 233 009e 01       		.byte	0x1
 234 009f 08       		.byte	0x8
 235 00a0 8F020000 		.4byte	.LASF14
 236 00a4 04       		.uleb128 0x4
 237 00a5 53020000 		.4byte	.LASF15
 238 00a9 03       		.byte	0x3
 239 00aa 4402     		.2byte	0x244
 240 00ac B0000000 		.4byte	0xb0
 241 00b0 05       		.uleb128 0x5
 242 00b1 77000000 		.4byte	0x77
 243 00b5 06       		.uleb128 0x6
 244 00b6 20       		.byte	0x20
 245 00b7 04       		.byte	0x4
 246 00b8 26       		.byte	0x26
 247 00b9 CA000000 		.4byte	0xca
 248 00bd 07       		.uleb128 0x7
 249 00be 63746C00 		.ascii	"ctl\000"
 250 00c2 04       		.byte	0x4
 251 00c3 28       		.byte	0x28
 252 00c4 CA000000 		.4byte	0xca
 253 00c8 00       		.byte	0
 254 00c9 00       		.byte	0
 255 00ca 08       		.uleb128 0x8
 256 00cb 77000000 		.4byte	0x77
 257 00cf DA000000 		.4byte	0xda
 258 00d3 09       		.uleb128 0x9
 259 00d4 DA000000 		.4byte	0xda
 260 00d8 07       		.byte	0x7
 261 00d9 00       		.byte	0
 262 00da 02       		.uleb128 0x2
 263 00db 04       		.byte	0x4
 264 00dc 07       		.byte	0x7
 265 00dd 40000000 		.4byte	.LASF16
 266 00e1 0A       		.uleb128 0xa
 267 00e2 C2000000 		.4byte	.LASF17
 268 00e6 04       		.byte	0x4
 269 00e7 29       		.byte	0x29
 270 00e8 B5000000 		.4byte	0xb5
 271 00ec 06       		.uleb128 0x6
 272 00ed 10       		.byte	0x10
 273 00ee 04       		.byte	0x4
ARM GAS  C:\Users\TOM~1.MCK\AppData\Local\Temp\cc9DiSGE.s 			page 14


 274 00ef 2C       		.byte	0x2c
 275 00f0 25010000 		.4byte	0x125
 276 00f4 07       		.uleb128 0x7
 277 00f5 73726300 		.ascii	"src\000"
 278 00f9 04       		.byte	0x4
 279 00fa 2E       		.byte	0x2e
 280 00fb 25010000 		.4byte	0x125
 281 00ff 00       		.byte	0
 282 0100 07       		.uleb128 0x7
 283 0101 64737400 		.ascii	"dst\000"
 284 0105 04       		.byte	0x4
 285 0106 2F       		.byte	0x2f
 286 0107 25010000 		.4byte	0x125
 287 010b 04       		.byte	0x4
 288 010c 07       		.uleb128 0x7
 289 010d 63746C00 		.ascii	"ctl\000"
 290 0111 04       		.byte	0x4
 291 0112 30       		.byte	0x30
 292 0113 77000000 		.4byte	0x77
 293 0117 08       		.byte	0x8
 294 0118 0B       		.uleb128 0xb
 295 0119 6C020000 		.4byte	.LASF18
 296 011d 04       		.byte	0x4
 297 011e 31       		.byte	0x31
 298 011f 77000000 		.4byte	0x77
 299 0123 0C       		.byte	0xc
 300 0124 00       		.byte	0
 301 0125 0C       		.uleb128 0xc
 302 0126 04       		.byte	0x4
 303 0127 0A       		.uleb128 0xa
 304 0128 94020000 		.4byte	.LASF19
 305 012c 04       		.byte	0x4
 306 012d 32       		.byte	0x32
 307 012e EC000000 		.4byte	0xec
 308 0132 0D       		.uleb128 0xd
 309 0133 0001     		.2byte	0x100
 310 0135 04       		.byte	0x4
 311 0136 38       		.byte	0x38
 312 0137 48010000 		.4byte	0x148
 313 013b 0B       		.uleb128 0xb
 314 013c 1F030000 		.4byte	.LASF20
 315 0140 04       		.byte	0x4
 316 0141 3A       		.byte	0x3a
 317 0142 48010000 		.4byte	0x148
 318 0146 00       		.byte	0
 319 0147 00       		.byte	0
 320 0148 08       		.uleb128 0x8
 321 0149 27010000 		.4byte	0x127
 322 014d 5E010000 		.4byte	0x15e
 323 0151 09       		.uleb128 0x9
 324 0152 DA000000 		.4byte	0xda
 325 0156 07       		.byte	0x7
 326 0157 09       		.uleb128 0x9
 327 0158 DA000000 		.4byte	0xda
 328 015c 01       		.byte	0x1
 329 015d 00       		.byte	0
 330 015e 0A       		.uleb128 0xa
ARM GAS  C:\Users\TOM~1.MCK\AppData\Local\Temp\cc9DiSGE.s 			page 15


 331 015f 73020000 		.4byte	.LASF21
 332 0163 04       		.byte	0x4
 333 0164 3B       		.byte	0x3b
 334 0165 32010000 		.4byte	0x132
 335 0169 0E       		.uleb128 0xe
 336 016a 1F010000 		.4byte	.LASF23
 337 016e 02       		.byte	0x2
 338 016f 4401     		.2byte	0x144
 339 0171 03       		.byte	0x3
 340 0172 8F010000 		.4byte	0x18f
 341 0176 0F       		.uleb128 0xf
 342 0177 1F030000 		.4byte	.LASF20
 343 017b 02       		.byte	0x2
 344 017c 4401     		.2byte	0x144
 345 017e 83000000 		.4byte	0x83
 346 0182 0F       		.uleb128 0xf
 347 0183 AC020000 		.4byte	.LASF22
 348 0187 02       		.byte	0x2
 349 0188 4401     		.2byte	0x144
 350 018a 25010000 		.4byte	0x125
 351 018e 00       		.byte	0
 352 018f 0E       		.uleb128 0xe
 353 0190 E1000000 		.4byte	.LASF24
 354 0194 02       		.byte	0x2
 355 0195 7201     		.2byte	0x172
 356 0197 03       		.byte	0x3
 357 0198 B5010000 		.4byte	0x1b5
 358 019c 0F       		.uleb128 0xf
 359 019d 1F030000 		.4byte	.LASF20
 360 01a1 02       		.byte	0x2
 361 01a2 7201     		.2byte	0x172
 362 01a4 83000000 		.4byte	0x83
 363 01a8 0F       		.uleb128 0xf
 364 01a9 00000000 		.4byte	.LASF25
 365 01ad 02       		.byte	0x2
 366 01ae 7201     		.2byte	0x172
 367 01b0 25010000 		.4byte	0x125
 368 01b4 00       		.byte	0
 369 01b5 0E       		.uleb128 0xe
 370 01b6 E3010000 		.4byte	.LASF26
 371 01ba 02       		.byte	0x2
 372 01bb 1501     		.2byte	0x115
 373 01bd 03       		.byte	0x3
 374 01be CF010000 		.4byte	0x1cf
 375 01c2 0F       		.uleb128 0xf
 376 01c3 1F030000 		.4byte	.LASF20
 377 01c7 02       		.byte	0x2
 378 01c8 1501     		.2byte	0x115
 379 01ca 83000000 		.4byte	0x83
 380 01ce 00       		.byte	0
 381 01cf 10       		.uleb128 0x10
 382 01d0 43020000 		.4byte	.LASF34
 383 01d4 02       		.byte	0x2
 384 01d5 5E       		.byte	0x5e
 385 01d6 03       		.byte	0x3
 386 01d7 11       		.uleb128 0x11
 387 01d8 F9020000 		.4byte	.LASF35
ARM GAS  C:\Users\TOM~1.MCK\AppData\Local\Temp\cc9DiSGE.s 			page 16


 388 01dc 01       		.byte	0x1
 389 01dd 4C       		.byte	0x4c
 390 01de 00000000 		.4byte	.LFB33
 391 01e2 30000000 		.4byte	.LFE33-.LFB33
 392 01e6 01       		.uleb128 0x1
 393 01e7 9C       		.byte	0x9c
 394 01e8 12       		.uleb128 0x12
 395 01e9 EC020000 		.4byte	.LASF36
 396 01ed 01       		.byte	0x1
 397 01ee 27       		.byte	0x27
 398 01ef 00000000 		.4byte	.LFB32
 399 01f3 44000000 		.4byte	.LFE32-.LFB32
 400 01f7 01       		.uleb128 0x1
 401 01f8 9C       		.byte	0x9c
 402 01f9 F9020000 		.4byte	0x2f9
 403 01fd 13       		.uleb128 0x13
 404 01fe AC020000 		.4byte	.LASF22
 405 0202 01       		.byte	0x1
 406 0203 27       		.byte	0x27
 407 0204 25010000 		.4byte	0x125
 408 0208 00000000 		.4byte	.LLST0
 409 020c 13       		.uleb128 0x13
 410 020d 00000000 		.4byte	.LASF25
 411 0211 01       		.byte	0x1
 412 0212 27       		.byte	0x27
 413 0213 25010000 		.4byte	0x125
 414 0217 2C000000 		.4byte	.LLST1
 415 021b 14       		.uleb128 0x14
 416 021c 69010000 		.4byte	0x169
 417 0220 1C000000 		.4byte	.LBB10
 418 0224 0A000000 		.4byte	.LBE10-.LBB10
 419 0228 01       		.byte	0x1
 420 0229 2F       		.byte	0x2f
 421 022a 58020000 		.4byte	0x258
 422 022e 15       		.uleb128 0x15
 423 022f 82010000 		.4byte	0x182
 424 0233 58000000 		.4byte	.LLST2
 425 0237 16       		.uleb128 0x16
 426 0238 76010000 		.4byte	0x176
 427 023c 00       		.byte	0
 428 023d 17       		.uleb128 0x17
 429 023e 26000000 		.4byte	.LVL3
 430 0242 0A030000 		.4byte	0x30a
 431 0246 18       		.uleb128 0x18
 432 0247 01       		.uleb128 0x1
 433 0248 52       		.byte	0x52
 434 0249 02       		.uleb128 0x2
 435 024a 75       		.byte	0x75
 436 024b 00       		.sleb128 0
 437 024c 18       		.uleb128 0x18
 438 024d 01       		.uleb128 0x1
 439 024e 51       		.byte	0x51
 440 024f 01       		.uleb128 0x1
 441 0250 30       		.byte	0x30
 442 0251 18       		.uleb128 0x18
 443 0252 01       		.uleb128 0x1
 444 0253 50       		.byte	0x50
ARM GAS  C:\Users\TOM~1.MCK\AppData\Local\Temp\cc9DiSGE.s 			page 17


 445 0254 01       		.uleb128 0x1
 446 0255 31       		.byte	0x31
 447 0256 00       		.byte	0
 448 0257 00       		.byte	0
 449 0258 14       		.uleb128 0x14
 450 0259 8F010000 		.4byte	0x18f
 451 025d 26000000 		.4byte	.LBB12
 452 0261 0A000000 		.4byte	.LBE12-.LBB12
 453 0265 01       		.byte	0x1
 454 0266 30       		.byte	0x30
 455 0267 95020000 		.4byte	0x295
 456 026b 15       		.uleb128 0x15
 457 026c A8010000 		.4byte	0x1a8
 458 0270 79000000 		.4byte	.LLST3
 459 0274 16       		.uleb128 0x16
 460 0275 9C010000 		.4byte	0x19c
 461 0279 00       		.byte	0
 462 027a 17       		.uleb128 0x17
 463 027b 30000000 		.4byte	.LVL4
 464 027f 25030000 		.4byte	0x325
 465 0283 18       		.uleb128 0x18
 466 0284 01       		.uleb128 0x1
 467 0285 52       		.byte	0x52
 468 0286 02       		.uleb128 0x2
 469 0287 74       		.byte	0x74
 470 0288 00       		.sleb128 0
 471 0289 18       		.uleb128 0x18
 472 028a 01       		.uleb128 0x1
 473 028b 51       		.byte	0x51
 474 028c 01       		.uleb128 0x1
 475 028d 30       		.byte	0x30
 476 028e 18       		.uleb128 0x18
 477 028f 01       		.uleb128 0x1
 478 0290 50       		.byte	0x50
 479 0291 01       		.uleb128 0x1
 480 0292 31       		.byte	0x31
 481 0293 00       		.byte	0
 482 0294 00       		.byte	0
 483 0295 14       		.uleb128 0x14
 484 0296 B5010000 		.4byte	0x1b5
 485 029a 30000000 		.4byte	.LBB14
 486 029e 08000000 		.4byte	.LBE14-.LBB14
 487 02a2 01       		.byte	0x1
 488 02a3 31       		.byte	0x31
 489 02a4 C3020000 		.4byte	0x2c3
 490 02a8 16       		.uleb128 0x16
 491 02a9 C2010000 		.4byte	0x1c2
 492 02ad 00       		.byte	0
 493 02ae 17       		.uleb128 0x17
 494 02af 38000000 		.4byte	.LVL5
 495 02b3 40030000 		.4byte	0x340
 496 02b7 18       		.uleb128 0x18
 497 02b8 01       		.uleb128 0x1
 498 02b9 51       		.byte	0x51
 499 02ba 01       		.uleb128 0x1
 500 02bb 30       		.byte	0x30
 501 02bc 18       		.uleb128 0x18
ARM GAS  C:\Users\TOM~1.MCK\AppData\Local\Temp\cc9DiSGE.s 			page 18


 502 02bd 01       		.uleb128 0x1
 503 02be 50       		.byte	0x50
 504 02bf 01       		.uleb128 0x1
 505 02c0 31       		.byte	0x31
 506 02c1 00       		.byte	0
 507 02c2 00       		.byte	0
 508 02c3 14       		.uleb128 0x14
 509 02c4 CF010000 		.4byte	0x1cf
 510 02c8 38000000 		.4byte	.LBB16
 511 02cc 06000000 		.4byte	.LBE16-.LBB16
 512 02d0 01       		.byte	0x1
 513 02d1 32       		.byte	0x32
 514 02d2 E6020000 		.4byte	0x2e6
 515 02d6 17       		.uleb128 0x17
 516 02d7 3E000000 		.4byte	.LVL6
 517 02db 56030000 		.4byte	0x356
 518 02df 18       		.uleb128 0x18
 519 02e0 01       		.uleb128 0x1
 520 02e1 50       		.byte	0x50
 521 02e2 01       		.uleb128 0x1
 522 02e3 31       		.byte	0x31
 523 02e4 00       		.byte	0
 524 02e5 00       		.byte	0
 525 02e6 19       		.uleb128 0x19
 526 02e7 12000000 		.4byte	.LVL1
 527 02eb D7010000 		.4byte	0x1d7
 528 02ef 19       		.uleb128 0x19
 529 02f0 1C000000 		.4byte	.LVL2
 530 02f4 67030000 		.4byte	0x367
 531 02f8 00       		.byte	0
 532 02f9 1A       		.uleb128 0x1a
 533 02fa B7020000 		.4byte	.LASF37
 534 02fe 01       		.byte	0x1
 535 02ff 11       		.byte	0x11
 536 0300 6B000000 		.4byte	0x6b
 537 0304 05       		.uleb128 0x5
 538 0305 03       		.byte	0x3
 539 0306 00000000 		.4byte	RxDmaS_initVar
 540 030a 1B       		.uleb128 0x1b
 541 030b 23000000 		.4byte	.LASF27
 542 030f 04       		.byte	0x4
 543 0310 93       		.byte	0x93
 544 0311 25030000 		.4byte	0x325
 545 0315 1C       		.uleb128 0x1c
 546 0316 83000000 		.4byte	0x83
 547 031a 1C       		.uleb128 0x1c
 548 031b 83000000 		.4byte	0x83
 549 031f 1C       		.uleb128 0x1c
 550 0320 25010000 		.4byte	0x125
 551 0324 00       		.byte	0
 552 0325 1B       		.uleb128 0x1b
 553 0326 34010000 		.4byte	.LASF28
 554 032a 04       		.byte	0x4
 555 032b 96       		.byte	0x96
 556 032c 40030000 		.4byte	0x340
 557 0330 1C       		.uleb128 0x1c
 558 0331 83000000 		.4byte	0x83
ARM GAS  C:\Users\TOM~1.MCK\AppData\Local\Temp\cc9DiSGE.s 			page 19


 559 0335 1C       		.uleb128 0x1c
 560 0336 83000000 		.4byte	0x83
 561 033a 1C       		.uleb128 0x1c
 562 033b 25010000 		.4byte	0x125
 563 033f 00       		.byte	0
 564 0340 1B       		.uleb128 0x1b
 565 0341 0B000000 		.4byte	.LASF29
 566 0345 04       		.byte	0x4
 567 0346 8F       		.byte	0x8f
 568 0347 56030000 		.4byte	0x356
 569 034b 1C       		.uleb128 0x1c
 570 034c 83000000 		.4byte	0x83
 571 0350 1C       		.uleb128 0x1c
 572 0351 83000000 		.4byte	0x83
 573 0355 00       		.byte	0
 574 0356 1B       		.uleb128 0x1b
 575 0357 05030000 		.4byte	.LASF30
 576 035b 04       		.byte	0x4
 577 035c 82       		.byte	0x82
 578 035d 67030000 		.4byte	0x367
 579 0361 1C       		.uleb128 0x1c
 580 0362 83000000 		.4byte	0x83
 581 0366 00       		.byte	0
 582 0367 1D       		.uleb128 0x1d
 583 0368 13030000 		.4byte	.LASF38
 584 036c 04       		.byte	0x4
 585 036d 6D       		.byte	0x6d
 586 036e 00       		.byte	0
 587              		.section	.debug_abbrev,"",%progbits
 588              	.Ldebug_abbrev0:
 589 0000 01       		.uleb128 0x1
 590 0001 11       		.uleb128 0x11
 591 0002 01       		.byte	0x1
 592 0003 25       		.uleb128 0x25
 593 0004 0E       		.uleb128 0xe
 594 0005 13       		.uleb128 0x13
 595 0006 0B       		.uleb128 0xb
 596 0007 03       		.uleb128 0x3
 597 0008 0E       		.uleb128 0xe
 598 0009 1B       		.uleb128 0x1b
 599 000a 0E       		.uleb128 0xe
 600 000b 55       		.uleb128 0x55
 601 000c 17       		.uleb128 0x17
 602 000d 11       		.uleb128 0x11
 603 000e 01       		.uleb128 0x1
 604 000f 10       		.uleb128 0x10
 605 0010 17       		.uleb128 0x17
 606 0011 00       		.byte	0
 607 0012 00       		.byte	0
 608 0013 02       		.uleb128 0x2
 609 0014 24       		.uleb128 0x24
 610 0015 00       		.byte	0
 611 0016 0B       		.uleb128 0xb
 612 0017 0B       		.uleb128 0xb
 613 0018 3E       		.uleb128 0x3e
 614 0019 0B       		.uleb128 0xb
 615 001a 03       		.uleb128 0x3
ARM GAS  C:\Users\TOM~1.MCK\AppData\Local\Temp\cc9DiSGE.s 			page 20


 616 001b 0E       		.uleb128 0xe
 617 001c 00       		.byte	0
 618 001d 00       		.byte	0
 619 001e 03       		.uleb128 0x3
 620 001f 24       		.uleb128 0x24
 621 0020 00       		.byte	0
 622 0021 0B       		.uleb128 0xb
 623 0022 0B       		.uleb128 0xb
 624 0023 3E       		.uleb128 0x3e
 625 0024 0B       		.uleb128 0xb
 626 0025 03       		.uleb128 0x3
 627 0026 08       		.uleb128 0x8
 628 0027 00       		.byte	0
 629 0028 00       		.byte	0
 630 0029 04       		.uleb128 0x4
 631 002a 16       		.uleb128 0x16
 632 002b 00       		.byte	0
 633 002c 03       		.uleb128 0x3
 634 002d 0E       		.uleb128 0xe
 635 002e 3A       		.uleb128 0x3a
 636 002f 0B       		.uleb128 0xb
 637 0030 3B       		.uleb128 0x3b
 638 0031 05       		.uleb128 0x5
 639 0032 49       		.uleb128 0x49
 640 0033 13       		.uleb128 0x13
 641 0034 00       		.byte	0
 642 0035 00       		.byte	0
 643 0036 05       		.uleb128 0x5
 644 0037 35       		.uleb128 0x35
 645 0038 00       		.byte	0
 646 0039 49       		.uleb128 0x49
 647 003a 13       		.uleb128 0x13
 648 003b 00       		.byte	0
 649 003c 00       		.byte	0
 650 003d 06       		.uleb128 0x6
 651 003e 13       		.uleb128 0x13
 652 003f 01       		.byte	0x1
 653 0040 0B       		.uleb128 0xb
 654 0041 0B       		.uleb128 0xb
 655 0042 3A       		.uleb128 0x3a
 656 0043 0B       		.uleb128 0xb
 657 0044 3B       		.uleb128 0x3b
 658 0045 0B       		.uleb128 0xb
 659 0046 01       		.uleb128 0x1
 660 0047 13       		.uleb128 0x13
 661 0048 00       		.byte	0
 662 0049 00       		.byte	0
 663 004a 07       		.uleb128 0x7
 664 004b 0D       		.uleb128 0xd
 665 004c 00       		.byte	0
 666 004d 03       		.uleb128 0x3
 667 004e 08       		.uleb128 0x8
 668 004f 3A       		.uleb128 0x3a
 669 0050 0B       		.uleb128 0xb
 670 0051 3B       		.uleb128 0x3b
 671 0052 0B       		.uleb128 0xb
 672 0053 49       		.uleb128 0x49
ARM GAS  C:\Users\TOM~1.MCK\AppData\Local\Temp\cc9DiSGE.s 			page 21


 673 0054 13       		.uleb128 0x13
 674 0055 38       		.uleb128 0x38
 675 0056 0B       		.uleb128 0xb
 676 0057 00       		.byte	0
 677 0058 00       		.byte	0
 678 0059 08       		.uleb128 0x8
 679 005a 01       		.uleb128 0x1
 680 005b 01       		.byte	0x1
 681 005c 49       		.uleb128 0x49
 682 005d 13       		.uleb128 0x13
 683 005e 01       		.uleb128 0x1
 684 005f 13       		.uleb128 0x13
 685 0060 00       		.byte	0
 686 0061 00       		.byte	0
 687 0062 09       		.uleb128 0x9
 688 0063 21       		.uleb128 0x21
 689 0064 00       		.byte	0
 690 0065 49       		.uleb128 0x49
 691 0066 13       		.uleb128 0x13
 692 0067 2F       		.uleb128 0x2f
 693 0068 0B       		.uleb128 0xb
 694 0069 00       		.byte	0
 695 006a 00       		.byte	0
 696 006b 0A       		.uleb128 0xa
 697 006c 16       		.uleb128 0x16
 698 006d 00       		.byte	0
 699 006e 03       		.uleb128 0x3
 700 006f 0E       		.uleb128 0xe
 701 0070 3A       		.uleb128 0x3a
 702 0071 0B       		.uleb128 0xb
 703 0072 3B       		.uleb128 0x3b
 704 0073 0B       		.uleb128 0xb
 705 0074 49       		.uleb128 0x49
 706 0075 13       		.uleb128 0x13
 707 0076 00       		.byte	0
 708 0077 00       		.byte	0
 709 0078 0B       		.uleb128 0xb
 710 0079 0D       		.uleb128 0xd
 711 007a 00       		.byte	0
 712 007b 03       		.uleb128 0x3
 713 007c 0E       		.uleb128 0xe
 714 007d 3A       		.uleb128 0x3a
 715 007e 0B       		.uleb128 0xb
 716 007f 3B       		.uleb128 0x3b
 717 0080 0B       		.uleb128 0xb
 718 0081 49       		.uleb128 0x49
 719 0082 13       		.uleb128 0x13
 720 0083 38       		.uleb128 0x38
 721 0084 0B       		.uleb128 0xb
 722 0085 00       		.byte	0
 723 0086 00       		.byte	0
 724 0087 0C       		.uleb128 0xc
 725 0088 0F       		.uleb128 0xf
 726 0089 00       		.byte	0
 727 008a 0B       		.uleb128 0xb
 728 008b 0B       		.uleb128 0xb
 729 008c 00       		.byte	0
ARM GAS  C:\Users\TOM~1.MCK\AppData\Local\Temp\cc9DiSGE.s 			page 22


 730 008d 00       		.byte	0
 731 008e 0D       		.uleb128 0xd
 732 008f 13       		.uleb128 0x13
 733 0090 01       		.byte	0x1
 734 0091 0B       		.uleb128 0xb
 735 0092 05       		.uleb128 0x5
 736 0093 3A       		.uleb128 0x3a
 737 0094 0B       		.uleb128 0xb
 738 0095 3B       		.uleb128 0x3b
 739 0096 0B       		.uleb128 0xb
 740 0097 01       		.uleb128 0x1
 741 0098 13       		.uleb128 0x13
 742 0099 00       		.byte	0
 743 009a 00       		.byte	0
 744 009b 0E       		.uleb128 0xe
 745 009c 2E       		.uleb128 0x2e
 746 009d 01       		.byte	0x1
 747 009e 03       		.uleb128 0x3
 748 009f 0E       		.uleb128 0xe
 749 00a0 3A       		.uleb128 0x3a
 750 00a1 0B       		.uleb128 0xb
 751 00a2 3B       		.uleb128 0x3b
 752 00a3 05       		.uleb128 0x5
 753 00a4 27       		.uleb128 0x27
 754 00a5 19       		.uleb128 0x19
 755 00a6 20       		.uleb128 0x20
 756 00a7 0B       		.uleb128 0xb
 757 00a8 01       		.uleb128 0x1
 758 00a9 13       		.uleb128 0x13
 759 00aa 00       		.byte	0
 760 00ab 00       		.byte	0
 761 00ac 0F       		.uleb128 0xf
 762 00ad 05       		.uleb128 0x5
 763 00ae 00       		.byte	0
 764 00af 03       		.uleb128 0x3
 765 00b0 0E       		.uleb128 0xe
 766 00b1 3A       		.uleb128 0x3a
 767 00b2 0B       		.uleb128 0xb
 768 00b3 3B       		.uleb128 0x3b
 769 00b4 05       		.uleb128 0x5
 770 00b5 49       		.uleb128 0x49
 771 00b6 13       		.uleb128 0x13
 772 00b7 00       		.byte	0
 773 00b8 00       		.byte	0
 774 00b9 10       		.uleb128 0x10
 775 00ba 2E       		.uleb128 0x2e
 776 00bb 00       		.byte	0
 777 00bc 03       		.uleb128 0x3
 778 00bd 0E       		.uleb128 0xe
 779 00be 3A       		.uleb128 0x3a
 780 00bf 0B       		.uleb128 0xb
 781 00c0 3B       		.uleb128 0x3b
 782 00c1 0B       		.uleb128 0xb
 783 00c2 27       		.uleb128 0x27
 784 00c3 19       		.uleb128 0x19
 785 00c4 20       		.uleb128 0x20
 786 00c5 0B       		.uleb128 0xb
ARM GAS  C:\Users\TOM~1.MCK\AppData\Local\Temp\cc9DiSGE.s 			page 23


 787 00c6 00       		.byte	0
 788 00c7 00       		.byte	0
 789 00c8 11       		.uleb128 0x11
 790 00c9 2E       		.uleb128 0x2e
 791 00ca 00       		.byte	0
 792 00cb 3F       		.uleb128 0x3f
 793 00cc 19       		.uleb128 0x19
 794 00cd 03       		.uleb128 0x3
 795 00ce 0E       		.uleb128 0xe
 796 00cf 3A       		.uleb128 0x3a
 797 00d0 0B       		.uleb128 0xb
 798 00d1 3B       		.uleb128 0x3b
 799 00d2 0B       		.uleb128 0xb
 800 00d3 27       		.uleb128 0x27
 801 00d4 19       		.uleb128 0x19
 802 00d5 11       		.uleb128 0x11
 803 00d6 01       		.uleb128 0x1
 804 00d7 12       		.uleb128 0x12
 805 00d8 06       		.uleb128 0x6
 806 00d9 40       		.uleb128 0x40
 807 00da 18       		.uleb128 0x18
 808 00db 9742     		.uleb128 0x2117
 809 00dd 19       		.uleb128 0x19
 810 00de 00       		.byte	0
 811 00df 00       		.byte	0
 812 00e0 12       		.uleb128 0x12
 813 00e1 2E       		.uleb128 0x2e
 814 00e2 01       		.byte	0x1
 815 00e3 3F       		.uleb128 0x3f
 816 00e4 19       		.uleb128 0x19
 817 00e5 03       		.uleb128 0x3
 818 00e6 0E       		.uleb128 0xe
 819 00e7 3A       		.uleb128 0x3a
 820 00e8 0B       		.uleb128 0xb
 821 00e9 3B       		.uleb128 0x3b
 822 00ea 0B       		.uleb128 0xb
 823 00eb 27       		.uleb128 0x27
 824 00ec 19       		.uleb128 0x19
 825 00ed 11       		.uleb128 0x11
 826 00ee 01       		.uleb128 0x1
 827 00ef 12       		.uleb128 0x12
 828 00f0 06       		.uleb128 0x6
 829 00f1 40       		.uleb128 0x40
 830 00f2 18       		.uleb128 0x18
 831 00f3 9742     		.uleb128 0x2117
 832 00f5 19       		.uleb128 0x19
 833 00f6 01       		.uleb128 0x1
 834 00f7 13       		.uleb128 0x13
 835 00f8 00       		.byte	0
 836 00f9 00       		.byte	0
 837 00fa 13       		.uleb128 0x13
 838 00fb 05       		.uleb128 0x5
 839 00fc 00       		.byte	0
 840 00fd 03       		.uleb128 0x3
 841 00fe 0E       		.uleb128 0xe
 842 00ff 3A       		.uleb128 0x3a
 843 0100 0B       		.uleb128 0xb
ARM GAS  C:\Users\TOM~1.MCK\AppData\Local\Temp\cc9DiSGE.s 			page 24


 844 0101 3B       		.uleb128 0x3b
 845 0102 0B       		.uleb128 0xb
 846 0103 49       		.uleb128 0x49
 847 0104 13       		.uleb128 0x13
 848 0105 02       		.uleb128 0x2
 849 0106 17       		.uleb128 0x17
 850 0107 00       		.byte	0
 851 0108 00       		.byte	0
 852 0109 14       		.uleb128 0x14
 853 010a 1D       		.uleb128 0x1d
 854 010b 01       		.byte	0x1
 855 010c 31       		.uleb128 0x31
 856 010d 13       		.uleb128 0x13
 857 010e 11       		.uleb128 0x11
 858 010f 01       		.uleb128 0x1
 859 0110 12       		.uleb128 0x12
 860 0111 06       		.uleb128 0x6
 861 0112 58       		.uleb128 0x58
 862 0113 0B       		.uleb128 0xb
 863 0114 59       		.uleb128 0x59
 864 0115 0B       		.uleb128 0xb
 865 0116 01       		.uleb128 0x1
 866 0117 13       		.uleb128 0x13
 867 0118 00       		.byte	0
 868 0119 00       		.byte	0
 869 011a 15       		.uleb128 0x15
 870 011b 05       		.uleb128 0x5
 871 011c 00       		.byte	0
 872 011d 31       		.uleb128 0x31
 873 011e 13       		.uleb128 0x13
 874 011f 02       		.uleb128 0x2
 875 0120 17       		.uleb128 0x17
 876 0121 00       		.byte	0
 877 0122 00       		.byte	0
 878 0123 16       		.uleb128 0x16
 879 0124 05       		.uleb128 0x5
 880 0125 00       		.byte	0
 881 0126 31       		.uleb128 0x31
 882 0127 13       		.uleb128 0x13
 883 0128 1C       		.uleb128 0x1c
 884 0129 0B       		.uleb128 0xb
 885 012a 00       		.byte	0
 886 012b 00       		.byte	0
 887 012c 17       		.uleb128 0x17
 888 012d 898201   		.uleb128 0x4109
 889 0130 01       		.byte	0x1
 890 0131 11       		.uleb128 0x11
 891 0132 01       		.uleb128 0x1
 892 0133 31       		.uleb128 0x31
 893 0134 13       		.uleb128 0x13
 894 0135 00       		.byte	0
 895 0136 00       		.byte	0
 896 0137 18       		.uleb128 0x18
 897 0138 8A8201   		.uleb128 0x410a
 898 013b 00       		.byte	0
 899 013c 02       		.uleb128 0x2
 900 013d 18       		.uleb128 0x18
ARM GAS  C:\Users\TOM~1.MCK\AppData\Local\Temp\cc9DiSGE.s 			page 25


 901 013e 9142     		.uleb128 0x2111
 902 0140 18       		.uleb128 0x18
 903 0141 00       		.byte	0
 904 0142 00       		.byte	0
 905 0143 19       		.uleb128 0x19
 906 0144 898201   		.uleb128 0x4109
 907 0147 00       		.byte	0
 908 0148 11       		.uleb128 0x11
 909 0149 01       		.uleb128 0x1
 910 014a 31       		.uleb128 0x31
 911 014b 13       		.uleb128 0x13
 912 014c 00       		.byte	0
 913 014d 00       		.byte	0
 914 014e 1A       		.uleb128 0x1a
 915 014f 34       		.uleb128 0x34
 916 0150 00       		.byte	0
 917 0151 03       		.uleb128 0x3
 918 0152 0E       		.uleb128 0xe
 919 0153 3A       		.uleb128 0x3a
 920 0154 0B       		.uleb128 0xb
 921 0155 3B       		.uleb128 0x3b
 922 0156 0B       		.uleb128 0xb
 923 0157 49       		.uleb128 0x49
 924 0158 13       		.uleb128 0x13
 925 0159 3F       		.uleb128 0x3f
 926 015a 19       		.uleb128 0x19
 927 015b 02       		.uleb128 0x2
 928 015c 18       		.uleb128 0x18
 929 015d 00       		.byte	0
 930 015e 00       		.byte	0
 931 015f 1B       		.uleb128 0x1b
 932 0160 2E       		.uleb128 0x2e
 933 0161 01       		.byte	0x1
 934 0162 3F       		.uleb128 0x3f
 935 0163 19       		.uleb128 0x19
 936 0164 03       		.uleb128 0x3
 937 0165 0E       		.uleb128 0xe
 938 0166 3A       		.uleb128 0x3a
 939 0167 0B       		.uleb128 0xb
 940 0168 3B       		.uleb128 0x3b
 941 0169 0B       		.uleb128 0xb
 942 016a 27       		.uleb128 0x27
 943 016b 19       		.uleb128 0x19
 944 016c 3C       		.uleb128 0x3c
 945 016d 19       		.uleb128 0x19
 946 016e 01       		.uleb128 0x1
 947 016f 13       		.uleb128 0x13
 948 0170 00       		.byte	0
 949 0171 00       		.byte	0
 950 0172 1C       		.uleb128 0x1c
 951 0173 05       		.uleb128 0x5
 952 0174 00       		.byte	0
 953 0175 49       		.uleb128 0x49
 954 0176 13       		.uleb128 0x13
 955 0177 00       		.byte	0
 956 0178 00       		.byte	0
 957 0179 1D       		.uleb128 0x1d
ARM GAS  C:\Users\TOM~1.MCK\AppData\Local\Temp\cc9DiSGE.s 			page 26


 958 017a 2E       		.uleb128 0x2e
 959 017b 00       		.byte	0
 960 017c 3F       		.uleb128 0x3f
 961 017d 19       		.uleb128 0x19
 962 017e 03       		.uleb128 0x3
 963 017f 0E       		.uleb128 0xe
 964 0180 3A       		.uleb128 0x3a
 965 0181 0B       		.uleb128 0xb
 966 0182 3B       		.uleb128 0x3b
 967 0183 0B       		.uleb128 0xb
 968 0184 27       		.uleb128 0x27
 969 0185 19       		.uleb128 0x19
 970 0186 3C       		.uleb128 0x3c
 971 0187 19       		.uleb128 0x19
 972 0188 00       		.byte	0
 973 0189 00       		.byte	0
 974 018a 00       		.byte	0
 975              		.section	.debug_loc,"",%progbits
 976              	.Ldebug_loc0:
 977              	.LLST0:
 978 0000 00000000 		.4byte	.LVL0
 979 0004 11000000 		.4byte	.LVL1-1
 980 0008 0100     		.2byte	0x1
 981 000a 50       		.byte	0x50
 982 000b 11000000 		.4byte	.LVL1-1
 983 000f 3E000000 		.4byte	.LVL8
 984 0013 0100     		.2byte	0x1
 985 0015 55       		.byte	0x55
 986 0016 3E000000 		.4byte	.LVL8
 987 001a 44000000 		.4byte	.LFE32
 988 001e 0400     		.2byte	0x4
 989 0020 F3       		.byte	0xf3
 990 0021 01       		.uleb128 0x1
 991 0022 50       		.byte	0x50
 992 0023 9F       		.byte	0x9f
 993 0024 00000000 		.4byte	0
 994 0028 00000000 		.4byte	0
 995              	.LLST1:
 996 002c 00000000 		.4byte	.LVL0
 997 0030 11000000 		.4byte	.LVL1-1
 998 0034 0100     		.2byte	0x1
 999 0036 51       		.byte	0x51
 1000 0037 11000000 		.4byte	.LVL1-1
 1001 003b 3E000000 		.4byte	.LVL7
 1002 003f 0100     		.2byte	0x1
 1003 0041 54       		.byte	0x54
 1004 0042 3E000000 		.4byte	.LVL7
 1005 0046 44000000 		.4byte	.LFE32
 1006 004a 0400     		.2byte	0x4
 1007 004c F3       		.byte	0xf3
 1008 004d 01       		.uleb128 0x1
 1009 004e 51       		.byte	0x51
 1010 004f 9F       		.byte	0x9f
 1011 0050 00000000 		.4byte	0
 1012 0054 00000000 		.4byte	0
 1013              	.LLST2:
 1014 0058 1C000000 		.4byte	.LVL2
ARM GAS  C:\Users\TOM~1.MCK\AppData\Local\Temp\cc9DiSGE.s 			page 27


 1015 005c 3E000000 		.4byte	.LVL8
 1016 0060 0100     		.2byte	0x1
 1017 0062 55       		.byte	0x55
 1018 0063 3E000000 		.4byte	.LVL8
 1019 0067 44000000 		.4byte	.LFE32
 1020 006b 0400     		.2byte	0x4
 1021 006d F3       		.byte	0xf3
 1022 006e 01       		.uleb128 0x1
 1023 006f 50       		.byte	0x50
 1024 0070 9F       		.byte	0x9f
 1025 0071 00000000 		.4byte	0
 1026 0075 00000000 		.4byte	0
 1027              	.LLST3:
 1028 0079 26000000 		.4byte	.LVL3
 1029 007d 3E000000 		.4byte	.LVL7
 1030 0081 0100     		.2byte	0x1
 1031 0083 54       		.byte	0x54
 1032 0084 3E000000 		.4byte	.LVL7
 1033 0088 44000000 		.4byte	.LFE32
 1034 008c 0400     		.2byte	0x4
 1035 008e F3       		.byte	0xf3
 1036 008f 01       		.uleb128 0x1
 1037 0090 51       		.byte	0x51
 1038 0091 9F       		.byte	0x9f
 1039 0092 00000000 		.4byte	0
 1040 0096 00000000 		.4byte	0
 1041              		.section	.debug_aranges,"",%progbits
 1042 0000 24000000 		.4byte	0x24
 1043 0004 0200     		.2byte	0x2
 1044 0006 00000000 		.4byte	.Ldebug_info0
 1045 000a 04       		.byte	0x4
 1046 000b 00       		.byte	0
 1047 000c 0000     		.2byte	0
 1048 000e 0000     		.2byte	0
 1049 0010 00000000 		.4byte	.LFB33
 1050 0014 30000000 		.4byte	.LFE33-.LFB33
 1051 0018 00000000 		.4byte	.LFB32
 1052 001c 44000000 		.4byte	.LFE32-.LFB32
 1053 0020 00000000 		.4byte	0
 1054 0024 00000000 		.4byte	0
 1055              		.section	.debug_ranges,"",%progbits
 1056              	.Ldebug_ranges0:
 1057 0000 00000000 		.4byte	.LFB33
 1058 0004 30000000 		.4byte	.LFE33
 1059 0008 00000000 		.4byte	.LFB32
 1060 000c 44000000 		.4byte	.LFE32
 1061 0010 00000000 		.4byte	0
 1062 0014 00000000 		.4byte	0
 1063              		.section	.debug_line,"",%progbits
 1064              	.Ldebug_line0:
 1065 0000 A0000000 		.section	.debug_str,"MS",%progbits,1
 1065      02005C00 
 1065      00000201 
 1065      FB0E0D00 
 1065      01010101 
 1066              	.LASF25:
 1067 0000 64737441 		.ascii	"dstAddress\000"
ARM GAS  C:\Users\TOM~1.MCK\AppData\Local\Temp\cc9DiSGE.s 			page 28


 1067      64647265 
 1067      737300
 1068              	.LASF29:
 1069 000b 4379446D 		.ascii	"CyDmaValidateDescriptor\000"
 1069      6156616C 
 1069      69646174 
 1069      65446573 
 1069      63726970 
 1070              	.LASF27:
 1071 0023 4379446D 		.ascii	"CyDmaSetSrcAddress\000"
 1071      61536574 
 1071      53726341 
 1071      64647265 
 1071      737300
 1072              	.LASF2:
 1073 0036 73686F72 		.ascii	"short int\000"
 1073      7420696E 
 1073      7400
 1074              	.LASF16:
 1075 0040 73697A65 		.ascii	"sizetype\000"
 1075      74797065 
 1075      00
 1076              	.LASF33:
 1077 0049 433A5C55 		.ascii	"C:\\Users\\Tom.McKay\\Documents\\PacificAveResearch"
 1077      73657273 
 1077      5C546F6D 
 1077      2E4D634B 
 1077      61795C44 
 1078 0078 5C70726F 		.ascii	"\\projects\\fall2016_waffle_prototype\\DMA_SPI_PSoC"
 1078      6A656374 
 1078      735C6661 
 1078      6C6C3230 
 1078      31365F77 
 1079 00a8 3430315C 		.ascii	"401\\DMA_SPI_PSoC401.cydsn\000"
 1079      444D415F 
 1079      5350495F 
 1079      50536F43 
 1079      3430312E 
 1080              	.LASF17:
 1081 00c2 6379646D 		.ascii	"cydma_channel_ctl_struct\000"
 1081      615F6368 
 1081      616E6E65 
 1081      6C5F6374 
 1081      6C5F7374 
 1082              	.LASF9:
 1083 00db 75696E74 		.ascii	"uint8\000"
 1083      3800
 1084              	.LASF24:
 1085 00e1 5278446D 		.ascii	"RxDmaS_SetDstAddress\000"
 1085      61535F53 
 1085      65744473 
 1085      74416464 
 1085      72657373 
 1086              	.LASF0:
 1087 00f6 7369676E 		.ascii	"signed char\000"
 1087      65642063 
 1087      68617200 
ARM GAS  C:\Users\TOM~1.MCK\AppData\Local\Temp\cc9DiSGE.s 			page 29


 1088              	.LASF12:
 1089 0102 666C6F61 		.ascii	"float\000"
 1089      7400
 1090              	.LASF6:
 1091 0108 6C6F6E67 		.ascii	"long long int\000"
 1091      206C6F6E 
 1091      6720696E 
 1091      7400
 1092              	.LASF4:
 1093 0116 6C6F6E67 		.ascii	"long int\000"
 1093      20696E74 
 1093      00
 1094              	.LASF23:
 1095 011f 5278446D 		.ascii	"RxDmaS_SetSrcAddress\000"
 1095      61535F53 
 1095      65745372 
 1095      63416464 
 1095      72657373 
 1096              	.LASF28:
 1097 0134 4379446D 		.ascii	"CyDmaSetDstAddress\000"
 1097      61536574 
 1097      44737441 
 1097      64647265 
 1097      737300
 1098              	.LASF31:
 1099 0147 474E5520 		.ascii	"GNU C 4.9.3 20150303 (release) [ARM/embedded-4_9-br"
 1099      4320342E 
 1099      392E3320 
 1099      32303135 
 1099      30333033 
 1100 017a 616E6368 		.ascii	"anch revision 221220] -mcpu=cortex-m0 -mthumb -g -O"
 1100      20726576 
 1100      6973696F 
 1100      6E203232 
 1100      31323230 
 1101 01ad 67202D66 		.ascii	"g -ffunction-sections -ffat-lto-objects\000"
 1101      66756E63 
 1101      74696F6E 
 1101      2D736563 
 1101      74696F6E 
 1102              	.LASF1:
 1103 01d5 756E7369 		.ascii	"unsigned char\000"
 1103      676E6564 
 1103      20636861 
 1103      7200
 1104              	.LASF26:
 1105 01e3 5278446D 		.ascii	"RxDmaS_ValidateDescriptor\000"
 1105      61535F56 
 1105      616C6964 
 1105      61746544 
 1105      65736372 
 1106              	.LASF32:
 1107 01fd 2E5C4765 		.ascii	".\\Generated_Source\\PSoC4\\RxDmaS.c\000"
 1107      6E657261 
 1107      7465645F 
 1107      536F7572 
 1107      63655C50 
ARM GAS  C:\Users\TOM~1.MCK\AppData\Local\Temp\cc9DiSGE.s 			page 30


 1108              	.LASF7:
 1109 021f 6C6F6E67 		.ascii	"long long unsigned int\000"
 1109      206C6F6E 
 1109      6720756E 
 1109      7369676E 
 1109      65642069 
 1110              	.LASF8:
 1111 0236 756E7369 		.ascii	"unsigned int\000"
 1111      676E6564 
 1111      20696E74 
 1111      00
 1112              	.LASF34:
 1113 0243 5278446D 		.ascii	"RxDmaS_ChEnable\000"
 1113      61535F43 
 1113      68456E61 
 1113      626C6500 
 1114              	.LASF15:
 1115 0253 72656733 		.ascii	"reg32\000"
 1115      3200
 1116              	.LASF3:
 1117 0259 73686F72 		.ascii	"short unsigned int\000"
 1117      7420756E 
 1117      7369676E 
 1117      65642069 
 1117      6E7400
 1118              	.LASF18:
 1119 026c 73746174 		.ascii	"status\000"
 1119      757300
 1120              	.LASF21:
 1121 0273 6379646D 		.ascii	"cydma_descriptor_ram_struct\000"
 1121      615F6465 
 1121      73637269 
 1121      70746F72 
 1121      5F72616D 
 1122              	.LASF14:
 1123 028f 63686172 		.ascii	"char\000"
 1123      00
 1124              	.LASF19:
 1125 0294 6379646D 		.ascii	"cydma_descriptor_struct\000"
 1125      615F6465 
 1125      73637269 
 1125      70746F72 
 1125      5F737472 
 1126              	.LASF22:
 1127 02ac 73726341 		.ascii	"srcAddress\000"
 1127      64647265 
 1127      737300
 1128              	.LASF37:
 1129 02b7 5278446D 		.ascii	"RxDmaS_initVar\000"
 1129      61535F69 
 1129      6E697456 
 1129      617200
 1130              	.LASF10:
 1131 02c6 75696E74 		.ascii	"uint32\000"
 1131      333200
 1132              	.LASF5:
 1133 02cd 6C6F6E67 		.ascii	"long unsigned int\000"
ARM GAS  C:\Users\TOM~1.MCK\AppData\Local\Temp\cc9DiSGE.s 			page 31


 1133      20756E73 
 1133      69676E65 
 1133      6420696E 
 1133      7400
 1134              	.LASF11:
 1135 02df 696E7433 		.ascii	"int32\000"
 1135      3200
 1136              	.LASF13:
 1137 02e5 646F7562 		.ascii	"double\000"
 1137      6C6500
 1138              	.LASF36:
 1139 02ec 5278446D 		.ascii	"RxDmaS_Start\000"
 1139      61535F53 
 1139      74617274 
 1139      00
 1140              	.LASF35:
 1141 02f9 5278446D 		.ascii	"RxDmaS_Init\000"
 1141      61535F49 
 1141      6E697400 
 1142              	.LASF30:
 1143 0305 4379446D 		.ascii	"CyDmaChEnable\000"
 1143      61436845 
 1143      6E61626C 
 1143      6500
 1144              	.LASF38:
 1145 0313 4379446D 		.ascii	"CyDmaEnable\000"
 1145      61456E61 
 1145      626C6500 
 1146              	.LASF20:
 1147 031f 64657363 		.ascii	"descriptor\000"
 1147      72697074 
 1147      6F7200
 1148              		.ident	"GCC: (GNU Tools for ARM Embedded Processors) 4.9.3 20150303 (release) [ARM/embedded-4_9-br
